<svg xmlns="http://www.w3.org/2000/svg" viewBox="0 0 512 512">
    <defs><style>.color1{fill:#000000;}</style></defs>
    <title>christmas-11</title>
    <path class="color1" transform="scale(1, -1) translate(0, -512)" d="M278 120q-30 0 -51 21t-21 51t21 51.5t51 21.5t51 -21.5t21 -51.5t-21 -51t-51 -21zM278 243q-21 0 -36 -15t-15 -36t15 -36t36 -15t36 15t15 36t-15 36t-36 15zM268 43q-26 0 -44 18.5t-18 43.5q0 29 21 47q9 7 15 -1q8 -8 -1 -15q-14 -12 -14 -31q0 -17 12 -29t29 -12
t29 12t12 29q0 13 -8 24q-5 9 3 15q9 5 15 -3q11 -16 11 -36q0 -25 -18 -43.5t-44 -18.5zM189 85q-25 0 -43.5 18.5t-18.5 43.5t18.5 43.5t43.5 18.5q16 0 29 -7q10 -5 5 -15q-5 -9 -15 -4t-19 5q-17 0 -29 -12t-12 -29t12 -29t29 -12q9 0 19 5t15 -4q5 -10 -4 -15
q-14 -7 -30 -7zM410 134h-3l-74 19q-11 2 -7 13q2 11 13 7l57 -14q0 31 43 60q-6 11 -3 22q5 23 30 39q-1 2 -4 11q-2 12 3 23q-13 -3 -23 1q-6 2 -10 7q-21 -23 -45 -23q-11 0 -20 7q-37 -37 -67 -31l1 -22q0 -11 -10 -11q-11 0 -11 10l-3 38q0 7 5 10q6 3 11 0
q28 -15 67 30q4 6 9 4q7 -2 8 -6q3 -8 11 -8t20 8.5t16 18.5q2 6 11 6q8 -2 9 -9q1 -9 6 -9q14 -6 45 18q7 6 15 -2q5 -9 -2 -15q-29 -26 -25 -41q0 -5 8 -8q8 -2 6 -10q0 -8 -8 -10q-10 -2 -20 -12t-12 -18q-2 -7 5 -12q5 -3 5 -9t-6 -9q-52 -30 -41 -59q2 -6 -3 -11
q-3 -3 -7 -3zM218 194q-8 0 -11 8q-3 12 -14.5 19t-21.5 8l-10 1q-7 0 -11 7q-2 8 4 12q24 20 -4 72q-3 6 0 11t9 5q9 0 11 7q3 8 -0.5 22t-10.5 21q-6 4 -2 12q3 8 11 6q7 -2 11 2q11 13 0 48q-2 11 7 13q10 3 14 -6q12 -35 28 -39q6 0 10 5q7 5 13 2t6 -11q-1 -10 4 -23.5
t12 -18.5q6 -4 13 1q5 3 10 1q6 -2 6 -8q9 -60 40 -61q10 0 10 -11q0 -5 -3.5 -8t-7.5 -2q-46 1 -58 66q-9 -3 -21 4q-21 13 -26 43q-6 -2 -12 0q-11 3 -20 12q-2 -14 -9 -21q-6 -6 -10 -7q13 -30 5 -50q-4 -11 -15 -17q21 -44 6 -70q38 -9 47 -42q2 -10 -8 -13h-2zM107 131
q-4 0 -6 2q-5 3 -5 10q2 9 -5.5 17t-31.5 15q-6 4 -7 8q-1 6 3 10q2 3 1 6q-2 5 -10 10t-15 5q-8 0 -10 7q-2 9 4 12q4 2 3 4q0 11 -23 23q-8 5 -4 14q5 10 14 5q26 -11 32 -5q2 0 2 4q0 8 7 11q8 2 12 -4q4 -5 12.5 -9t14.5 -3q3 0 4 5q0 4 6 8q6 1 11 -2q33 -26 48 -11
q5 4 10 2q7 -2 7 -9l3 -17q2 -12 -9 -12q-10 -2 -12 8v3q-24 -8 -50 12q-7 -7 -14 -8q-15 -3 -35 8q-3 -3 -5 -4q-4 -3 -13 -5q4 -8 4 -13t-1 -7q20 -8 27 -24q3 -8 2 -15q31 -13 38 -34l17 9q10 3 15 -5q4 -10 -5 -15l-31 -15q-2 -1 -5 -1z"/>
</svg>