<svg xmlns="http://www.w3.org/2000/svg" viewBox="0 0 512 512">
    <defs><style>.color1{fill:#000000;}</style></defs>
    <title>christmas-12</title>
    <path class="color1" transform="scale(1, -1) translate(0, -512)" d="M318 54h-152q-10 0 -10 10v283q0 11 10 11h151q11 0 11 -11v-283q0 -10 -10 -10zM177 75h130v261h-130v-261zM405 2h-326q-5 0 -8 4l-47 51q-5 5 -2 12q3 6 10 6h420q7 0 10 -6q2 -8 -2 -12l-47 -51q-3 -4 -8 -4zM83 23h318l27 31h-372zM242 353q-1 0 -2.5 0.5t-2.5 0.5
q-6 3 -14.5 8.5t-22.5 22.5t-16 36q-4 42 51 87q7 5 13 0l4 -3q3 -3 8 -7t11 -10t11.5 -13.5t10.5 -15.5t7.5 -17.5t2.5 -19.5q-3 -39 -56 -68q-1 0 -2.5 -0.5t-2.5 -0.5zM242 486q-39 -33 -37 -62q3 -28 37 -48q37 21 39 47q3 32 -39 63zM311 146h-5q-97 43 -149 120
q-6 9 4 15q9 6 15 -4q5 -8 14.5 -20.5t45.5 -42t79 -48.5q10 -4 6 -14q-3 -6 -10 -6zM311 79q-1 0 -2.5 0.5t-2.5 0.5q-97 43 -149 120q-6 9 4 15q9 6 15 -4q0 -3 13 -19.5t48 -44.5t78 -47q10 -4 6 -14q-3 -7 -10 -7zM436 68q-23 0 -39 16t-16 39t16 39t39 16
q22 0 38.5 -16t16.5 -39t-16.5 -39t-38.5 -16zM436 157q-14 0 -24 -10t-10 -24t10 -24t24 -10t24 10t10 24t-10 24t-24 10z"/>
</svg>