<svg xmlns="http://www.w3.org/2000/svg" viewBox="0 0 512 512">
    <defs><style>.color1{fill:#000000;}</style></defs>
    <title>christmas-17</title>
    <path class="color1" transform="scale(1, -1) translate(0, -512)" d="M236 412q0 -12 -13 -12q-12 0 -12 12t12 12q13 0 13 -12zM301 412q0 -12 -12 -12q-13 0 -13 12t13 12q12 0 12 -12zM268 247q0 -12 -12 -12t-12 12q0 13 12 13t12 -13zM268 177q0 -13 -12 -13t-12 13q0 12 12 12t12 -12zM268 106q0 -12 -12 -12t-12 12t12 12t12 -12z
M256 0q-68 0 -116.5 50.5t-48.5 121.5q0 52 26.5 94.5t71.5 62.5q-35 29 -35 72t32 70q8 8 15 -1q7 -7 -1 -15q-25 -22 -25 -54q0 -44 41 -65q6 -3 6 -11q0 -7 -7 -9q-46 -14 -74.5 -54t-28.5 -90q0 -62 42.5 -106.5t101.5 -44.5t101.5 44.5t42.5 106.5q0 50 -28.5 90
t-74.5 54q-7 2 -7 9q0 8 6 11q41 21 41 65q0 34 -27 56q-8 8 -1 15q7 9 15 1q34 -28 34 -72q0 -43 -34 -72q44 -20 70.5 -62.5t26.5 -94.5q0 -71 -48.5 -121.5t-116.5 -50.5zM374 456h-228q-11 0 -11 11t11 11h228q11 0 11 -11t-11 -11zM298 491h-76q-11 0 -11 10
q0 11 11 11h76q11 0 11 -11q0 -10 -11 -10zM33 264q-2 0 -6 2q-9 7 -2 15q10 14 25 26.5t35.5 22t46 8t49.5 -17.5q9 -5 3 -15q-5 -9 -15 -3q-19 13 -39.5 14t-34.5 -5t-27 -16.5t-18.5 -16.5t-7.5 -9q-3 -5 -9 -5zM479 264q-6 0 -9 5q-2 3 -7.5 9t-18.5 16.5t-27 16.5
t-34.5 5t-39.5 -14q-10 -6 -15 3q-6 10 3 15q24 16 49.5 17.5t46 -8t35.5 -22t25 -26.5q7 -8 -2 -15q-4 -2 -6 -2z"/>
</svg>