<svg xmlns="http://www.w3.org/2000/svg" viewBox="0 0 512 512">
    <defs><style>.color1{fill:#000000;}</style></defs>
    <title>christmas-18</title>
    <path class="color1" transform="scale(1, -1) translate(0, -512)" d="M421 223h-330q-38 0 -65 26.5t-27 64.5t27 65t65 27q17 0 32 -6q9 26 31.5 42t50.5 16q16 0 28 -4q13 24 37 38.5t52 14.5q42 0 71.5 -30t29.5 -71q37 -1 63.5 -27.5t26.5 -64.5t-27 -64.5t-65 -26.5zM91 384q-29 0 -49.5 -20.5t-20.5 -49.5t20.5 -49.5t49.5 -20.5h330
q29 0 49.5 20.5t20.5 49.5t-20.5 49.5t-49.5 20.5h-8q-6 -2 -9 3q-4 4 -3 9q0 1 0.5 4.5t0.5 5.5q0 33 -23.5 56t-56.5 23q-54 0 -74 -49q-2 -4 -6 -6q-5 -2 -8 0q-13 7 -29 7q-24 0 -42 -15.5t-23 -38.5q0 -6 -6 -8q-4 -1 -9 0q-16 9 -34 9zM144 154l-22 -14l6 25l-20 17
l26 2l10 24l10 -24l25 -2l-19 -17l5 -25zM366 156l-16 -10l4 18l-14 13l19 2l7 18l8 -18l19 -2l-14 -13l4 -18zM178 23l-29 -18l8 33l-25 22l33 3l13 30l13 -30l33 -3l-25 -22l7 -33zM357 41l-16 -10l4 19l-15 12l20 2l7 18l8 -18l19 -2l-15 -12l5 -19zM258 105l-27 -17
l7 32l-25 21l33 3l12 30l13 -30l33 -3l-25 -21l7 -32z"/>
</svg>