<svg xmlns="http://www.w3.org/2000/svg" viewBox="0 0 512 512">
    <defs><style>.color1{fill:#000000;}</style></defs>
    <title>christmas-24</title>
    <path class="color1" transform="scale(1, -1) translate(0, -512)" d="M462 223h-284q-21 0 -35.5 14.5t-14.5 35.5v12q0 20 14.5 35t35.5 15h284q20 0 35 -15t15 -35v-12q0 -21 -15 -35.5t-35 -14.5zM178 314q-12 0 -20.5 -8.5t-8.5 -20.5v-12q0 -12 8.5 -20.5t20.5 -8.5h284q12 0 20.5 8.5t8.5 20.5v12q0 12 -8.5 20.5t-20.5 8.5h-284z
M414 0h-188q-9 0 -11 8l-47 223q0 7 2 9q3 4 9 4h282q5 0 8 -4t2 -8l-47 -224q-2 -8 -10 -8zM234 21h171l43 202h-256zM401 315q-4 0 -7 3l-63 62l-1 1q-32 29 -65 38q-44 11 -90 57l-10 10l-12 -11l11 -10q46 -46 58 -90q4 -20 20 -42q6 -10 -3 -15t-15 3q-17 25 -23 49
q-5 18 -18 38t-23 30.5t-11 10.5l-18 19q-3 3 -3 7q0 5 3 8l26 26q7 7 15 0l18 -18q42 -42 81 -52q37 -9 72 -41q1 0 1 -0.5t1 -0.5l64 -64q7 -7 0 -15q-3 -3 -8 -3zM163 449q-5 0 -8 3q-7 8 0 15l18 18q7 7 15 0t0 -15l-18 -18q-3 -3 -7 -3zM67 79h-6q-25 0 -43 17t-18 41
l8 97q2 9 11 9h90q9 0 11 -9l8 -96q0 -25 -17.5 -42t-43.5 -17zM29 222l-8 -86q0 -14 12 -24.5t28 -10.5h6q17 0 28.5 10.5t11.5 25.5l-8 85h-70zM64 1q-11 0 -11 11v73q0 10 11 10t11 -10v-73q0 -11 -11 -11zM91 1h-53q-11 0 -11 11q0 10 11 10h53q10 0 10 -10
q0 -11 -10 -11zM109 170h-90q-11 0 -11 11t11 11h90q10 0 10 -11t-10 -11z"/>
</svg>