<svg xmlns="http://www.w3.org/2000/svg" viewBox="0 0 512 512">
    <defs><style>.color1{fill:#000000;}</style></defs>
    <title>christmas-29</title>
    <path class="color1" transform="scale(1, -1) translate(0, -512)" d="M27 0q-3 0 -4 1q-10 2 -6 13q1 4 8 22t26 54t44 75t66 83.5t88 81t112.5 65t138.5 38.5q10 2 12 -9q2 -10 -9 -12q-70 -10 -133.5 -37.5t-109 -63t-84.5 -78t-63.5 -80.5t-42.5 -72.5t-25 -52t-8 -21.5q-3 -7 -10 -7zM98 140h-2l-2 1q-10 5 -5 14q20 45 27.5 97t4.5 92
t-11 77.5t-14 54.5t-8 21q-3 10 6 14q11 4 14 -6q4 -8 9 -24t14 -56.5t12 -81.5t-5 -95.5t-30 -101.5q-4 -6 -10 -6zM58 72q-5 0 -8 4q-6 8 1 15l1 1q92 71 215 87q97 12 193 -18q9 -4 7 -13q-3 -10 -14 -7q-63 20 -126.5 20t-107 -12t-82 -30.5t-53.5 -29.5t-19 -15
q-4 -2 -7 -2zM491 336q-1 0 -2 0.5t-2 0.5l-115 42q-5 1 -7 7q-1 5 2 10l69 79q8 8 15 1q9 -7 1 -15l-58 -67l101 -37q9 -4 6 -14q-3 -7 -10 -7zM419 276h-1l-2 1l-155 46q-10 4 -7 13l23 116q2 11 12 9q11 -4 9 -13l-22 -107l146 -44q10 -2 8 -13q-3 -8 -11 -8zM126 386h-2
l-2 1l-108 44q-9 6 -6 14q5 10 14 6l98 -40l41 95q3 9 14 5q9 -3 5 -14l-45 -104q-2 -7 -9 -7zM132 287q-2 0 -6 2l-91 55q-8 5 -3 14t14 4l83 -50l76 102q6 8 14 2t3 -15l-81 -109q-5 -5 -9 -5zM98 168q-5 0 -8 4l-72 92q-5 8 2 15q9 7 15 -2l72 -92q5 -8 -2 -15
q-2 -2 -7 -2zM310 233h-1l-134 6q-11 0 -11 11q2 10 11 10l135 -5q11 -2 11 -12q-2 -10 -11 -10zM53 62q-6 0 -9 5l-43 79q-6 10 5 14q9 5 14 -4l43 -78q6 -10 -5 -15q-1 -1 -5 -1zM383 82q-8 0 -10 7l-30 79q-3 8 4 13l104 63q10 6 15 -3q6 -9 -4 -15l-96 -59l27 -70
q3 -10 -6 -14q-1 0 -3 -1h-1zM291 82q-6 0 -9 6l-42 72q-5 10 4 15q9 6 15 -4l41 -73q5 -9 -4 -14q-2 -2 -5 -2zM194 51q-6 0 -9 6l-43 74q-5 10 4 15q10 6 14 -4l43 -75q5 -9 -3 -14q-4 -2 -6 -2zM121 46q-3 0 -4 1l-59 29q-10 5 -5 15q5 9 14 4l59 -29q9 -5 5 -14
q-3 -6 -10 -6zM151 131q-4 0 -7 3q-8 8 -1 15l62 70q8 8 15 1q9 -7 1 -15l-62 -70q-3 -4 -8 -4z"/>
</svg>