<svg xmlns="http://www.w3.org/2000/svg" viewBox="0 0 512 512">
    <defs><style>.color1{fill:#000000;}</style></defs>
    <title>christmas-32</title>
    <path class="color1" transform="scale(1, -1) translate(0, -512)" d="M269 11q-54 0 -104 17t-86 44t-50.5 40t-25.5 25l-1 1q-6 8 2 15q9 5 15 -2q5 -6 14.5 -16t35 -30.5t54 -36.5t70.5 -27.5t85.5 -10t99 22t110.5 62.5q7 6 15 -2q6 -9 -2 -15q-115 -87 -232 -87zM266 72q-22 0 -44 3.5t-40.5 10t-36 14.5t-31.5 17.5t-26.5 18.5t-21.5 17
t-16 14.5t-10 10.5l-4 4q-5 9 2 15q7 7 15 -1q7 -10 22 -24.5t55.5 -39.5t85 -35t109 4.5t129.5 63.5q8 5 15 -2q6 -9 -2 -15q-100 -76 -201 -76zM66 92q-4 0 -7 3q-8 8 -1 15q2 1 15 16.5t31.5 40.5t33 55.5t19 60.5t-10.5 55q-6 4 -15 9.5t-23.5 11.5t-30 4.5t-25.5 -12.5
q-3 -3 -8 -3t-8 4l-33 39q-3 3 -3 9q2 5 6 8q27 13 55.5 37t21.5 43q-1 4 2 9t8 5q7 0 15 -0.5t32 -5.5t42.5 -14.5t36 -31t22.5 -50.5q9 -56 14 -67t20 -11h9q31 -1 94 6q71 16 103 -8q31 -22 31 -76q0 -5 -3.5 -8t-7.5 -2q-10 0 -10 10q0 43 -23 58q-6 5 -14 7.5t-16 3.5
t-16 0.5t-15 -1.5t-12 -2t-9 -2l-3 -1q-1 0 -2 -1l-18 -2q-18 -1 -41.5 -2.5t-38.5 -1.5h-8q-26 0 -35.5 16.5t-19.5 79.5q-4 24 -18 42t-33 26t-33.5 11.5t-29.5 4.5q-2 -42 -79 -85l19 -21q41 29 115 -20q2 -2 2 -3q56 -87 -89 -256q-3 -3 -8 -3zM431 54q-8 0 -10 7
q-18 46 -36 74.5t-40 42.5t-36.5 18.5t-42.5 8.5l-12 2q-12 2 -24 3t-21.5 0.5t-18 -1.5t-15 -2.5t-11.5 -2.5t-8 -2l-2 -1q-9 -4 -14 6q-3 8 6 14l6 2q6 2 15.5 4t22.5 3.5t31.5 1t36.5 -3.5l11 -2q30 -5 46 -10t41 -20t45 -46.5t39 -80.5q5 -10 -6 -14l-1 -1h-2zM391 134
q-9 0 -10 7q-3 7 -10.5 32.5t-13 66t7.5 64.5q10 21 31 28q9 4 13 -7t-7 -13q-13 -5 -18 -17q-9 -17 -5.5 -48.5t9.5 -56t13 -42.5q4 -10 -7 -14h-3z"/>
</svg>