<svg xmlns="http://www.w3.org/2000/svg" viewBox="0 0 512 512">
    <defs><style>.color1{fill:#000000;}</style></defs>
    <title>christmas-54</title>
    <path class="color1" transform="scale(1, -1) translate(0, -512)" d="M256 216q-50 0 -84.5 35t-34.5 84t35 84t84 35t84 -35t35 -84t-34.5 -84t-84.5 -35zM256 432q-41 0 -69.5 -28.5t-28.5 -68.5q0 -41 29 -69.5t69 -28.5t69 28.5t29 69.5q0 40 -28.5 68.5t-69.5 28.5zM256 0q-69 0 -69 241q0 11 11 11t11 -11q0 -56 3.5 -98.5t9 -65
t12 -36t12 -17t10.5 -3.5t9.5 3t11.5 16t12.5 35t9.5 65t4 101q0 11 10 11q11 0 11 -11q0 -241 -68 -241zM287 428q-11 0 -11 11q0 52 -20 52q-21 0 -21 -52q0 -11 -11 -11q-10 0 -10 11q0 73 42 73q41 0 41 -73q0 -11 -10 -11zM256 319q-13 0 -26.5 2t-24 4.5t-20 6t-17 7
t-12.5 6t-8 4.5l-3 2q-9 8 -2 15q5 9 15 3q6 -6 28 -16.5t71.5 -11.5t97.5 28q10 6 15 -4q5 -9 -4 -14q-53 -32 -110 -32zM256 258q-13 0 -26 1.5t-23 4.5t-19.5 6.5t-16.5 6.5t-12 6t-8 5l-3 1q-7 7 -2 15q7 9 15 2q31 -16 34 -17q80 -27 157 18q9 5 14 -4t-3 -14
q-50 -31 -107 -31zM188 315q0 -9 -8 -9t-8 9q0 8 8 8t8 -8zM232 302q0 -8 -8 -8t-8 8q0 9 8 9t8 -9zM287 302q0 -8 -8 -8t-8 8q0 9 8 9t8 -9zM337 315q0 -9 -8 -9t-8 9q0 8 8 8t8 -8zM251 109q-15 0 -28 3t-19 5.5t-7 3.5q-10 6 -4 15q5 9 15 3l2 -1l7.5 -2.5t10.5 -3
t14.5 -1.5h17.5t21 3t24 7q11 4 14 -6q3 -9 -7 -14q-31 -12 -61 -12zM284 459l-2 1h-2q-6 2 -11.5 3.5t-10 1.5h-8.5t-7 -1t-5.5 -1.5t-3.5 -0.5l-2 -1q-9 -5 -14 4q-6 9 4 15l2 1q2 1 5 2t7.5 2t10.5 1.5t12 0t13.5 -2t15.5 -4.5q10 -3 6 -14q-4 -7 -10 -7z"/>
</svg>