<svg xmlns="http://www.w3.org/2000/svg" viewBox="0 0 512 512">
    <defs><style>.color1{fill:#000000;}</style></defs>
    <title>christmas-77</title>
    <path class="color1" transform="scale(1, -1) translate(0, -512)" d="M207 0q-85 0 -168 18q-16 4 -27.5 20t-11.5 35v49q0 18 10 29.5t26 11.5q1 0 3.5 -0.5t4.5 -0.5q163 -37 326 0q1 0 3.5 0.5t4.5 0.5q16 0 26 -11.5t10 -29.5v-49q0 -19 -11.5 -35t-27.5 -20q-84 -18 -168 -18zM36 141q-15 0 -15 -19v-49q0 -11 7 -21.5t16 -12.5
q163 -37 326 0q9 2 15.5 12.5t6.5 21.5v49q0 10 -5 15t-12 4q-168 -36 -336 0h-3zM363 149q-10 20 -39 84q-1 3 -2.5 6.5t-3.5 8t-3 6.5q-22 42 -23 71q0 30 17 41q19 13 51 -2q12 -5 27 -17l-13 -17q-13 10 -23 15q-20 9 -30 3q-7 -5 -7 -23q0 -20 20 -62q4 -7 10 -21
q14 -35 38 -83zM52 149l-21 5q18 79 49 178t48 128q18 28 49 42t69 9q34 -4 98.5 -58t84.5 -80l-17 -13q-19 25 -79.5 76t-88.5 54q-66 8 -97 -41q-17 -27 -47 -124t-48 -176zM438 230q-31 0 -53 22.5t-22 53.5q0 32 22 54.5t53 22.5t52.5 -22.5t21.5 -54.5t-21.5 -54
t-52.5 -22zM438 361q-22 0 -37.5 -16t-15.5 -39t15.5 -39t37.5 -16t37.5 16t15.5 39t-15.5 39t-37.5 16z"/>
</svg>