<svg xmlns="http://www.w3.org/2000/svg" viewBox="0 0 512 512">
    <defs><style>.color1{fill:#000000;}</style></defs>
    <title>christmas-82</title>
    <path class="color1" transform="scale(1, -1) translate(0, -512)" d="M215 129q-35 0 -57 22q-28 29 -18.5 79t51.5 93q54 54 115 54q36 0 57 -21q29 -29 19.5 -79.5t-52.5 -92.5q-53 -55 -115 -55zM306 356q-52 0 -100 -48q-36 -37 -45.5 -78t12.5 -64q16 -16 42 -16q53 0 100 49q36 36 45.5 77.5t-12.5 64.5q-15 15 -42 15zM144 2
q-6 0 -10 7l-24 58l-37 -9q-4 -1 -9 2q-4 4 -4 8l1 47l-52 21q-7 2 -7 10q0 6 7 10l129 46q9 4 13 -7q4 -9 -6 -13l-102 -37l32 -13q7 -4 7 -10v-40l32 7q9 4 13 -6l18 -44l52 106q4 9 14 5q9 -5 5 -14l-62 -128q-3 -6 -10 -6zM372 295q-7 0 -10 6q-4 10 5 14l106 52l-44 18
q-10 4 -6 13l7 32h-40q-6 0 -10 7l-13 32l-37 -102q-4 -10 -13 -6q-11 4 -7 13l46 129q4 7 10 7q8 0 10 -7l21 -52l47 1q4 0 8 -4q3 -5 2 -9l-9 -37l58 -24q7 -4 7 -10q0 -7 -6 -10l-127 -62q-2 -1 -5 -1z"/>
</svg>