<svg xmlns="http://www.w3.org/2000/svg" viewBox="0 0 512 512">
    <defs><style>.color1{fill:#000000;}</style></defs>
    <title>christmas-9</title>
    <path class="color1" transform="scale(1, -1) translate(0, -512)" d="M480 248h-172q-11 0 -11 11q0 10 11 10h172q11 0 11 11v66q0 10 -11 10h-448q-11 0 -11 -10v-66q0 -11 11 -11h171q11 0 11 -10q0 -11 -11 -11h-171q-14 0 -23 9t-9 23v66q0 13 9.5 22.5t22.5 9.5h448q13 0 22.5 -9.5t9.5 -22.5v-66q0 -14 -9 -23t-23 -9zM446 0h-380
q-13 0 -22.5 9.5t-9.5 22.5v205q0 13 9.5 22.5t22.5 9.5h141q11 0 11 -10q0 -11 -11 -11h-141q-10 0 -10 -11v-205q0 -11 10 -11h380q10 0 10 11v205q0 11 -10 11h-141q-11 0 -11 11q0 10 11 10h141q13 0 22.5 -9.5t9.5 -22.5v-205q0 -13 -9.5 -22.5t-22.5 -9.5zM264 360
q-5 0 -8 2q-7 4 -7 11v3v5q16 66 53 105q29 29 61 26q18 -2 27 -17q23 -35 2 -91q-8 -24 -64 -28q-18 0 -28 -3l-6 -3q-20 -10 -30 -10zM358 491q-22 0 -40 -20q-33 -34 -46 -88l12 6l5 2.5t4 1.5q10 3 34 5q41 2 45 14q18 45 0 71q-3 6 -11 8h-3zM248 360q-10 0 -30 10
l-6 3q-11 3 -28 3q-56 4 -64 28q-21 56 2 91q9 15 27 17q32 3 61 -26q37 -39 53 -105v-5v-3q0 -7 -7 -11q-3 -2 -8 -2zM154 491h-3q-8 -2 -11 -8q-18 -26 0 -71q4 -12 45 -14q24 -2 34 -5q1 0 4 -1.5l5 -2.5l12 -6q-13 54 -46 88q-18 20 -40 20zM207 5q-10 0 -10 11v351
q0 11 10 11q11 0 11 -11v-351q0 -11 -11 -11zM305 5q-11 0 -11 11v351q0 11 11 11q10 0 10 -11v-351q0 -11 -10 -11z"/>
</svg>