<svg xmlns="http://www.w3.org/2000/svg" viewBox="0 0 512 512">
    <defs><style>.color1{fill:#000000;}</style></defs>
    <title>christmas-91</title>
    <path class="color1" transform="scale(1, -1) translate(0, -512)" d="M221 45q-72 0 -135.5 40t-78.5 95q-13 46 -1 61q5 8 15 8l12 -3q25 -14 43 -14q47 0 73 75q-2 14 -2 21q0 58 40.5 98.5t98.5 40.5q57 0 97.5 -40.5t40.5 -98.5q3 -155 -69 -229q-54 -54 -134 -54zM22 227q-3 -7 6 -41q13 -48 70.5 -83.5t122.5 -35.5q72 0 119 47
q66 68 63 214q0 49 -34.5 83t-82.5 34q-49 0 -83.5 -34t-34.5 -83q0 -6 2 -20v-5q-31 -92 -94 -92q-27 0 -53 16h-1zM194 127q-29 0 -51 13.5t-28 34.5q-4 20 1 28q4 6 11 6q2 0 5 -1l3 -1q8 -5 12 -5q12 0 20 22v7q0 24 17 41t41 17q26 0 45 -21q19 -19 17 -42
q-2 -50 -29.5 -74.5t-63.5 -24.5zM135 183q1 -1 1 -3q4 -14 20.5 -23t37.5 -9q13 0 26 3.5t29 23t17 52.5q1 12 -11 26q-14 14 -30 14q-15 0 -26 -10.5t-11 -25.5q0 -4 1 -6q0 -4 -1 -5q-12 -39 -41 -39q-4 0 -12 2zM414 267q-7 0 -10 6q-5 9 4 14l67 39l-68 20q-9 2 -7 13
q4 11 14 7l90 -27q6 -2 8 -9q0 -6 -5 -11l-88 -50q-4 -2 -5 -2zM317 306q-18 0 -31 13t-13 31q0 19 13 31.5t31 12.5t31 -12.5t13 -31.5q0 -18 -13 -31t-31 -13zM317 373q-9 0 -15.5 -6.5t-6.5 -16.5q0 -9 6.5 -15.5t15.5 -6.5q10 0 16.5 6.5t6.5 15.5q0 10 -6.5 16.5
t-16.5 6.5z"/>
</svg>