<svg xmlns="http://www.w3.org/2000/svg" viewBox="0 0 512 512">
    <defs><style>.color1{fill:#000000;}</style></defs>
    <title>food-106</title>
    <path class="color1" transform="scale(1, -1) translate(0, -512)" d="M354 174h-196q-24 0 -41 17.5t-17 41.5v46q0 24 17 41.5t41 17.5h196q24 0 41 -17.5t17 -41.5v-46q0 -24 -17 -41.5t-41 -17.5zM158 316q-15 0 -26 -10.5t-11 -26.5v-46q0 -16 11 -26.5t26 -10.5h196q15 0 26 10.5t11 26.5v46q0 16 -11 26.5t-26 10.5h-196zM38 220
q-16 0 -27 10.5t-11 25.5t11 25.5t27 10.5q27 0 70 -8q11 -4 9 -13q-2 -10 -13 -8q-43 8 -66 8q-7 0 -12 -4.5t-5 -10.5t5 -10.5t12 -4.5q23 0 66 8q11 4 13 -8q2 -9 -9 -13q-43 -8 -70 -8zM474 220q-27 0 -70 8q-11 4 -9 13q2 12 13 8q43 -8 66 -8q7 0 12 4.5t5 10.5
t-5 10.5t-12 4.5q-23 0 -66 -8q-11 -4 -13 8q-2 9 9 13q43 8 70 8q16 0 27 -10.5t11 -25.5t-11 -25.5t-27 -10.5z"/>
</svg>