<svg xmlns="http://www.w3.org/2000/svg" viewBox="0 0 512 512">
    <defs><style>.color1{fill:#000000;}</style></defs>
    <title>food-111</title>
    <path class="color1" transform="scale(1, -1) translate(0, -512)" d="M269 132q-55 0 -94 45t-39 108v216q0 11 10 11h297q6 0 9 -6q4 -6 -1 -11l-49 -67v-143q0 -63 -39 -108t-94 -45zM157 491v-206q0 -54 33 -92.5t79 -38.5t79 38.5t33 92.5v147q0 4 2 6l39 53h-265zM397 0h-255q-10 0 -10 11v88q0 5 4 8l51 44q3 3 7 3h151q4 0 7 -3
l51 -44q4 -3 4 -8v-88q0 -11 -10 -11zM153 21h233v73l-45 38h-143l-45 -38v-73zM69 260q-10 0 -10 11v198q0 11 10 11h73q11 0 11 -11t-11 -11h-62v-187q0 -11 -11 -11zM284 66h-33q-11 0 -11 11t11 11h33q11 0 11 -11t-11 -11zM308 412h-81q-10 0 -10 11q0 10 10 10h81
q10 0 10 -10q0 -11 -10 -11zM308 345h-81q-10 0 -10 11t10 11h81q10 0 10 -11t-10 -11zM308 279h-81q-10 0 -10 10q0 11 10 11h81q10 0 10 -11q0 -10 -10 -10zM308 212h-81q-10 0 -10 11t10 11h81q10 0 10 -11t-10 -11z"/>
</svg>