<svg xmlns="http://www.w3.org/2000/svg" viewBox="0 0 512 512">
    <defs><style>.color1{fill:#000000;}</style></defs>
    <title>food-120</title>
    <path class="color1" transform="scale(1, -1) translate(0, -512)" d="M428 0q-71 0 -182 66.5t-224 179.5q-8 8 0 15t15 0q142 -142 269.5 -203t168.5 -21q41 41 -20.5 168.5t-203.5 269.5q-7 7 0 15t15 0q145 -145 210 -281t14 -187q-22 -22 -62 -22zM81 224q-37 0 -59 22q-32 32 -18.5 89t64.5 109q68 68 139 68q37 0 59 -22
q32 -32 18.5 -89t-64.5 -109q-68 -68 -139 -68zM207 491q-62 0 -124 -62q-46 -47 -58 -96q-12 -46 12 -72q16 -16 44 -16q62 0 124 62q43 43 57 93t-11 75q-16 16 -44 16zM98 391q-13 -13 -4 -20q8 -7 19 4t4 20q-7 7 -19 -4zM173 424q-11 -11 -4 -20q8 -8 19 5q13 11 4 19
q-8 8 -19 -4zM154 355q-13 -13 -4 -20q8 -7 19 4q12 12 4 20q-7 7 -19 -4zM81 316q-13 -11 -4 -19q8 -9 19 4q12 11 4 19q-8 9 -19 -4zM417 1q-4 0 -5 1q-6 3 -27 17t-67.5 52t-90.5 83q-7 9 1 15q8 9 15 0q20 -20 40 -39t37.5 -33.5t33.5 -27t28 -21.5t21.5 -15t14.5 -9
l5 -4q8 -5 3 -14q-2 -5 -9 -5zM386 201q-7 0 -10 5q-18 29 -51 62t-56 51.5t-25 18.5q-8 6 -3 15q6 8 15 3q99 -75 139 -139q6 -9 -4 -15q-2 -1 -5 -1z"/>
</svg>