<svg xmlns="http://www.w3.org/2000/svg" viewBox="0 0 512 512">
    <defs><style>.color1{fill:#000000;}</style></defs>
    <title>food-134</title>
    <path class="color1" transform="scale(1, -1) translate(0, -512)" d="M448 0h-384q-11 0 -21 7.5t-13 18.5l-27 87q-7 21 0 43l71 236q3 11 13 18.5t21 7.5h37q8 0 8 9v7q0 9 -8 9h-102q-12 0 -20.5 8.5t-8.5 21.5v9q0 13 8.5 21.5t20.5 8.5h426q12 0 20.5 -8.5t8.5 -21.5v-9q0 -13 -8.5 -21.5t-20.5 -8.5h-102q-8 0 -8 -9v-7q0 -9 8 -9h37
q11 0 21 -7.5t13 -18.5l71 -236q7 -22 0 -43l-27 -87q-3 -11 -13 -18.5t-21 -7.5zM108 397q-10 0 -14 -11l-71 -236q-4 -15 0 -30l27 -88q4 -11 14 -11h384q10 0 14 11l27 88q4 15 0 30l-71 236q-4 11 -14 11h-37q-13 0 -21.5 8.5t-8.5 21.5v7q0 13 8.5 21.5t21.5 8.5h102
q7 0 7 9v9q0 9 -7 9h-426q-7 0 -7 -9v-9q0 -9 7 -9h102q13 0 21.5 -8.5t8.5 -21.5v-7q0 -13 -8.5 -21.5t-21.5 -8.5h-37zM256 76q-53 0 -91 39t-38 94t38 94t91 39t91 -39t38 -94t-38 -94t-91 -39zM256 321q-44 0 -75.5 -33t-31.5 -79t31.5 -79t75.5 -33t75.5 33t31.5 79
t-31.5 79t-75.5 33zM256 195q-11 0 -11 11v88q0 11 11 11t11 -11v-88q0 -11 -11 -11z"/>
</svg>