<svg xmlns="http://www.w3.org/2000/svg" viewBox="0 0 512 512">
    <defs><style>.color1{fill:#000000;}</style></defs>
    <title>food-150</title>
    <path class="color1" transform="scale(1, -1) translate(0, -512)" d="M462 56h-407q-8 0 -10 8l-21 88v2v3q0 5 4 8q4 4 9 2q2 0 2 -1q21 -9 36 -9q11 0 18 3q10 4 14 8q5 4 13 0l4 -3q22 -17 40 -17q8 0 11 1q7 1 23 11q5 5 12 1l3 -2q25 -15 41 -15h3q9 1 34 10q1 0 3 2q2 0 2 1q6 2 10 -1h1q16 -9 29 -10q22 -2 50 14l8 4q1 1 6 1
q4 0 17 -7q27 -14 53 3q6 4 11 0q7 -5 5 -11l-13 -85q-2 -9 -11 -9zM64 77h389l9 57q-27 -9 -55 5l-8 4q-1 0 -3 -1q-30 -20 -62 -18q-19 3 -34 11q-25 -11 -43 -12h-3q-22 0 -49 16q-10 -6 -25 -11q-10 -2 -16 -2q-22 0 -51 20l-12 -6q-25 -9 -52 0zM254 194q-18 0 -39 14
q-10 6 -13 5l-6 -3q-11 -9 -21 -11q-21 -6 -49 14l-1 1q-3 3 -5 4q-1 0 -3 2t-4 3q-1 -1 -2 -1q-9 -8 -19 -12q-24 -9 -51 6q-31 15 -40 34q-5 8 5 14t14 -5q8 -13 31 -24q17 -11 34 -5q5 2 13 8q9 7 15 7q7 0 20 -10q2 -1 5 -4l1 -1q19 -14 30 -11q8 3 15 8q8 6 13 7
q12 3 29 -8q18 -11 28 -11h2q7 1 24 8q18 9 29 5q2 -1 5.5 -2.5t4.5 -1.5q10 -7 19 -7q15 -1 35 10q18 10 27.5 9.5t27.5 -10.5q17 -9 39 10q12 10 17 11l9 3h1l4 2q10 2 14 -7q2 -11 -8 -14l-4 -1l-9 -3q-5 -1 -11 -8q-33 -27 -62 -12q-14 7 -19 7.5t-15 -5.5
q-26 -15 -48 -14q-14 1 -27 10q-5 1 -6 3q-2 1 -14 -4q-18 -9 -33 -10h-2zM255 271q-3 0 -5 1q-1 0 -3.5 2t-3.5 2q-21 14 -40 14q-8 0 -12 -1q-10 -2 -21 -9q-6 -5 -13 0l-3 3q-23 18 -40 18q-19 0 -35 -14q-4 -4 -11 -2q0 1 -1 1t-2 1q-3 2 -7 4.5t-5 2.5l-3 3
q-7 9 -14 11q-5 3 -6 7q-2 5 2 9q12 16 28.5 34.5t45 42.5t66 39.5t76.5 15.5q41 0 83 -16.5t75.5 -43t51 -43.5t30.5 -32q3 -5 2 -10q-2 -5 -7 -7l-2 -1q-2 0 -8 -2q-12 -5 -27 -17q-6 -6 -11 -2q-21 10 -37 10q-18 0 -41 -14q-2 -1 -4.5 -2.5t-3.5 -2l-2 -1t-2 -0.5
q-6 0 -8 1l-1 1l-1 1q-10 5 -17 7q-8 3 -17 3q-12 0 -35 -10q-6 -3 -7 -3q-1 -1 -4 -1zM203 312q23 0 51 -17q1 -1 2 -1h1q22 12 44 12q13 0 24 -4q2 0 18 -7q2 1 3 2q28 16 52 16q18 0 39 -9q11 9 24 15q-109 116 -213 116q-103 0 -192 -114q2 -1 3.5 -3t4 -4.5l3.5 -3.5
l4 -2q19 14 42 14t52 -21q7 5 21 9q12 2 17 2zM270 378q0 -19 -10 -19t-10 19t10 19t10 -19zM218 383q-8 -15 -17 -10q-7 7 0 23q10 16 18 9q8 -6 -1 -22zM302 383q8 -15 17 -10q8 8 -1 23q-8 16 -17 9q-8 -6 1 -22z"/>
</svg>