<svg xmlns="http://www.w3.org/2000/svg" viewBox="0 0 512 512">
    <defs><style>.color1{fill:#000000;}</style></defs>
    <title>food-184</title>
    <path class="color1" transform="scale(1, -1) translate(0, -512)" d="M501 215h-490q-11 0 -11 11v86q0 11 11 11h32q17 44 60 77t99 44v57q0 11 10 11h88q10 0 10 -11v-57q56 -11 99 -44t60 -77h32q11 0 11 -11v-86q0 -11 -11 -11zM21 237h470v65h-30q-8 0 -10 7q-14 43 -55.5 74.5t-97.5 40.5q-9 2 -9 11v56h-66v-56q0 -9 -9 -11
q-56 -9 -97.5 -40.5t-55.5 -74.5q-2 -7 -10 -7h-30v-65zM83 0q-11 0 -11 11v112q0 11 11 11t11 -11v-112q0 -11 -11 -11zM35 79q-4 0 -6 2q-9 6 -2 15l47 62q3 4 8 4q5 2 9 -4l48 -62q5 -9 -2 -15q-8 -7 -15 2l-40 51l-38 -51q-3 -4 -9 -4zM256 0q-11 0 -11 11v112
q0 11 11 11t11 -11v-112q0 -11 -11 -11zM209 79q-5 0 -7 2q-8 5 -2 15l47 62q3 4 8 4q5 2 9 -4l48 -62q5 -9 -2 -15q-8 -7 -15 2l-40 51l-38 -51q-3 -4 -8 -4zM429 0q-11 0 -11 11v112q0 11 11 11t11 -11v-112q0 -11 -11 -11zM382 79q-5 0 -7 2q-8 6 -2 15l47 62q3 4 8 4
q6 0 9 -4l48 -62q7 -8 -2 -15q-8 -7 -15 2l-40 51l-38 -51q-3 -4 -8 -4z"/>
</svg>