<svg xmlns="http://www.w3.org/2000/svg" viewBox="0 0 512 512">
    <defs><style>.color1{fill:#000000;}</style></defs>
    <title>food-195</title>
    <path class="color1" transform="scale(1, -1) translate(0, -512)" d="M254 0q-8 0 -10 8l-59 231q-44 35 -44 91v3v1q0 10 10 10h207q10 0 10 -10v-1v-3q0 -56 -44 -91l-59 -231q-2 -8 -11 -8zM162 323q3 -44 39 -69q2 -1 4 -6l49 -194l50 194q2 5 4 6q36 25 39 69h-185zM154 323q-7 0 -10 6q-11 27 16 51q-5 12 -3 26q5 14 20 25q-2 7 1 14
q8 26 42 37q10 4 12 9v5q-2 5 1 12q4 6 10 4q44 -7 55 -41q24 -5 33 -22q10 -17 6 -36q27 -13 33 -36q4 -12 0.5 -24t-6.5 -18t-5 -8q-7 -9 -15 -2q-9 6 -2 15q1 2 3 5t4 11.5t0 15.5q-5 16 -28 26q-10 4 -6 13q5 15 -2 27q-8 11 -26 14q-7 1 -9 10q-2 17 -24 25l-2 -4
q-4 -13 -25 -21q-25 -9 -29 -23q-1 -5 1 -7q3 -3 1 -9q0 -5 -6 -7q-3 -1 -9 -6t-7 -10q-2 -8 4 -16q5 -8 -2 -15q-3 -2 -6.5 -5t-8 -11.5t-1.5 -14.5q4 -11 -6 -14q-1 -1 -4 -1zM173 367q-7 0 -10 7q-4 10 7 14q16 6 58 4q37 0 52 3q22 4 36 18q5 8 14 4q9 -5 5 -14
q-16 -23 -51 -29q-17 -3 -57 -3q-43 0 -50 -3h-1q-2 -1 -3 -1zM187 414q-10 0 -10 9q-2 10 9 12q46 6 75 10q8 1 12 4.5t5 6t0 5.5q0 10 10 12q10 0 12 -9q1 -14 -7.5 -26t-28.5 -15l-75 -9h-2z"/>
</svg>