<svg xmlns="http://www.w3.org/2000/svg" viewBox="0 0 512 512">
    <defs><style>.color1{fill:#000000;}</style></defs>
    <title>food-230</title>
    <path class="color1" transform="scale(1, -1) translate(0, -512)" d="M238 257q-2 0 -3 1q-11 4 -7 14l82 216q8 16 25 21.5t35 -2.5q16 -7 24 -24t0 -33q0 -3 -82 -152q-4 -10 -14 -4q-9 5 -4 14q18 34 34 63t23.5 43.5t13.5 25.5t8 14.5t2 4.5q3 7 0 16q-5 9 -14 13q-23 10 -32 -8q-2 -7 -81 -216q-2 -7 -10 -7zM143 0q-3 0 -5 1
q-9 4 -5 13q38 102 78 211q4 9 14 6q10 -4 6 -13q-5 -14 -14 -38.5t-13 -35.5q31 56 54 100q6 10 15 4q9 -5 4 -14l-125 -228q-3 -6 -9 -6zM11 132q-7 0 -10 6q-4 9 5 14q16 10 224.5 124t219.5 119q10 4 16 4q28 0 41 -29q9 -17 2 -36q-6 -17 -20 -23q-43 -19 -475 -178
q-1 -1 -3 -1zM466 377q-5 0 -7 -1q-9 -5 -315 -172q306 114 336 126q7 4 9 11q4 9 -1 21q-7 15 -22 15z"/>
</svg>