<svg xmlns="http://www.w3.org/2000/svg" viewBox="0 0 512 512">
    <defs><style>.color1{fill:#000000;}</style></defs>
    <title>food-234</title>
    <path class="color1" transform="scale(1, -1) translate(0, -512)" d="M501 0h-490q-11 0 -11 11q0 10 11 10h490q11 0 11 -10q0 -11 -11 -11zM464 0h-416q-11 0 -11 11v278q0 11 11 11h416q11 0 11 -11v-278q0 -11 -11 -11zM58 21h396v257h-396v-257zM138 77h-1q-34 2 -44 24q-3 8 -3 35q0 2 0.5 5t0.5 4v7q0 27 -6 36q-5 8 -14 14.5t-13 4.5
q-10 -4 -14 5q-3 10 5 15q14 6 30 -3.5t24 -23.5q9 -15 9 -49v-6v-11q-2 -16 1 -24q4 -10 24 -12q15 0 30 17q7 10 10 25q1 3 8 22q14 23 26 27q10 3 18 -1q14 -8 21 -34q2 -11 3 -12q1 -3 4 -14q4 -16 8 -21q9 -9 28 -1q22 9 36 31q6 10 9 16q14 22 21 30q13 15 30 10
q13 -3 19 -21q2 -8 2 -23t3 -21q6 -13 20.5 -20.5t29.5 -6.5q4 1 7.5 -2t3.5 -7q1 -4 -2 -8t-7 -4q-21 -2 -41.5 9t-29.5 29q-6 11 -6 31q0 12 -1 18q-2 5 -4 5q-3 2 -9 -4q-8 -8 -17 -26q-9 -15 -10 -17q-18 -26 -45 -38q-32 -16 -53 6q-8 9 -12 29q-1 2 -1.5 4t-1.5 4.5
t-1 3.5q-2 6 -4 16q-3 15 -9 19h-3q-5 -3 -13 -17l-6 -18q-5 -20 -15 -32q-19 -25 -45 -25zM386 278h-1q-1 1 -2 1q-11 3 -7 14q11 31 -1.5 67t-42.5 59q-38 27 -78 19q-32 -6 -50 -35q-29 -50 7 -108q6 -9 -4 -15q-9 -5 -14 3q-20 31 -22 67t15 64q23 37 64 45
q50 10 95 -23q35 -27 49.5 -69.5t1.5 -80.5q-2 -8 -10 -8zM241 332l-7 1q-10 0 -10 11q2 10 11 10h7q10 0 10 -11t-11 -11zM336 328h-6q-11 0 -11 11q2 11 12 11l6 -1q10 0 10 -11q0 -10 -11 -10zM288 383l-7 1q-10 0 -10 11q2 10 11 10h7q10 0 10 -11t-11 -11zM187 385
q-3 0 -5 1q-13 7 -55 7q-13 0 -16 6q-3 5 0 10q3 7 11 5h5q46 2 66 -9q9 -5 4 -14q-3 -6 -10 -6zM198 408q-6 0 -10 7q-2 4 -5 16t-1.5 35.5t12.5 40.5q5 9 15 3q9 -5 3 -15q-4 -6 -6.5 -13t-3 -14t0 -13.5t1.5 -12.5t1.5 -10t1.5 -7l1 -3q4 -9 -6 -13q-2 -1 -4 -1zM187 398
q-3 0 -5 1q-37 19 -69 84q-5 10 5 14q10 5 14 -5q0 -2 7 -15t22 -32t31 -27q9 -5 5 -14q-3 -6 -10 -6z"/>
</svg>