<svg xmlns="http://www.w3.org/2000/svg" viewBox="0 0 512 512">
    <defs><style>.color1{fill:#000000;}</style></defs>
    <title>food-238</title>
    <path class="color1" transform="scale(1, -1) translate(0, -512)" d="M386 0h-184q-9 0 -11 10l-31 314q0 6 3 8q3 4 7 4h248q5 0 8 -4q4 -4 2 -8l-31 -314q-2 -10 -11 -10zM211 21h166l29 293h-224zM447 92q-1 0 -2.5 0.5t-2.5 0.5q-24 2 -38.5 26.5t-12.5 56.5l5 48q3 32 22 53t43 19t38.5 -26.5t12.5 -56.5l-5 -49q-2 -30 -19.5 -51
t-40.5 -21zM456 275q-14 0 -25.5 -15.5t-13.5 -37.5l-4 -48q-2 -23 7 -41t24 -19q16 -1 28 14t14 38l4 49q2 23 -7 41t-24 19h-3zM344 397q-11 0 -11 11v59q0 11 11 11t11 -11v-59q0 -11 -11 -11zM294 397q-11 0 -11 11v93q0 11 11 11t11 -11v-93q0 -11 -11 -11zM244 397
q-11 0 -11 11v59q0 11 11 11t11 -11v-59q0 -11 -11 -11zM103 23q-2 0 -3 1l-93 30q-9 3 -7 13l39 134q1 4 7 8l56 18q7 3 12 -4l36 -48q3 -5 2 -10l-39 -134q0 -4 -5 -7h-2q-2 -1 -3 -1zM24 71l72 -24l34 119l-29 38l-43 -14zM108 215q-3 0 -4 1q-10 4 -6 13l60 176q4 7 8 7
q7 2 10 -3l61 -69q7 -7 -1 -15t-15 1l-48 55l-55 -159q-4 -7 -10 -7z"/>
</svg>