<svg xmlns="http://www.w3.org/2000/svg" viewBox="0 0 512 512">
    <defs><style>.color1{fill:#000000;}</style></defs>
    <title>food-249</title>
    <path class="color1" transform="scale(1, -1) translate(0, -512)" d="M405 0h-298q-44 0 -75.5 30t-31.5 73v63q0 42 75.5 72.5t127.5 30.5h106q50 0 120 -28q83 -33 83 -75v-63q0 -43 -31.5 -73t-75.5 -30zM203 248q-46 0 -114 -27.5t-68 -54.5v-63q0 -34 25.5 -58t60.5 -24h298q35 0 60.5 24t25.5 58v63q0 27 -68 54.5t-114 27.5h-106z
M501 162h-490q-11 0 -11 11q0 10 11 10h490q11 0 11 -10q0 -11 -11 -11zM426 410q-11 0 -11 10q0 29 -21.5 50t-52.5 21t-52.5 -21t-21.5 -50q0 -10 -11 -10t-11 10q0 38 28 65t68 27q39 0 67 -27t28 -65q0 -10 -10 -10zM256 248q-11 0 -11 10v162q0 11 11 11t11 -11v-162
q0 -10 -11 -10zM183 305q-10 0 -10 10v76q0 11 10 11q11 0 11 -11v-76q0 -10 -11 -10zM329 305q-10 0 -10 10v76q0 11 10 11q11 0 11 -11v-76q0 -10 -11 -10z"/>
</svg>