<svg xmlns="http://www.w3.org/2000/svg" viewBox="0 0 512 512">
    <defs><style>.color1{fill:#000000;}</style></defs>
    <title>food-252</title>
    <path class="color1" transform="scale(1, -1) translate(0, -512)" d="M11 0q-11 0 -11 11v490q0 11 11 11q10 0 10 -11v-490q0 -11 -10 -11zM187 0q-11 0 -11 11v187h-157q-11 0 -11 11t11 11h168q10 0 10 -11v-198q0 -11 -10 -11zM501 0q-10 0 -10 11v490q0 11 10 11q11 0 11 -11v-490q0 -11 -11 -11zM325 0q-10 0 -10 11v198q0 11 10 11
h168q11 0 11 -11t-11 -11h-157v-187q0 -11 -11 -11zM392 0q-10 0 -10 11v279h-256v-279q0 -11 -10 -11q-11 0 -11 11v290q0 10 11 10h276q11 0 11 -10v-290q0 -11 -11 -11zM445 290h-382q-11 0 -11 11q0 10 11 10h382q10 0 10 -10q0 -11 -10 -11zM216 360h-100q-11 0 -11 10
q0 11 11 11h100q11 0 11 -11q0 -10 -11 -10zM409 360h-101q-10 0 -10 10q0 11 10 11h101q11 0 11 -11q0 -10 -11 -10z"/>
</svg>