<svg xmlns="http://www.w3.org/2000/svg" viewBox="0 0 512 512">
    <defs><style>.color1{fill:#000000;}</style></defs>
    <title>food-286</title>
    <path class="color1" transform="scale(1, -1) translate(0, -512)" d="M191 68q-75 0 -157 64l-1 2q-1 2 -2 2q-3 6 -8 19.5t-12.5 43.5t-9.5 61t5.5 69t27.5 69q74 114 299 114q80 0 170 -13q5 -2 7 -5q2 -2 2 -8q-3 -11 -7.5 -29t-19.5 -61t-32 -82.5t-45 -86t-58.5 -80t-72 -56.5t-86.5 -23zM50 147q74 -57 141 -57q38 0 73.5 18.5
t62.5 46.5t52 68t42 75t32.5 76t22 62.5t12.5 42.5q-84 12 -155 12q-215 0 -281 -105q-21 -32 -27 -72t1 -77t12.5 -56.5t11.5 -33.5zM11 0q-11 0 -11 11q1 65 28 126.5t68 107.5t95 87t102.5 67.5t97.5 48.5t72.5 30.5t34.5 11.5q9 4 13 -7q4 -9 -7 -13l-2 -1
q-170 -58 -299 -156q-180 -138 -182 -302q0 -11 -10 -11zM244 183q-42 0 -78 13.5t-48 24t-16 15.5l-1 2q-1 2 -2 2q-26 132 32 185q7 7 15 -1q7 -7 -1 -15q-22 -20 -28 -58.5t-3.5 -62t6.5 -40.5q6 -7 16.5 -14t35.5 -18t55.5 -11.5t76.5 6.5q9 2 13 -9q2 -10 -9 -12
q-32 -7 -64 -7zM354 305q-40 0 -75 9t-48 16.5t-16 10.5q-4 4 -4 7q-1 8 -1 15.5t1.5 16.5t3 17.5t4 17.5t4.5 16t4.5 14t4 11.5l2.5 7.5l2 4q4 10 14 6q10 -5 6 -14l-2 -8q-3 -7 -7 -18.5t-7.5 -24.5t-6 -27.5t-1.5 -25.5q50 -35 143 -29q11 0 11 -10q2 -10 -10 -12h-22z
"/>
</svg>