<svg xmlns="http://www.w3.org/2000/svg" viewBox="0 0 512 512">
    <defs><style>.color1{fill:#000000;}</style></defs>
    <title>food-287</title>
    <path class="color1" transform="scale(1, -1) translate(0, -512)" d="M230 207q-11 0 -17 6q-23 25 60 144q68 97 103 132q23 23 56 23q34 0 57 -23q23 -24 23 -57t-23 -56q-31 -31 -127.5 -100t-131.5 -69zM228 229l1 -1h1q28 0 120.5 66t123.5 97q16 17 16 41.5t-16 41.5q-19 17 -42 17q-24 0 -41 -17q-35 -35 -101.5 -131t-61.5 -114z
M225 215q-4 0 -7 3q-8 8 0 15l251 251q7 8 15 0t0 -15l-251 -251q-3 -3 -8 -3zM64 0q-28 0 -46 18q-20 19 -18.5 48.5t23.5 51.5l106 106q23 23 54 23q28 0 45 -19q20 -20 18.5 -49t-22.5 -50l-106 -106q-23 -23 -54 -23zM183 225q-23 0 -39 -16l-106 -106
q-15 -16 -16.5 -36.5t11.5 -33.5q14 -12 31 -12q22 0 39 17l105 106q16 15 17.5 35.5t-12.5 33.5q-10 12 -30 12z"/>
</svg>