<svg xmlns="http://www.w3.org/2000/svg" viewBox="0 0 512 512">
    <defs><style>.color1{fill:#000000;}</style></defs>
    <title>food-33</title>
    <path class="color1" transform="scale(1, -1) translate(0, -512)" d="M459 136h-406q-11 0 -11 11q0 95 63 163t151 68t151 -68t63 -163q0 -4 -3 -7q-4 -4 -8 -4zM63 158h386q-5 83 -60.5 141t-132.5 58t-132.5 -58t-60.5 -141zM477 0h-442q-9 0 -11 9l-24 136q0 7 2 9q6 4 9 4h490q3 0 9 -4q2 -2 2 -9l-24 -136q-2 -9 -11 -9zM44 21h424
l21 115h-466zM308 398q-10 0 -10 11v57q0 11 10 11q11 0 11 -11v-57q0 -11 -11 -11zM256 398q-11 0 -11 11v92q0 11 11 11t11 -11v-92q0 -11 -11 -11zM204 398q-11 0 -11 11v57q0 11 11 11q10 0 10 -11v-57q0 -11 -10 -11z"/>
</svg>