<svg xmlns="http://www.w3.org/2000/svg" viewBox="0 0 512 512">
    <defs><style>.color1{fill:#000000;}</style></defs>
    <title>food-36</title>
    <path class="color1" transform="scale(1, -1) translate(0, -512)" d="M11 0q-5 0 -7 3q-4 3 -4 8v393q0 5 3 8t8 3l491 -23q10 0 10 -10v-323q0 -10 -10 -10l-490 -49h-1zM21 393v-371l470 47v303zM501 371q-2 0 -3 1l-352 118l-129 -87q-9 -5 -15 3q-6 10 3 15l133 89q4 3 10 1l357 -119q9 -4 6 -14q-2 -7 -10 -7zM149 296q0 10 -7 18t-16 8
q-10 0 -17 -7.5t-7 -18.5t7 -19t17 -8q9 0 16 8t7 19zM256 134q0 20 -12.5 34t-30.5 14q-17 0 -29.5 -14t-12.5 -34q0 -19 12.5 -33t29.5 -14q18 0 30.5 13.5t12.5 33.5zM400 279q0 16 -10 27t-24 11t-24 -11t-10 -27t10 -27t24 -11t24 11t10 27zM175 454q0 12 -24 12
q-25 0 -25 -12t25 -12q24 0 24 12z"/>
</svg>