<svg xmlns="http://www.w3.org/2000/svg" viewBox="0 0 512 512">
    <defs><style>.color1{fill:#000000;}</style></defs>
    <title>food-48</title>
    <path class="color1" transform="scale(1, -1) translate(0, -512)" d="M388 0h-264q-41 0 -70 29t-29 69l-26 228h514l-26 -228q-1 -41 -30 -69.5t-69 -28.5zM23 304l23 -205q0 -32 23 -55t55 -23h264q32 0 55 23t23 55v1l23 204h-466zM322 315h-21q0 55 -39 93.5t-94 38.5q-54 0 -93 -38.5t-39 -93.5h-21q0 64 45 109t108 45q64 0 109 -45
t45 -109zM279 315h-21q0 37 -26.5 63t-63.5 26t-63 -26t-26 -63h-21q0 46 32.5 78.5t77.5 32.5q46 0 78.5 -32.5t32.5 -78.5zM233 315h-22q0 18 -12.5 30.5t-30.5 12.5q-17 0 -29.5 -12.5t-12.5 -30.5h-22q0 26 19 45t45 19q27 0 46 -19t19 -45zM479 312l-21 7q6 19 6 39
q0 55 -38.5 94t-93.5 39q-63 0 -103 -49l-16 13q46 57 119 57q64 0 109 -45t45 -109q0 -20 -7 -46zM432 310l-20 10q9 18 9 38q0 37 -26 63t-63 26q-40 0 -65 -28l-16 14q33 36 81 36q46 0 78.5 -32.5t32.5 -78.5q0 -24 -11 -48zM370 306l-13 18q18 13 18 34
q0 18 -12.5 30.5t-30.5 12.5q-24 0 -35 -19l-18 12q19 28 53 28q26 0 45 -18.5t19 -45.5q0 -32 -26 -52z"/>
</svg>