<svg xmlns="http://www.w3.org/2000/svg" viewBox="0 0 512 512">
    <defs><style>.color1{fill:#000000;}</style></defs>
    <title>food-49</title>
    <path class="color1" transform="scale(1, -1) translate(0, -512)" d="M384 0h-256q-36 0 -61 24t-25 58v170q0 11 11 11h406q11 0 11 -11v-170q0 -34 -25 -58t-61 -24zM63 242v-160q0 -25 19 -43t46 -18h256q27 0 46 18t19 43v160h-386zM461 242h-410q-5 0 -8 4q-4 4 -2 9q14 55 74.5 91t140.5 36t140.5 -36t74.5 -91q2 -5 -2 -9q-3 -4 -8 -4
zM66 263h380q-18 44 -70.5 71t-119.5 27t-119.5 -27t-70.5 -71zM501 242h-490q-11 0 -11 10q0 11 11 11h490q11 0 11 -11q0 -10 -11 -10zM292 387h-72q-11 0 -11 11t11 11h72q11 0 11 -11t-11 -11zM298 423q-10 0 -10 10v45q0 11 10 11q11 0 11 -11v-45q0 -10 -11 -10z
M256 423q-11 0 -11 10v68q0 11 11 11t11 -11v-68q0 -10 -11 -10zM214 423q-11 0 -11 10v45q0 11 11 11q10 0 10 -11v-45q0 -10 -10 -10z"/>
</svg>