<svg xmlns="http://www.w3.org/2000/svg" viewBox="0 0 512 512">
    <defs><style>.color1{fill:#000000;}</style></defs>
    <title>food-83</title>
    <path class="color1" transform="scale(1, -1) translate(0, -512)" d="M402 146q-8 0 -26 6q-18 -6 -26 -6q-15 0 -30 10q-20 14 -43 47t-28 68q-6 43 22 76l4 3q4 4 9.5 7.5t13 7.5t17 6t18.5 1q14 -1 24 -5q6 -2 19 -2q14 0 20 2q10 4 23 5q33 4 62 -25q28 -33 22 -76q-4 -34 -27 -67.5t-44 -47.5q-15 -10 -30 -10zM376 175q3 0 5 -2
q15 -5 21 -5q10 0 18 6q15 10 36.5 39t25.5 60q4 34 -17 60q-2 2 -6.5 5.5t-16 8.5t-21.5 4q-11 -1 -17 -3q-8 -4 -28 -4t-28 4q-4 2 -17 3q-10 1 -21 -3.5t-17 -9.5t-6 -6q-21 -25 -17 -59q4 -31 25.5 -60t36.5 -39q9 -6 18 -6q6 0 21 5q2 2 5 2zM376 347h-2q-11 2 -9 12
q1 12 0.5 22.5t-3 19.5t-5.5 16.5t-7 14t-7 10t-5 6.5l-3 3q-8 8 -1 15q8 8 15 0q3 -2 13 -14t19 -39.5t5 -56.5q0 -9 -10 -9zM435 383q-18 0 -37 8q-5 2 -7 9q0 21 14 36q27 29 90 18q4 -2 8 -5q2 -6 1 -9l-1 -2q-1 -2 -2 -4.5t-3 -6.5l-4 -8t-5.5 -8.5t-7.5 -8t-9 -7.5
t-10.5 -6.5t-12.5 -4t-14 -1.5zM414 408q9 -4 21 -4q28 0 43 30q-42 5 -57 -12q-7 -7 -7 -14zM96 181q-20 0 -34 14t-14 34t14 34.5t34 14.5t34.5 -14.5t14.5 -34.5t-14.5 -34t-34.5 -14zM96 256q-11 0 -19 -8t-8 -19t8 -19t19 -8t19 8t8 19t-8 19t-19 8zM183 249
q-20 0 -34 14t-14 34t14 34.5t34 14.5t34.5 -14.5t14.5 -34.5t-14.5 -34t-34.5 -14zM183 325q-11 0 -19 -8.5t-8 -19.5t8 -19t19 -8t19 8t8 19t-8 19.5t-19 8.5zM194 138q-20 0 -34 14t-14 34t14 34.5t34 14.5t34.5 -14.5t14.5 -34.5t-14.5 -34t-34.5 -14zM194 213
q-11 0 -19 -8t-8 -19t8 -19t19 -8t19 8t8 19t-8 19t-19 8zM112 333q-2 0 -6 2q-26 26 -24 50q3 37 60 67q5 4 11 0q5 -3 5 -10q-2 -25 4 -49q4 -17 -8 -34q-8 -10 -22 -18t-20 -8zM136 424q-32 -20 -33 -41q-1 -14 12 -27q31 13 26 31q-2 11 -5 37zM104 298q-5 0 -8 4
q-16 21 -37 27t-30 4t-14 -5q-9 -5 -14 5q-4 9 5 14q2 1 6.5 2.5t17 3.5t25 0t28.5 -11.5t30 -26.5q5 -8 -2 -15q-2 -2 -7 -2zM260 43q-106 0 -179 30t-73 74q0 37 50 64q9 6 15 -4q4 -11 -5 -14q-39 -22 -39 -46q0 -31 66.5 -57t164.5 -26t164.5 26t66.5 57q0 22 -36 44
q-10 4 -4 14q5 9 14 4q47 -27 47 -62q0 -44 -73 -74t-179 -30z"/>
</svg>