<svg xmlns="http://www.w3.org/2000/svg" viewBox="0 0 512 512">
    <defs><style>.color1{fill:#000000;}</style></defs>
    <title>food-89</title>
    <path class="color1" transform="scale(1, -1) translate(0, -512)" d="M36 0q-18 0 -27 9q-24 25 22 113.5t100 162t75 94.5q28 30 74 30q51 0 91 -38q35 -36 37.5 -84.5t-29.5 -80.5q-41 -41 -166 -123.5t-177 -82.5zM280 388q-35 0 -59 -24q-50 -50 -134 -184t-63 -156q4 -3 12 -3q46 0 167 80t161 120q26 26 23.5 65.5t-31.5 69.5
q-34 32 -76 32zM366 356q-5 0 -8 3q-7 7 -1 14q28 36 28 128q0 11 10 11q11 0 11 -10q0 -69 -14 -108q64 30 113 12q10 -3 6 -14q-3 -10 -13 -6q-12 4 -25.5 5t-25.5 -1.5t-23 -6t-20.5 -8t-16.5 -8.5t-11 -7l-4 -2q-4 -2 -6 -2zM395 384q-5 0 -8 3q-7 7 0 15l54 54
q7 8 15 0t0 -15l-54 -54q-3 -3 -7 -3zM348 195q-4 0 -7 3l-61 61q-8 7 0 15t15 0l61 -61q8 -7 0 -15q-3 -3 -8 -3zM188 75q-4 0 -7 4l-37 36q-8 8 1 15q7 7 15 0l36 -36q7 -8 0 -15q-3 -4 -8 -4zM198 206q-4 0 -7 3l-54 54q-7 7 0 15t15 0l54 -54q8 -8 0 -15q-3 -3 -8 -3z
"/>
</svg>