<svg xmlns="http://www.w3.org/2000/svg" viewBox="0 0 512 512">
    <defs><style>.color1{fill:#000000;}</style></defs>
    <title>food-90</title>
    <path class="color1" transform="scale(1, -1) translate(0, -512)" d="M256 77q-90 0 -154 74.5t-64 180.5v12q0 10 11 10h414q11 0 11 -10v-12q0 -106 -64 -180.5t-154 -74.5zM59 333v-1q0 -97 58 -165t139 -68q82 0 139.5 68t57.5 165v1h-394zM439 0h-366q-11 0 -11 11q0 10 11 10h366q11 0 11 -10q0 -11 -11 -11zM501 333h-490
q-11 0 -11 11q0 10 11 10h490q11 0 11 -10q0 -11 -11 -11zM305 392q-10 0 -10 10v65q0 10 10 10q11 0 11 -10v-65q0 -10 -11 -10zM256 392q-11 0 -11 10v99q0 11 11 11t11 -11v-99q0 -10 -11 -10zM207 392q-11 0 -11 10v65q0 10 11 10q10 0 10 -10v-65q0 -10 -10 -10zM186 0
q-6 0 -10 7l-31 78l-32 -78q-3 -10 -14 -6q-10 3 -6 14l42 102q2 7 10 7q7 0 9 -7l42 -102q4 -11 -6 -14q-1 -1 -4 -1zM326 0q-3 0 -4 1q-10 3 -6 14l42 102q2 7 9 7q8 0 10 -7l42 -102q4 -11 -6 -14q-11 -4 -14 6l-32 78l-31 -78q-4 -7 -10 -7z"/>
</svg>