<svg xmlns="http://www.w3.org/2000/svg" viewBox="0 0 512 512">
    <defs><style>.color1{fill:#000000;}</style></defs>
    <title>food-95</title>
    <path class="color1" transform="scale(1, -1) translate(0, -512)" d="M292 243h-72q-11 0 -11 11v106q0 11 11 11h72q11 0 11 -11v-106q0 -11 -11 -11zM230 265h51v85h-51v-85zM256 355q-11 0 -11 11v34q0 10 11 10t11 -10v-34q0 -11 -11 -11zM292 382q-5 0 -8 3q-8 10 1 15q17 17 10 41q-5 15 -27 32l-6 6q0 -1 -2 -4t-2 -5q-6 -12 -20 -28
l-2 -3q-8 -9 -7 -16q0 -5 0.5 -8.5t1.5 -4.5l1 -2q9 -5 3 -15q-7 -9 -15 -2q-9 6 -13 32q0 15 12 30l2 2q12 14 18 24q5 11 5 18q-4 9 4 13q7 4 14 -2q5 -6 20 -18q28 -24 34 -44q9 -38 -17 -61q-3 -3 -7 -3zM445 48h-378q-21 0 -36 14t-15 33v123q0 19 15 33t36 14h378
q21 0 36 -14t15 -33v-123q0 -19 -15 -33t-36 -14zM67 243q-12 0 -20.5 -7.5t-8.5 -17.5v-123q0 -10 8.5 -17.5t20.5 -7.5h378q12 0 20.5 7.5t8.5 17.5v123q0 10 -8.5 17.5t-20.5 7.5h-378zM11 21h490v-21h-490v21zM124 101q-23 0 -39.5 16t-16.5 39t16.5 39.5t39.5 16.5
t39 -16.5t16 -39.5q0 -22 -16.5 -38.5t-38.5 -16.5zM124 191q-14 0 -24 -10.5t-10 -24.5t10 -24t24 -10t24 10t10 24t-10 24.5t-24 10.5zM256 101q-23 0 -39 16t-16 39t16 39.5t39 16.5t39.5 -16.5t16.5 -39.5t-16.5 -39t-39.5 -16zM256 191q-14 0 -24 -10.5t-10 -24.5
t10 -24t24 -10t24 10t10 24t-10 24.5t-24 10.5zM388 101q-22 0 -38.5 16.5t-16.5 38.5q0 23 16 39.5t39 16.5t39.5 -16.5t16.5 -39.5t-16.5 -39t-39.5 -16zM388 191q-14 0 -24 -10.5t-10 -24.5t10 -24t24 -10t24 10t10 24t-10 24.5t-24 10.5z"/>
</svg>