<svg xmlns="http://www.w3.org/2000/svg" viewBox="0 0 512 512">
    <defs><style>.color1{fill:#000000;}</style></defs>
    <title>furniture-30</title>
    <path class="color1" transform="scale(1, -1) translate(0, -512)" d="M363 231h-214q-25 0 -42.5 18t-17.5 43v159q0 25 17.5 43t42.5 18h214q25 0 42.5 -18t17.5 -43v-159q0 -25 -17.5 -43t-42.5 -18zM149 491q-16 0 -27.5 -12t-11.5 -28v-159q0 -16 11.5 -27.5t27.5 -11.5h214q16 0 27.5 11.5t11.5 27.5v159q0 16 -11.5 28t-27.5 12h-214z
M413 0q-11 0 -11 11v220h-292v-220q0 -11 -11 -11q-10 0 -10 11v231q0 11 10 11h314q10 0 10 -11v-231q0 -11 -10 -11zM413 157h-314q-10 0 -10 11q0 10 10 10h314q10 0 10 -10q0 -11 -10 -11zM278 194h-44q-11 0 -11 11t11 11h44q11 0 11 -11t-11 -11z"/>
</svg>