<svg xmlns="http://www.w3.org/2000/svg" viewBox="0 0 512 512">
    <defs><style>.color1{fill:#000000;}</style></defs>
    <title>furniture-34</title>
    <path class="color1" transform="scale(1, -1) translate(0, -512)" d="M78 75q-11 0 -11 11v328q0 11 11 11t11 -11v-328q0 -11 -11 -11zM137 146q-11 0 -11 11v214q0 11 11 11t11 -11v-214q0 -11 -11 -11zM196 146q-10 0 -10 11v214q0 11 10 11q11 0 11 -11v-214q0 -11 -11 -11zM256 146q-11 0 -11 11v214q0 11 11 11t11 -11v-214
q0 -11 -11 -11zM315 146q-10 0 -10 11v214q0 11 10 11q11 0 11 -11v-214q0 -11 -11 -11zM375 146q-11 0 -11 11v214q0 11 11 11t11 -11v-214q0 -11 -11 -11zM434 75q-11 0 -11 11v328q0 11 11 11q10 0 10 -11v-328q0 -11 -10 -11zM434 360h-356q-11 0 -11 11t11 11h356
q10 0 10 -11t-10 -11zM434 146h-356q-11 0 -11 11t11 11h356q10 0 10 -11t-10 -11zM254 0h-14q-40 2 -79 16t-64.5 30t-49.5 36t-32 29t-13 15q-6 10 2 15q8 6 15 -1q1 -2 10.5 -12.5t30.5 -28t46.5 -34t61.5 -29t73 -14.5q129 -8 253 118q8 9 15 0q7 -7 0 -15
q-123 -125 -255 -125zM78 467q-11 0 -11 10v24q0 11 11 11t11 -11v-24q0 -10 -11 -10zM434 467q-11 0 -11 10v24q0 11 11 11q10 0 10 -11v-24q0 -10 -10 -10z"/>
</svg>