<svg xmlns="http://www.w3.org/2000/svg" viewBox="0 0 512 512">
    <defs><style>.color1{fill:#000000;}</style></defs>
    <title>furniture-44</title>
    <path class="color1" transform="scale(1, -1) translate(0, -512)" d="M459 0h-406q-22 0 -37.5 14.5t-15.5 35.5v412q0 21 15.5 35.5t37.5 14.5h406q22 0 37.5 -14.5t15.5 -35.5v-412q0 -21 -15.5 -35.5t-37.5 -14.5zM53 491q-13 0 -22.5 -8.5t-9.5 -20.5v-412q0 -12 9.5 -20.5t22.5 -8.5h406q13 0 22.5 8.5t9.5 20.5v412q0 12 -9.5 20.5
t-22.5 8.5h-406zM256 0q-11 0 -11 11v490q0 11 11 11t11 -11v-490q0 -11 -11 -11zM501 245h-490q-11 0 -11 11t11 11h490q11 0 11 -11t-11 -11zM211 369h-34q-11 0 -11 11q0 10 11 10h34q11 0 11 -10q0 -11 -11 -11zM335 369h-34q-11 0 -11 11q0 10 11 10h34q11 0 11 -10
q0 -11 -11 -11zM211 115h-34q-11 0 -11 10q0 11 11 11h34q11 0 11 -11q0 -10 -11 -10zM335 115h-34q-11 0 -11 10q0 11 11 11h34q11 0 11 -11q0 -10 -11 -10z"/>
</svg>