<svg xmlns="http://www.w3.org/2000/svg" viewBox="0 0 512 512">
    <defs><style>.color1{fill:#000000;}</style></defs>
    <title>furniture-51</title>
    <path class="color1" transform="scale(1, -1) translate(0, -512)" d="M111 0q-5 0 -8 3.5t-2 7.5l29 491q2 12 12 10q10 0 10 -11l-30 -491q0 -10 -11 -10zM311 0q-9 0 -11 10l-29 491q-1 4 2 7.5t8 3.5q11 0 11 -10l30 -491q0 -11 -10 -11h-1zM281 426h-137q-10 0 -10 11q0 10 10 10h137q11 0 11 -10q0 -11 -11 -11zM287 313h-152
q-11 0 -11 11q0 10 11 10h152q11 0 11 -10q0 -11 -11 -11zM296 200h-170q-11 0 -11 11q0 10 11 10h170q11 0 11 -10q0 -11 -11 -11zM304 87h-186q-11 0 -11 11q0 10 11 10h186q11 0 11 -10q0 -11 -11 -11zM401 115q-6 0 -9 6l-188 310q-6 10 3 15q9 6 15 -4l188 -310
q6 -9 -4 -15q-4 -2 -5 -2z"/>
</svg>