<svg xmlns="http://www.w3.org/2000/svg" viewBox="0 0 512 512">
    <defs><style>.color1{fill:#000000;}</style></defs>
    <title>furniture-62</title>
    <path class="color1" transform="scale(1, -1) translate(0, -512)" d="M371 320h-230q-5 0 -8 4q-3 5 -2 9l44 171q2 8 10 8h142q8 0 10 -8l44 -169q0 -1 0.5 -2t0.5 -2q0 -11 -11 -11zM155 341h202l-38 150h-126zM256 0q-11 0 -11 11v320q0 10 11 10t11 -10v-320q0 -11 -11 -11zM323 0h-134q-11 0 -11 11q0 10 11 10h134q11 0 11 -10
q0 -11 -11 -11z"/>
</svg>