<svg xmlns="http://www.w3.org/2000/svg" viewBox="0 0 512 512">
    <defs><style>.color1{fill:#000000;}</style></defs>
    <title>furniture-63</title>
    <path class="color1" transform="scale(1, -1) translate(0, -512)" d="M406 102h-300q-22 0 -37.5 16t-15.5 38v252q0 22 15.5 38t37.5 16h300q22 0 38 -16t16 -38v-252q0 -22 -16 -38t-38 -16zM106 440q-14 0 -23 -9t-9 -23v-252q0 -14 9.5 -23.5t22.5 -9.5h300q13 0 22.5 9.5t9.5 23.5v252q0 14 -9 23t-23 9h-300zM501 440h-490
q-11 0 -11 11t11 11h490q11 0 11 -11t-11 -11zM117 50q-11 0 -11 11v48q0 10 11 10q10 0 10 -10v-48q0 -11 -10 -11zM395 50q-10 0 -10 11v48q0 10 10 10q11 0 11 -10v-48q0 -11 -11 -11zM256 102q-11 0 -11 11v338q0 11 11 11t11 -11v-338q0 -11 -11 -11zM200 265
q-10 0 -10 11v54q0 11 10 11q11 0 11 -11v-54q0 -11 -11 -11zM312 265q-11 0 -11 11v54q0 11 11 11q10 0 10 -11v-54q0 -11 -10 -11z"/>
</svg>