<svg xmlns="http://www.w3.org/2000/svg" viewBox="0 0 512 512">
    <defs><style>.color1{fill:#000000;}</style></defs>
    <title>furniture-77</title>
    <path class="color1" transform="scale(1, -1) translate(0, -512)" d="M462 0h-412q-11 0 -11 11v182q0 10 11 10h412q11 0 11 -10v-182q0 -11 -11 -11zM61 21h390v161h-390v-161zM501 182h-490q-11 0 -11 11q0 10 11 10h490q11 0 11 -10q0 -11 -11 -11zM319 87h-126q-11 0 -11 11t11 11h126q11 0 11 -11t-11 -11zM189 0q-10 0 -10 11v175
q0 10 10 10q11 0 11 -10v-175q0 -11 -11 -11zM323 0q-11 0 -11 11v175q0 10 11 10q10 0 10 -10v-175q0 -11 -10 -11zM148 82q-11 0 -11 10v19q0 10 11 10q10 0 10 -10v-19q0 -10 -10 -10zM365 82q-11 0 -11 10v19q0 10 11 10q10 0 10 -10v-19q0 -10 -10 -10zM326 263h-140
q-11 0 -11 10v228q0 11 11 11h140q11 0 11 -11v-228q0 -10 -11 -10zM197 284h118v207h-118v-207zM326 263h-140q-11 0 -11 10v228q0 11 11 11h140q11 0 11 -11v-228q0 -10 -11 -10zM197 284h118v207h-118v-207zM186 263h-140q-11 0 -11 10v188q0 8 8 10l140 41q5 2 9 -2
q5 -3 5 -9v-228q0 -10 -11 -10zM56 284h119v203l-119 -34v-169zM466 263h-140q-11 0 -11 10v228q0 6 5 9q4 4 9 2l140 -41q8 -2 8 -10v-188q0 -10 -11 -10zM337 284h119v169l-119 34v-203z"/>
</svg>