<svg xmlns="http://www.w3.org/2000/svg" viewBox="0 0 512 512">
    <defs><style>.color1{fill:#000000;}</style></defs>
    <title>furniture-8</title>
    <path class="color1" transform="scale(1, -1) translate(0, -512)" d="M110 0h-99q-11 0 -11 11v410q0 3 2 5l49 81q3 5 9.5 5t8.5 -5l50 -81q2 -2 2 -5v-410q0 -11 -11 -11zM21 21h79v397l-40 63l-39 -63v-397zM306 0h-100q-10 0 -10 11v410q0 4 1 5l50 81q3 5 9 5t9 -5l50 -81q1 -1 1 -5v-410q0 -11 -10 -11zM217 21h78v397l-39 63l-39 -63
v-397zM501 0h-99q-11 0 -11 11v410q0 3 2 5l49 81q3 5 9.5 5t9.5 -5l49 -81q2 -2 2 -5v-410q0 -11 -11 -11zM413 21h78v397l-39 63l-39 -63v-397zM206 362h-96q-10 0 -10 11q0 10 10 10h96q11 0 11 -10q0 -11 -11 -11zM206 266h-96q-10 0 -10 10q0 11 10 11h96q11 0 11 -11
q0 -10 -11 -10zM206 150h-96q-10 0 -10 10q0 11 10 11h96q11 0 11 -11q0 -10 -11 -10zM206 53h-96q-10 0 -10 11t10 11h96q11 0 11 -11t-11 -11zM402 362h-96q-11 0 -11 11q0 10 11 10h96q11 0 11 -10q0 -11 -11 -11zM402 266h-96q-11 0 -11 10q0 11 11 11h96q11 0 11 -11
q0 -10 -11 -10zM402 150h-96q-11 0 -11 10q0 11 11 11h96q11 0 11 -11q0 -10 -11 -10zM402 53h-96q-11 0 -11 11t11 11h96q11 0 11 -11t-11 -11z"/>
</svg>