<svg xmlns="http://www.w3.org/2000/svg" viewBox="0 0 512 512">
    <defs><style>.color1{fill:#000000;}</style></defs>
    <title>furniture-86</title>
    <path class="color1" transform="scale(1, -1) translate(0, -512)" d="M202 32h-191q-11 0 -11 10v207q0 11 11 11h191q10 0 10 -11v-207q0 -10 -10 -10zM21 53h170v186h-170v-186zM501 32h-191q-10 0 -10 10v207q0 11 10 11h191q11 0 11 -11v-207q0 -10 -11 -10zM321 53h170v186h-170v-186zM310 32h-108q-11 0 -11 10v207q0 11 11 11h108
q11 0 11 -11v-207q0 -10 -11 -10zM212 53h88v186h-88v-186zM46 0q-10 0 -10 11v27q0 10 10 10q11 0 11 -10v-27q0 -11 -11 -11zM466 0q-11 0 -11 11v27q0 10 11 10q10 0 10 -10v-27q0 -11 -10 -11zM152 125q-11 0 -11 10v27q0 11 11 11q10 0 10 -11v-27q0 -10 -10 -10z
M360 125q-10 0 -10 10v27q0 11 10 11q11 0 11 -11v-27q0 -10 -11 -10zM501 239h-490q-11 0 -11 10v126q0 11 11 11h490q11 0 11 -11v-126q0 -10 -11 -10zM21 260h470v105h-470v-105zM272 307h-32q-11 0 -11 10q0 11 11 11h32q11 0 11 -11q0 -10 -11 -10zM501 365h-490
q-11 0 -11 10v126q0 11 11 11h490q11 0 11 -11v-126q0 -10 -11 -10zM21 386h470v105h-470v-105zM272 433h-32q-11 0 -11 10q0 11 11 11h32q11 0 11 -11q0 -10 -11 -10z"/>
</svg>