<svg xmlns="http://www.w3.org/2000/svg" viewBox="0 0 512 512">
    <defs><style>.color1{fill:#000000;}</style></defs>
    <title>transport-21</title>
    <path class="color1" transform="scale(1, -1) translate(0, -512)" d="M501 105h-38q-11 0 -11 10q0 11 11 11h38q11 0 11 -11q0 -10 -11 -10zM330 95h-137q-11 0 -11 11q0 10 11 10h137q11 0 11 -10q0 -11 -11 -11zM60 95h-49q-11 0 -11 11v169q0 6 5 9l282 193q6 4 11 1q6 -3 6 -10v-277h21v182q0 9 10 11h3q3 0 6.5 0.5t9.5 0.5t12.5 -0.5
t14.5 -1.5t15.5 -3t16.5 -5t17 -6.5t16.5 -9t16.5 -12.5q49 -43 49 -127v-105q0 -10 -11 -10q-10 0 -10 10v105q0 75 -42 111q-39 35 -102 32v-183q0 -10 -11 -10h-43q-10 0 -10 10v268l-262 -178v-154h39q11 0 11 -10q0 -11 -11 -11zM182 217q-5 0 -8 3l-64 59q-9 7 -1 15
q7 9 15 1l65 -59q7 -8 0 -15q-3 -4 -7 -4zM239 247q-4 0 -7 3l-64 59q-9 7 -1 15t15 1l65 -60q7 -7 0 -15q-3 -3 -8 -3zM126 33q-28 0 -47.5 19.5t-19.5 47.5q0 27 19.5 46.5t47.5 19.5q27 0 46.5 -19.5t19.5 -46.5q0 -28 -19.5 -47.5t-46.5 -19.5zM126 145q-19 0 -32 -13.5
t-13 -31.5q0 -19 13 -32.5t32 -13.5t32 13.5t13 32.5q0 18 -13 31.5t-32 13.5zM396 33q-27 0 -46.5 19.5t-19.5 47.5q0 27 19.5 46.5t46.5 19.5q28 0 47.5 -19.5t19.5 -46.5q0 -28 -19.5 -47.5t-47.5 -19.5zM396 145q-19 0 -32 -13.5t-13 -31.5q0 -19 13 -32.5t32 -13.5
t32 13.5t13 32.5q1 18 -12.5 31.5t-32.5 13.5z"/>
</svg>