<svg xmlns="http://www.w3.org/2000/svg" viewBox="0 0 512 512">
    <defs><style>.color1{fill:#000000;}</style></defs>
    <title>transport-3</title>
    <path class="color1" transform="scale(1, -1) translate(0, -512)" d="M345 237l92 -86l-15 -15l-92 85zM309 245q-5 0 -8 3l-21 20q-4 4 -3 8q0 5 4 8l30 22q3 3 9 1l69 -25q9 -6 6 -14q-4 -11 -13 -6l-64 23l-14 -10l12 -11q8 -8 0 -15q-3 -4 -7 -4zM473 92q-4 0 -7 3l-15 14q-8 8 -1 15q8 8 15 0l8 -6l15 16l-8 13q-5 9 4 14t14 -3l12 -19
q5 -7 -1 -13l-28 -31q-3 -3 -7 -3h-1zM489 142q-5 0 -8 3.5t-2 7.5l1 43l-44 41l-52 25q-10 3 -5 14q3 9 14 5l54 -25l2 -2l49 -45q4 -4 4 -9l-2 -48q0 -10 -11 -10zM316 202q-13 0 -22 9q-10 9 -10.5 22.5t8.5 23.5t23 10.5t23 -8.5q11 -9 11 -23t-9 -23q-9 -11 -24 -11z
M316 247q-3 0 -9 -4q-7 -9 1 -16q8 -8 16 0q4 4 4 9q-1 4 -4 8q-3 3 -8 3zM437 90q-12 0 -22 8q-11 9 -11 23q0 13 9 24q9 10 23 10t23 -8q10 -10 10.5 -23t-8.5 -24q-10 -10 -24 -10zM437 134q-5 0 -9 -4q-3 -3 -3 -8q2 -6 4 -8q9 -7 16 1q9 7 0 16q-3 3 -8 3zM39 123h-28
q-11 0 -11 11v51q0 27 41 91q3 5 9 5h73q11 0 11 -11t-11 -11h-67q-35 -54 -35 -74v-41h18q11 0 11 -10q0 -11 -11 -11zM251 123h-135q-11 0 -11 11q0 10 11 10h135q10 0 10 -10q0 -11 -10 -11zM365 123h-53q-11 0 -11 11q0 10 11 10h53q10 0 10 -10q0 -11 -10 -11zM78 91
q-17 0 -29 12t-12 29t12 29t29 12t29 -12t12 -29t-12 -29t-29 -12zM78 152q-8 0 -14 -6t-6 -14t6 -14t14 -6t14 6t6 14t-6 14t-14 6zM281 91q-17 0 -29 12t-12 29t12 29t29 12t29 -12t12 -29t-12 -29t-29 -12zM281 152q-8 0 -14 -6t-6 -14t6 -14t14 -6t14 6t6 14t-6 14
t-14 6zM123 128q-11 0 -11 10v130q0 11 11 11t11 -11v-130q0 -10 -11 -10zM121 191h-106q-10 0 -10 11t10 11h106q11 0 11 -11t-11 -11zM86 263q-10 0 -10 11v29q0 10 10 10q11 0 11 -10v-29q0 -11 -11 -11zM167 128q-11 0 -11 10v274q0 10 11 10q10 0 10 -10v-274
q0 -10 -10 -10zM251 370h-81q-11 0 -11 11t11 11h81q10 0 10 -11t-10 -11zM231 186q-15 0 -23 7.5t-9 15.5q-1 1 -1 2v170q0 11 11 11t11 -11v-168q0 -6 11 -6t17 17q2 11 12 9q11 -2 9 -12q-6 -35 -38 -35z"/>
</svg>