<svg xmlns="http://www.w3.org/2000/svg" viewBox="0 0 512 512">
    <defs><style>.color1{fill:#000000;}</style></defs>
    <title>transport-49</title>
    <path class="color1" transform="scale(1, -1) translate(0, -512)" d="M281 0h-50q-9 0 -15 6.5t-6 14.5v318q0 8 6 14.5t15 6.5h50q9 0 15 -6.5t6 -14.5v-318q0 -8 -6 -14.5t-15 -6.5zM281 21v-10v10zM231 339v-318h50v318h-50zM419 491h-326q-11 0 -11 10q0 11 11 11h326q11 0 11 -11q0 -10 -11 -10zM256 353q-11 0 -11 11v137q0 11 11 11
t11 -11v-137q0 -11 -11 -11zM374 260h-50q-10 0 -10 11q0 10 10 10h50q10 0 10 -10q0 -11 -10 -11zM185 114h-49q-11 0 -11 10q0 11 11 11h49q11 0 11 -11q0 -10 -11 -10z"/>
</svg>