<svg xmlns="http://www.w3.org/2000/svg" viewBox="0 0 512 512">
    <defs><style>.color1{fill:#000000;}</style></defs>
    <title>transport-5</title>
    <path class="color1" transform="scale(1, -1) translate(0, -512)" d="M471 101h-243q-17 0 -29 12t-12 29v14q0 17 12 29t29 12h243q17 0 29 -12t12 -29v-14q0 -17 -12 -29t-29 -12zM228 175q-8 0 -14 -5.5t-6 -13.5v-14q0 -8 6 -13.5t14 -5.5h243q8 0 14 5.5t6 13.5v14q0 8 -6 13.5t-14 5.5h-243zM483 175q-9 0 -11 9l-14 91h-57
q-10 0 -10 10l-7 104h-78l-39 -107q-3 -7 -10 -7h-24l-11 -82q-2 -11 -12 -9q-11 0 -9 12l12 91q0 9 10 9h26l40 108q3 7 10 7h95q10 0 10 -10l7 -105h56q9 0 10 -9l16 -99q2 -11 -8 -13h-2zM150 161q-4 0 -7 3q-9 8 0 15l60 61q7 9 15 0q7 -7 0 -15l-60 -61q-3 -3 -8 -3z
M143 108h-2l-132 20q-7 0 -9 8t5 11l139 95q6 3 11 0q6 -3 6 -10l-7 -114q-2 -6 -4 -7q-3 -3 -7 -3zM39 145l94 -14l5 81z"/>
</svg>