<svg xmlns="http://www.w3.org/2000/svg" viewBox="0 0 512 512">
    <defs><style>.color1{fill:#000000;}</style></defs>
    <title>transport-51</title>
    <path class="color1" transform="scale(1, -1) translate(0, -512)" d="M437 12h-335q-4 0 -8 4l-92 114q-6 6 0 13q6 6 13 3q129 -50 270 -50q20 0 40 1t37 3t33.5 4t29.5 4.5t24.5 5t20.5 4.5t15 4l9 3l4 1q7 3 12 -4q5 -5 0 -12l-64 -93q-3 -5 -9 -5zM107 34h325l44 63q-95 -23 -191 -23q-127 0 -242 39zM256 75q-11 0 -11 11v403
q0 11 11 11t11 -11v-403q0 -11 -11 -11zM432 96q-5 0 -8 3q-7 9 1 15q76 73 61 144q-7 36 -36 70.5t-69.5 60.5t-66.5 39.5t-51 24.5q-13 -38 -29 -77t-47 -102.5t-70.5 -107t-78.5 -50.5q-10 -2 -12 9q-2 10 8 12q32 6 66 44.5t56.5 78.5t47.5 99.5t30 74.5l12 36q2 5 5 7
q5 1 9 0q12 -4 40 -17.5t75 -41t85 -69.5t47 -87q17 -83 -68 -163q-3 -3 -7 -3z"/>
</svg>