<svg xmlns="http://www.w3.org/2000/svg" viewBox="0 0 512 512">
    <defs><style>.color1{fill:#000000;}</style></defs>
    <title>transport-55</title>
    <path class="color1" transform="scale(1, -1) translate(0, -512)" d="M453 85q-8 0 -10 7q-4 11 7 13q6 2 9 4q32 15 32 49v278q0 22 -16.5 38.5t-38.5 16.5h-360q-22 0 -38.5 -16.5t-16.5 -38.5v-278q0 -17 10.5 -31.5t27.5 -20.5q11 -2 7 -13t-14 -7q-23 8 -37.5 28t-14.5 44v278q0 32 22 54t54 22h360q32 0 54 -22t22 -54v-278
q0 -48 -44 -68q-8 -4 -12 -5h-3zM177 143q0 13 -9.5 23t-23.5 10t-24 -9.5t-10 -23.5q0 -13 10 -22.5t24 -9.5t23.5 9.5t9.5 22.5zM401 143q0 14 -9.5 23.5t-23.5 9.5t-23.5 -10t-9.5 -23t9.5 -22.5t23.5 -9.5t23.5 9t9.5 23zM288 133h-64q-10 0 -10 10q0 11 10 11h64
q10 0 10 -11q0 -10 -10 -10zM119 0q-11 0 -11 11v38q0 11 11 11q10 0 10 -11v-38q0 -11 -10 -11zM393 0q-10 0 -10 11v38q0 11 10 11q11 0 11 -11v-38q0 -11 -11 -11zM394 49h-276q-25 0 -43 20t-18 48v267q0 29 18 49t43 20h276q25 0 43 -20t18 -49v-267q0 -28 -18 -48
t-43 -20zM118 431q-17 0 -28.5 -14t-11.5 -33v-267q0 -19 11.5 -33t28.5 -14h276q17 0 28.5 14t11.5 33v267q0 19 -11.5 33t-28.5 14h-276zM435 215h-358q-11 0 -11 11q0 10 11 10h358q11 0 11 -10q0 -11 -11 -11zM256 215q-11 0 -11 11v207q0 11 11 11t11 -11v-207
q0 -11 -11 -11z"/>
</svg>