<svg xmlns="http://www.w3.org/2000/svg" viewBox="0 0 512 512">
    <defs><style>.color1{fill:#000000;}</style></defs>
    <title>transport-59</title>
    <path class="color1" transform="scale(1, -1) translate(0, -512)" d="M82 117h-10q-19 0 -32 13t-13 32v46q0 19 13 32t32 13h152q0 1 -0.5 5t-0.5 5v62q0 19 13 32t32 13h66q17 0 33 -11.5t22 -28.5l21 -65q2 -8 2 -12h55q19 0 32 -13t13 -32v-46q0 -19 -13 -32t-32 -13h-17q-10 0 -10 11q0 10 10 10h17q10 0 17 7t7 17v46q0 10 -7 16.5
t-17 6.5h-68q-6 0 -9 5t0 11q2 5 0 11l-22 66q-3 10 -13.5 17.5t-20.5 7.5h-66q-10 0 -17 -7t-7 -17v-62q0 -8 6 -14q4 -7 1 -12q-4 -6 -10 -6h-169q-10 0 -17 -6.5t-7 -16.5v-46q0 -10 7 -17t17 -7h10q11 0 11 -10q0 -11 -11 -11zM330 117h-127q-11 0 -11 11q0 10 11 10
h127q10 0 10 -10q0 -11 -10 -11zM142 55q-29 0 -50 21t-21 50t21 50t50 21q30 0 50.5 -21t20.5 -50t-20.5 -50t-50.5 -21zM142 175q-20 0 -34.5 -14.5t-14.5 -34.5q0 -21 14.5 -35.5t34.5 -14.5q21 0 35.5 14.5t14.5 35.5q0 20 -14.5 34.5t-35.5 14.5zM390 55q-29 0 -50 21
t-21 50t21 50t50 21t50 -21t21 -50t-21 -50t-50 -21zM390 175q-20 0 -35 -14.5t-15 -34.5q0 -21 15 -35.5t35 -14.5t35 14.5t15 35.5q0 20 -15 34.5t-35 14.5zM181 233q-3 0 -9 4l-143 203q-4 7 -1 11q3 6 10 6h50q5 0 8 -3l145 -143q7 -9 0 -16t-15 0l-142 141h-26
l132 -186q6 -10 -3 -15q-4 -2 -6 -2zM38 276q-17 0 -27.5 9.5t-10.5 25.5q0 11 11 11q10 0 10 -11q0 -14 17 -14q13 0 13 18q0 5 -4 9.5t-8 5.5l-4 2q-8 2 -8 10v97q0 11 11 11q10 0 10 -11v-90q24 -10 24 -34q0 -16 -8.5 -27.5t-25.5 -11.5z"/>
</svg>