<svg xmlns="http://www.w3.org/2000/svg" viewBox="0 0 512 512">
    <defs><style>.color1{fill:#000000;}</style></defs>
    <title>transport-6</title>
    <path class="color1" transform="scale(1, -1) translate(0, -512)" d="M11 168q-3 0 -7 2q-9 7 -1 15l46 55q4 4 8 4h246v171q0 10 11 10h137q6 0 9 -5q4 -6 8.5 -15.5t16.5 -37.5t17 -54t9.5 -65.5t-5.5 -71.5q-2 -8 -11 -8h-32q-10 0 -10 10q0 11 10 11h24q18 101 -42 215h-121v-171q0 -11 -10 -11h-252l-43 -51q-3 -3 -8 -3zM491 286h-165
q-11 0 -11 10q0 11 11 11h165q11 0 11 -11q0 -10 -11 -10zM172 87q-28 0 -48 19.5t-20 48.5t20 48.5t48 19.5t48 -20t20 -48t-20 -48t-48 -20zM172 202q-20 0 -33.5 -14t-13.5 -33t13.5 -33t33.5 -14t33.5 14t13.5 33t-13.5 33t-33.5 14zM409 87q-29 0 -49 20t-20 48t20 48
t49 20q28 0 48 -20t20 -48t-20 -48t-48 -20zM409 202q-19 0 -33 -14t-14 -33t14 -33t33 -14t32.5 14t13.5 33t-13.5 33t-32.5 14z"/>
</svg>