<svg xmlns="http://www.w3.org/2000/svg" viewBox="0 0 512 512">
    <defs><style>.color1{fill:#000000;}</style></defs>
    <title>transport-62</title>
    <path class="color1" transform="scale(1, -1) translate(0, -512)" d="M256 57q-42 0 -80 60.5t-56.5 129t-18.5 110.5q0 64 45.5 109.5t109.5 45.5t109.5 -45.5t45.5 -109.5q0 -42 -18.5 -110.5t-56.5 -129t-80 -60.5zM256 491q-56 0 -95 -39.5t-39 -94.5q0 -30 11.5 -76.5t29 -91.5t43 -77.5t50.5 -32.5q32 0 64.5 54t51 118.5t18.5 105.5
q0 55 -39 94.5t-95 39.5zM340 274h-168q-9 0 -15.5 6.5t-6.5 14.5v90q0 8 6.5 14.5t15.5 6.5h168q9 0 15.5 -6.5t6.5 -14.5v-90q0 -8 -6.5 -14.5t-15.5 -6.5zM340 295v-10v10zM172 385v-90h168v90h-168zM30 0q-3 0 -7 2q-8 7 -2 15l127 160q7 8 15 2q9 -8 2 -15l-127 -160
q-3 -4 -8 -4zM482 0q-5 0 -8 4l-127 160q-7 7 2 15q8 6 15 -2l127 -160q6 -8 -2 -15q-4 -2 -7 -2zM445 33h-378q-10 0 -10 11t10 11h378q10 0 10 -11t-10 -11z"/>
</svg>