<svg xmlns="http://www.w3.org/2000/svg" viewBox="0 0 512 512">
    <defs><style>.color1{fill:#000000;}</style></defs>
    <title>transport-74</title>
    <path class="color1" transform="scale(1, -1) translate(0, -512)" d="M256 69q-71 0 -121 56t-50 135t50 135t121 56t121 -56t50 -135t-50 -135t-121 -56zM256 430q-62 0 -105.5 -50t-43.5 -120t43.5 -120t105.5 -50t105.5 50t43.5 120t-43.5 120t-105.5 50zM397 186h-291q-10 0 -10 11q0 10 10 10h291q11 0 11 -10q0 -11 -11 -11zM252 186
q-11 0 -11 11v304q0 11 11 11q10 0 10 -11v-304q0 -11 -10 -11zM113 0h-39q-6 0 -9 6q-3 5 0 11l78 114q5 9 15 3q8 -6 3 -15l-67 -98h19q11 0 11 -10q0 -11 -11 -11zM438 0h-39q-11 0 -11 11q0 10 11 10h19l-67 98q-5 9 3 15q10 6 15 -3l78 -114q3 -6 0 -11q-3 -6 -9 -6z
M501 480h-490q-11 0 -11 11t11 11h490q11 0 11 -11t-11 -11z"/>
</svg>