<svg xmlns="http://www.w3.org/2000/svg" viewBox="0 0 512 512">
    <defs><style>.color1{fill:#000000;}</style></defs>
    <title>transport-81</title>
    <path class="color1" transform="scale(1, -1) translate(0, -512)" d="M66 33q-27 0 -46.5 19.5t-19.5 46.5t19.5 46.5t46.5 19.5q26 0 47 -19q19 -21 19 -47q0 -27 -19.5 -46.5t-46.5 -19.5zM66 144q-19 0 -32 -13t-13 -32t13 -32t32 -13t32 13t13 32t-13 32t-32 13zM402 33q-28 0 -47 19.5t-19 46.5t19 46.5t47 19.5q27 0 46 -19
q20 -20 20 -47t-19.5 -46.5t-46.5 -19.5zM402 144q-19 0 -32 -13t-13 -32t13 -32t32 -13q18 0 31 13t13 32t-13 32t-31 13zM81 195q-3 0 -4 1q-10 4 -6 13l95 249q4 10 13 6q10 -4 7 -14l-95 -248q-3 -7 -10 -7zM499 109h-1q-11 2 -9 12q9 85 -25 115q-11 10 -26 13.5
t-24 2.5l-10 -2q-5 -2 -10 3q-3 3 -3 9q18 114 -36 162q-67 58 -212 20h-1q-11 -4 -13 7q-4 9 7 13q6 2 19 5t42 7t57 3.5t60.5 -10.5t54.5 -29q60 -54 45 -167q38 2 64 -21q43 -38 32 -134q-2 -9 -11 -9zM299 121h-133q-9 0 -11 8q-7 41 -37 57q-8 4 -18.5 6.5t-20 2.5
t-19 -1t-17.5 -3.5t-14 -4l-10 -2.5l-4 -2q-10 -6 -14 5t5 14q4 3 21.5 8t47 7.5t53.5 -11.5q34 -18 46 -63h117q23 52 68 74q55 24 128 -7q10 -4 6 -14q-6 -9 -14 -6q-65 29 -111 7q-19 -9 -34 -26t-20 -28.5t-5 -13.5q-2 -7 -10 -7zM290 220q-14 0 -31 3q-9 2 -9 12
q2 11 13 9q55 -9 71 13q9 20 6 38t-10 32q-5 10 4 15q10 3 15 -5l1 -3q2 -4 3.5 -8t3.5 -10.5t3.5 -13t2 -14.5t0 -15t-3.5 -14.5t-7 -13.5q-19 -25 -62 -25zM121 196q-4 0 -7 3q-8 8 -1 15l95 106q8 8 15 1q8 -8 1 -15l-95 -106q-4 -4 -8 -4zM247 271q-5 0 -8 3l-59 58
q-8 6 -1 15q8 6 16 0l59 -58q8 -8 0 -15q-3 -3 -7 -3z"/>
</svg>