<svg xmlns="http://www.w3.org/2000/svg" viewBox="0 0 512 512">
    <defs><style>.color1{fill:#000000;}</style></defs>
    <title>transport-89</title>
    <path class="color1" transform="scale(1, -1) translate(0, -512)" d="M256 71q-65 0 -111.5 46t-46.5 111q0 60 41 106q47 52 117 52q65 0 111.5 -46.5t46.5 -111.5t-46.5 -111t-111.5 -46zM256 365q-60 0 -101 -46q-35 -38 -35 -91q0 -56 40 -96t96 -40t96 40t40 96t-40 96.5t-96 40.5zM256 161q-28 0 -47.5 19.5t-19.5 47.5q0 26 17 45
q21 23 50 23q28 0 47.5 -20t19.5 -48t-19.5 -47.5t-47.5 -19.5zM256 274q-20 0 -34 -15q-12 -12 -12 -31t13.5 -32.5t32.5 -13.5t32.5 13.5t13.5 32.5t-13.5 32.5t-32.5 13.5zM273 0h-186q-7 0 -10 6q-2 5 1 11l71 106q8 8 15 2q8 -5 3 -14l-60 -90h166q11 0 11 -10
q0 -11 -11 -11zM425 0h-186q-11 0 -11 11q0 10 11 10h166l-60 90q-5 9 3 14q7 6 15 -2l71 -106q3 -6 1 -11q-3 -6 -10 -6zM141 316q-10 0 -10 11v174q0 11 10 11q11 0 11 -11v-174q0 -11 -11 -11zM371 316q-11 0 -11 11v174q0 11 11 11q10 0 10 -11v-174q0 -11 -10 -11z
M433 491h-354q-11 0 -11 10q0 11 11 11h354q11 0 11 -11q0 -10 -11 -10zM256 365q-11 0 -11 10v57q0 11 11 11t11 -11v-57q0 -10 -11 -10zM199 0q-2 0 -3 1q-11 2 -7 13l20 62q3 10 14 7q9 -4 7 -13l-21 -63q-2 -7 -10 -7zM313 0q-8 0 -10 7l-21 63q-2 9 7 13q11 3 14 -7
l20 -62q3 -10 -7 -14h-3z"/>
</svg>