<svg xmlns="http://www.w3.org/2000/svg" viewBox="0 0 512 512">
    <defs><style>.color1{fill:#000000;}</style></defs>
    <title>transport-9</title>
    <path class="color1" transform="scale(1, -1) translate(0, -512)" d="M380 39h-205q-43 0 -77 13.5t-51.5 31t-29 38t-14.5 31.5t-3 14q0 5 3 8q3 4 8 4h490q11 0 11 -11q0 -95 -128 -128l-2 -1h-2zM24 158q4 -14 12.5 -28t25 -31.5t46 -28t67.5 -10.5h204q103 28 111 98h-466zM243 158h-115q-11 0 -11 10v147q0 10 11 10h115q10 0 10 -10
v-147q0 -10 -10 -10zM139 179h93v125h-93v-125zM463 158h-220q-11 0 -11 10v123q0 10 11 10h220q10 0 10 -10v-123q0 -10 -10 -10zM253 179h199v101h-199v-101zM308 280q-10 0 -10 11v171q0 11 10 11q11 0 11 -11v-171q0 -11 -11 -11zM357 414h-101q-11 0 -11 10q0 11 11 11
h101q11 0 11 -11q0 -10 -11 -10z"/>
</svg>