<svg xmlns="http://www.w3.org/2000/svg" viewBox="0 0 512 512">
    <defs><style>.color1{fill:#000000;}</style></defs>
    <title>transport-93</title>
    <path class="color1" transform="scale(1, -1) translate(0, -512)" d="M351 55q-67 0 -114.5 47t-47.5 114t47.5 114.5t114.5 47.5t114 -47.5t47 -114.5t-47 -114t-114 -47zM351 357q-59 0 -100 -41.5t-41 -99.5t41.5 -99t99.5 -41t99 41t41 99t-41 99.5t-99 41.5zM81 55q-34 0 -57.5 23.5t-23.5 56.5q0 34 23.5 57.5t57.5 23.5
q33 0 56.5 -23.5t23.5 -57.5q0 -33 -23.5 -56.5t-56.5 -23.5zM81 195q-25 0 -42.5 -17.5t-17.5 -42.5q0 -24 17.5 -41.5t42.5 -17.5q24 0 41.5 17.5t17.5 41.5q0 25 -17.5 42.5t-41.5 17.5zM81 125h-2q-11 2 -9 12q2 8 3.5 16.5t10.5 35t19 48.5t29 52.5t41.5 53.5t56 43.5
t71.5 29.5q11 2 13 -8q3 -9 -8 -13q-49 -12 -89 -43.5t-62.5 -66t-37.5 -71t-20.5 -57t-5.5 -23.5q-1 -9 -10 -9zM161 251h-104q-11 0 -11 11t11 11h104q11 0 11 -11t-11 -11zM351 206q-9 0 -11 8l-53 230q-3 9 8 13q9 2 13 -8l53 -230q2 -11 -8 -13h-2zM351 436h-103
q-10 0 -10 10q0 11 10 11h103q10 0 10 -11q0 -10 -10 -10z"/>
</svg>