<svg xmlns="http://www.w3.org/2000/svg" viewBox="0 0 512 512">
    <defs><style>.color1{fill:#000000;}</style></defs>
    <title>electronics-101</title>
    <path class="color1" transform="scale(1, -1) translate(0, -512)" d="M338 192h-254h-2l-2 1q-35 5 -57.5 30.5t-22.5 60.5q0 33 21 58t53 32q16 34 47.5 54t68.5 20q39 0 71 -21.5t46 -56.5q13 5 31 5q38 0 64.5 -26.5t26.5 -64.5t-27 -65t-64 -27zM87 214h251q29 0 49.5 20.5t20.5 49.5t-20.5 49.5t-49.5 20.5q-18 0 -32 -7q-4 -3 -9 -1
q-4 1 -6 7q-10 33 -38 53.5t-63 20.5q-33 0 -59.5 -18t-39.5 -49q-1 -5 -8 -7q-26 -3 -44 -23t-18 -46q0 -28 18.5 -48t45.5 -22h2zM440 87h-16q-2 0 -7 0.5t-8 0.5h-163q-10 0 -10 10q0 11 10 11h163h16q37 -2 49 9q23 23 14 51q-1 2 -1.5 5.5t-0.5 5.5q-8 28 -19 35
q-30 19 -47 18q-11 0 -11 10q-2 11 9 11q24 2 60 -21q19 -11 28 -48q1 -4 3 -10q10 -40 -20 -72q-16 -16 -49 -16zM245 64h-62q-10 0 -10 11v48q0 10 10 10h62q11 0 11 -10v-48q0 -11 -11 -11zM194 85h41v27h-41v-27z"/>
</svg>