<svg xmlns="http://www.w3.org/2000/svg" viewBox="0 0 512 512">
    <defs><style>.color1{fill:#000000;}</style></defs>
    <title>electronics-103</title>
    <path class="color1" transform="scale(1, -1) translate(0, -512)" d="M173 142q-96 0 -146 65q-6 9 2 15q9 7 15 -2q42 -55 129 -55.5t167 54.5q81 55 112 136.5t-6 140.5q-5 9 3 14q10 6 15 -3q42 -67 9.5 -155.5t-121.5 -149.5q-87 -60 -179 -60zM428 0h-147q-6 0 -9 5q-3 3 -1 9l73 195q3 6 10 6q8 0 10 -6l74 -195q2 -5 -2 -9
q-3 -5 -8 -5zM296 21h116l-58 154zM228 155q-8 0 -10 9l-45 281q0 7 5 11t11 0l247 -142q8 -5 3 -14q-5 -10 -14 -4l-227 131l41 -259q2 -11 -9 -13h-2zM346 200q-6 0 -9 5l-156 228q-6 7 2 15q10 6 15 -3l157 -228q5 -9 -3 -15q-4 -2 -6 -2z"/>
</svg>