<svg xmlns="http://www.w3.org/2000/svg" viewBox="0 0 512 512">
    <defs><style>.color1{fill:#000000;}</style></defs>
    <title>electronics-104</title>
    <path class="color1" transform="scale(1, -1) translate(0, -512)" d="M414 354q-5 0 -8 3l-49 49q-7 8 0 15q7 9 15 0l49 -49q9 -8 0 -15q-3 -3 -7 -3zM365 354q-5 0 -8 3q-7 7 0 15l49 49q8 9 15 0q9 -7 0 -15l-49 -49q-3 -3 -7 -3zM89 119q0 -13 -13 -13t-13 13t13 13t13 -13zM137 166q0 -13 -13 -13q-14 0 -14 13t14 13q13 0 13 -13z
M132 76q0 -13 -13 -13t-13 13t13 13t13 -13zM179 124q0 -14 -13 -14t-13 14q0 13 13 13t13 -13zM136 0q-58 0 -96 40q-40 40 -39.5 98t41.5 99l233 233q42 42 101 42q58 0 96 -40q40 -40 39.5 -98t-41.5 -99l-233 -233q-42 -42 -101 -42zM376 491q-50 0 -86 -36l-233 -233
q-35 -35 -35.5 -84t33.5 -83q32 -34 81 -34q50 0 86 36l233 233q35 35 35.5 84t-33.5 83q-32 34 -81 34zM244 132q-9 0 -15 6l-91 91q-6 6 -6 15t6 15l115 115q6 6 15 6t15 -6l91 -91q6 -6 6 -15t-6 -15l-115 -115q-6 -6 -15 -6zM268 358l-114 -114l90 -90v0l114 114z"/>
</svg>