<svg xmlns="http://www.w3.org/2000/svg" viewBox="0 0 512 512">
    <defs><style>.color1{fill:#000000;}</style></defs>
    <title>electronics-111</title>
    <path class="color1" transform="scale(1, -1) translate(0, -512)" d="M257 0q-11 0 -11 11v156q0 11 11 11q10 0 10 -11v-156q0 -11 -10 -11zM258 158h-3q-35 0 -59 29t-24 70v156q0 41 24 70t59 29h3q34 0 58 -29t24 -70v-156q0 -41 -24 -70t-58 -29zM255 491q-26 0 -44 -23t-18 -55v-156q0 -32 18 -55t44 -23h3q25 0 43 23t18 55v156
q0 32 -18 55t-43 23h-3zM276 392h-37q-11 0 -11 10q0 11 11 11h37q11 0 11 -11q0 -10 -11 -10zM276 324h-37q-11 0 -11 10q0 11 11 11h37q11 0 11 -11q0 -10 -11 -10zM276 255h-37q-11 0 -11 11t11 11h37q11 0 11 -11t-11 -11z"/>
</svg>