<svg xmlns="http://www.w3.org/2000/svg" viewBox="0 0 512 512">
    <defs><style>.color1{fill:#000000;}</style></defs>
    <title>electronics-135</title>
    <path class="color1" transform="scale(1, -1) translate(0, -512)" d="M501 -1h-490q-11 0 -11 11v190q0 11 11 11h490q11 0 11 -11v-190q0 -11 -11 -11zM21 20h470v169h-470v-169zM430 108h-348q-10 0 -10 10q0 11 10 11h348q10 0 10 -11q0 -10 -10 -10zM430 49h-58q-10 0 -10 10q0 11 10 11h58q10 0 10 -11q0 -10 -10 -10zM106 46h-17
q-11 0 -11 11t11 11h17q10 0 10 -11t-10 -11zM501 189h-490q-6 0 -10 6q-3 5 1 12l107 136q3 4 8 4h278q5 0 8 -4l107 -136q4 -7 1 -12q-4 -6 -10 -6zM33 211h446l-90 115h-266zM395 326h-278q-8 0 -10 9q-3 14 -3 26q0 63 44.5 107.5t107.5 44.5t107.5 -44.5t44.5 -107.5
q0 -13 -3 -26q-2 -9 -10 -9zM127 347h258q1 5 1 14q0 54 -38 92.5t-92 38.5t-92 -38.5t-38 -92.5q0 -9 1 -14zM288 326h-64q-5 0 -9 4q-10 13 -10 31q0 21 15 36t36 15t36 -14.5t15 -36.5q0 -18 -10 -31q-4 -4 -9 -4zM230 347h52q4 7 4 14q0 13 -8.5 21.5t-21.5 8.5
t-21.5 -8.5t-8.5 -21.5q0 -7 4 -14zM227 382q-6 0 -9 5l-47 88q-6 9 4 15q10 3 15 -5l47 -88q5 -9 -5 -14q-1 -1 -5 -1zM269 394q-1 0 -2 1q-4 0 -7 3.5t-2 7.5l10 95q2 12 12 10t10 -12l-11 -95q0 -10 -10 -10z"/>
</svg>