<svg xmlns="http://www.w3.org/2000/svg" viewBox="0 0 512 512">
    <defs><style>.color1{fill:#000000;}</style></defs>
    <title>electronics-136</title>
    <path class="color1" transform="scale(1, -1) translate(0, -512)" d="M412 17q-35 0 -63 22l-3 3l-189 205q-3 3 -3 7v64q0 10 10 10q10 1 27 1q27 0 55.5 -4t68.5 -15.5t78.5 -38t65.5 -65.5l16 -15q14 -14 19.5 -20t11.5 -20t6 -31q1 -41 -27 -71t-69 -32h-4zM359 59q1 0 1 -0.5t1 -0.5q22 -20 51 -20h3q32 2 54.5 25.5t21.5 55.5
q0 13 -4.5 23t-9.5 15.5t-17 17.5l-16 16l-1 1q-33 48 -87.5 76t-91.5 34t-73 6h-15v-49zM408 236q-4 0 -6 2q-9 6 -2 15l5 7l-21 16l-6 -7q-6 -9 -15 -2q-8 5 -2 15l12 16q8 8 15 2l38 -29q8 -6 3 -15l-12 -16q-3 -4 -9 -4zM449 88q-30 0 -72 45q-24 26 -34.5 50.5
t1.5 39.5q6 6 16 6q29 0 72 -45q24 -27 34.5 -51t-1.5 -40q-7 -5 -16 -5zM360 208h-2q-1 -3 1.5 -10.5t11 -21.5t22.5 -29q35 -38 56 -38h2q1 3 -1.5 10t-11 21t-22.5 29q-36 39 -56 39zM167 241q-2 0 -8 4l-153 165q-3 3 -3 7l-3 67q0 9 7 10q6 3 11 -2l155 -167
q8 -8 -1 -15q-8 -8 -15 1l-134 145l1 -34l151 -163q7 -7 0 -15q-5 -3 -8 -3z"/>
</svg>