<svg xmlns="http://www.w3.org/2000/svg" viewBox="0 0 512 512">
    <defs><style>.color1{fill:#000000;}</style></defs>
    <title>electronics-138</title>
    <path class="color1" transform="scale(1, -1) translate(0, -512)" d="M501 54h-490q-11 0 -11 11v291q0 11 11 11h490q11 0 11 -11v-291q0 -11 -11 -11zM21 75h470v270h-470v-270zM405 134q-23 0 -39 16.5t-16 39.5q0 22 16 38.5t39 16.5t39.5 -16t16.5 -39t-16.5 -39.5t-39.5 -16.5zM405 224q-14 0 -24 -10t-10 -24t10 -24.5t24 -10.5
t24.5 10.5t10.5 24.5t-10.5 24t-24.5 10zM107 134q-23 0 -39.5 16.5t-16.5 39.5t16.5 39t39.5 16t39 -16.5t16 -38.5q0 -23 -16 -39.5t-39 -16.5zM107 224q-14 0 -24.5 -10t-10.5 -24t10.5 -24.5t24.5 -10.5t24 10.5t10 24.5t-10 24t-24 10zM296 175h-80q-10 0 -10 11v86
q0 10 10 10h80q10 0 10 -10v-86q0 -11 -10 -11zM227 197h58v64h-58v-64zM428 345q-11 0 -11 11v81h-322v-80q0 -11 -11 -11t-11 11v90q0 11 11 11h344q11 0 11 -11v-91q0 -11 -11 -11zM335 351q-11 0 -11 10v21q0 11 11 11t11 -11v-21q0 -10 -11 -10zM256 351q-11 0 -11 10
v21q0 11 11 11t11 -11v-21q0 -10 -11 -10zM177 351q-11 0 -11 10v21q0 11 11 11t11 -11v-21q0 -10 -11 -10z"/>
</svg>