<svg xmlns="http://www.w3.org/2000/svg" viewBox="0 0 512 512">
    <defs><style>.color1{fill:#000000;}</style></defs>
    <title>electronics-142</title>
    <path class="color1" transform="scale(1, -1) translate(0, -512)" d="M306 308q-4 0 -7 3l-20 19l-15 -13q-7 -7 -14 -1l-16 14l-22 -16q-7 -7 -15 2q-6 7 2 15l29 21q6 5 13 0l16 -13l15 14q8 7 15 0l27 -27q7 -7 0 -15q-3 -3 -8 -3zM256 149q-11 0 -11 11v169q0 10 11 10t11 -10v-169q0 -11 -11 -11zM297 122q-10 0 -10 11v42q0 4 3 7
q45 47 45 146q0 66 -23.5 114.5t-55.5 48.5t-55.5 -48.5t-23.5 -114.5q0 -99 45 -146q3 -3 3 -7v-42q0 -11 -10 -11q-11 0 -11 11v37q-48 53 -48 158q0 77 29 130.5t71 53.5t71 -53.5t29 -130.5q0 -105 -48 -158v-37q0 -11 -11 -11zM318 82h-124q-11 0 -11 10q0 11 11 11
h124q11 0 11 -11q0 -10 -11 -10zM296 38h-80q-10 0 -10 11q0 10 10 10h80q10 0 10 -10q0 -11 -10 -11zM267 0h-22q-11 0 -11 11q0 10 11 10h22q11 0 11 -10q0 -11 -11 -11z"/>
</svg>