<svg xmlns="http://www.w3.org/2000/svg" viewBox="0 0 512 512">
    <defs><style>.color1{fill:#000000;}</style></defs>
    <title>electronics-147</title>
    <path class="color1" transform="scale(1, -1) translate(0, -512)" d="M502 99h-1h-123q-5 0 -8 4q-3 3 -3 8l14 141q2 9 11 9h92q9 0 11 -9l17 -139v-3q0 -11 -10 -11zM390 120h99l-14 120h-73zM318 99h-124q-5 0 -8 4q-4 3 -2 8l14 141q0 9 10 9h92q9 0 11 -9l17 -139v-1l1 -2q0 -11 -11 -11zM206 120h100l-15 120h-73zM134 99h-123
q-5 0 -8 4q-3 3 -3 8l14 141q0 9 10 9h93q10 0 10 -9l17 -139q1 -1 1 -3q0 -11 -11 -11zM22 120h100l-15 120h-73zM255 242q-11 0 -11 10v215q0 11 11 11q10 0 10 -11v-215q2 -10 -10 -10zM290 468h-71q-10 0 -10 11t10 11h71q11 0 11 -11t-11 -11zM440 22q-11 0 -11 11v72
q0 11 11 11q10 0 10 -11v-72q0 -11 -10 -11zM256 22q-11 0 -11 11v72q0 11 11 11t11 -11v-72q0 -11 -11 -11zM72 22q-10 0 -10 11v72q0 11 10 11q11 0 11 -11v-72q0 -11 -11 -11zM439 22h-366q-11 0 -11 11t11 11h366q11 0 11 -11t-11 -11z"/>
</svg>