<svg xmlns="http://www.w3.org/2000/svg" viewBox="0 0 512 512">
    <defs><style>.color1{fill:#000000;}</style></defs>
    <title>electronics-153</title>
    <path class="color1" transform="scale(1, -1) translate(0, -512)" d="M459 148h-197q-10 0 -10 11t10 11h197q13 0 22.5 9.5t9.5 22.5v187q0 13 -9.5 22.5t-22.5 9.5h-270q-13 0 -22.5 -9.5t-9.5 -22.5v-139q0 -10 -11 -10t-11 10v139q0 22 16 37.5t38 15.5h270q22 0 37.5 -15.5t15.5 -37.5v-188q0 -22 -15.5 -37.5t-37.5 -15.5zM498 207
h-263q-10 0 -10 10q0 11 10 11h263q11 0 11 -11q0 -10 -11 -10zM442 70h-237q-11 0 -11 10q0 11 11 11h237q11 0 11 -11q0 -10 -11 -10zM404 70q-3 0 -5 1q-16 9 -30 38q-13 24 -13 46q0 10 11 10q10 0 10 -10q0 -16 11 -36q12 -25 21 -29q9 -5 5 -15q-3 -5 -10 -5zM262 70
h-251q-11 0 -11 10v98q0 10 11 10h251q10 0 10 -10v-98q0 -10 -10 -10zM21 91h230v76h-230v-76zM225 118h-178q-10 0 -10 11t10 11h178q11 0 11 -11t-11 -11zM262 167h-251q-7 0 -10 6q-3 5 1 11l55 70q3 4 8 4h142q5 0 8 -4l55 -70q4 -4 1 -11q-3 -6 -9 -6zM33 188h207
l-38 49h-132z"/>
</svg>