<svg xmlns="http://www.w3.org/2000/svg" viewBox="0 0 512 512">
    <defs><style>.color1{fill:#000000;}</style></defs>
    <title>electronics-155</title>
    <path class="color1" transform="scale(1, -1) translate(0, -512)" d="M400 38h-169q-11 0 -11 11q0 10 11 10h169q18 0 31 13t13 31v28q0 19 -13 34.5t-32 18.5l-290 51q-17 3 -29 -7q-12 -9 -12 -27v-98q0 -18 13 -31t31 -13q10 0 10 -10q0 -11 -10 -11q-27 0 -46 19t-19 46v98q0 27 19 43q20 17 47 12l290 -51q26 -5 44 -26.5t18 -47.5v-28
q0 -27 -19 -46t-46 -19zM238 213q-4 0 -8 4l-175 210q-3 5 -2 9q0 3 4 7l93 67q8 5 15 -2q6 -10 -3 -15l-83 -61l167 -201q6 -8 -1 -15q-3 -3 -7 -3zM353 193q-11 0 -11 11t11 11q41 0 62 27q22 25 14 61q-2 10 8 13q9 2 13 -9q9 -45 -18 -79q-29 -35 -79 -35zM396 0h-110
q-11 0 -11 11q0 10 11 10h110q11 0 11 -10q0 -11 -11 -11zM170 1q-31 0 -52.5 21.5t-21.5 51.5q0 31 21.5 52.5t52.5 21.5q30 0 51.5 -21.5t21.5 -52.5q0 -30 -21.5 -51.5t-51.5 -21.5zM170 127q-22 0 -37.5 -15.5t-15.5 -37.5q0 -21 15.5 -36.5t37.5 -15.5q21 0 36.5 15.5
t15.5 36.5q0 22 -15.5 37.5t-36.5 15.5z"/>
</svg>