<svg xmlns="http://www.w3.org/2000/svg" viewBox="0 0 512 512">
    <defs><style>.color1{fill:#000000;}</style></defs>
    <title>electronics-16</title>
    <path class="color1" transform="scale(1, -1) translate(0, -512)" d="M469 0h-426q-18 0 -30.5 11t-12.5 26v293q0 11 11 11h490q11 0 11 -11v-293q0 -15 -12.5 -26t-30.5 -11zM21 320v-283q0 -6 6.5 -11t15.5 -5h426q9 0 15.5 5t6.5 11v283h-470zM360 71h-80q-10 0 -10 11q0 10 10 10h80q11 0 11 -10q0 -11 -11 -11zM442 82q0 8 -5 13t-13 5
q-7 0 -12 -5.5t-5 -12.5t5 -12.5t12 -5.5q8 0 13 5t5 13zM501 320q-8 0 -10 8l-41 163h-388l-41 -163q-2 -10 -13 -8q-10 3 -8 13l43 171q2 8 10 8h406q8 0 10 -8l43 -171q2 -10 -8 -13h-3zM256 320q-11 0 -11 11v170q0 11 11 11t11 -11v-170q0 -11 -11 -11z"/>
</svg>