<svg xmlns="http://www.w3.org/2000/svg" viewBox="0 0 512 512">
    <defs><style>.color1{fill:#000000;}</style></defs>
    <title>electronics-19</title>
    <path class="color1" transform="scale(1, -1) translate(0, -512)" d="M287 20q-4 0 -6 2l-183 127q-3 1 -5 7q0 5 2 8l165 238q4 4 7 4q6 0 8 -2l183 -127q9 -5 3 -15l-165 -238q-3 -4 -9 -4zM119 160l165 -115l153 221l-165 115zM434 275q-5 0 -7 2q-9 7 -2 15l61 88l-124 87l-62 -89q-6 -9 -14 -3q-9 7 -3 15l68 98q2 4 6 4q5 2 8 -2
l142 -98q3 -2 5 -7q0 -6 -2 -8l-68 -98q-3 -4 -8 -4zM354 380q-2 0 -6 2q-9 6 -2 15l20 30q7 9 15 2q9 -6 3 -14l-21 -30q-3 -5 -9 -5zM416 334q-4 0 -6 2q-9 6 -3 14l24 35q6 8 15 3q8 -6 3 -15l-24 -35q-3 -4 -9 -4zM47 85q-4 0 -6 2q-33 22 -39 61q-7 38 15 72q6 8 15 3
q8 -6 3 -15q-18 -24 -12 -56q5 -31 30 -48q9 -5 3 -15q-3 -4 -9 -4zM85 109q-4 0 -6 1q-23 17 -29 44q-5 28 12 51q6 9 14 3q9 -5 3 -15q-11 -16 -8 -35q5 -19 20 -30q9 -5 3 -15q-4 -4 -9 -4z"/>
</svg>