<svg xmlns="http://www.w3.org/2000/svg" viewBox="0 0 512 512">
    <defs><style>.color1{fill:#000000;}</style></defs>
    <title>electronics-30</title>
    <path class="color1" transform="scale(1, -1) translate(0, -512)" d="M501 0h-490q-11 0 -11 11v108q0 11 11 11h31q10 0 10 -11q0 -10 -10 -10h-21v-88h470v88h-24q-11 0 -11 10q0 11 11 11h34q11 0 11 -11v-108q0 -11 -11 -11zM45 109q-5 0 -8 3.5t-2 7.5l14 303q2 37 25 63t54 26h256q31 0 54 -26t25 -63l14 -303q1 -4 -2 -7.5t-8 -3.5
q-4 -1 -7.5 2t-3.5 8l-14 303q-2 29 -19 49t-39 20h-256q-22 0 -39 -20t-19 -49l-14 -303q0 -10 -11 -10zM256 131q-61 0 -104.5 43.5t-43.5 105.5t43 105t105 43t105 -43t43 -105t-43.5 -105.5t-104.5 -43.5zM256 407q-52 0 -89.5 -37.5t-37.5 -89.5t37.5 -89.5t89.5 -37.5
t89.5 37.5t37.5 89.5t-37.5 89.5t-89.5 37.5zM305 151q-11 0 -11 11v238q0 11 11 11t11 -11v-238q0 -11 -11 -11zM207 151q-11 0 -11 11v238q0 11 11 11t11 -11v-238q0 -11 -11 -11zM394 269h-275q-11 0 -11 11q0 10 11 10h275q10 0 10 -10q0 -11 -10 -11zM377 44
q-17 0 -29 12.5t-12 29.5t12 29t29 12t29 -12t12 -29t-12 -29.5t-29 -12.5zM377 106q-8 0 -14 -6t-6 -14t6 -14t14 -6t14 6t6 14t-6 14t-14 6zM168 54h-88q-11 0 -11 11t11 11h88q10 0 10 -11t-10 -11z"/>
</svg>