<svg xmlns="http://www.w3.org/2000/svg" viewBox="0 0 512 512">
    <defs><style>.color1{fill:#000000;}</style></defs>
    <title>electronics-36</title>
    <path class="color1" transform="scale(1, -1) translate(0, -512)" d="M501 117h-490q-11 0 -11 11v373q0 11 11 11h490q11 0 11 -11v-373q0 -11 -11 -11zM21 139h470v352h-470v-352zM441 0h-370q-11 0 -11 11q0 10 11 10h370q11 0 11 -10q0 -11 -11 -11zM155 3q-7 0 -9 6q-6 10 5 14q39 18 39 105q0 11 11 11q10 0 10 -11q0 -100 -51 -124
q-2 -1 -5 -1zM357 3q-3 0 -5 1q-51 24 -51 124q0 11 10 11q11 0 11 -11q0 -87 39 -105q11 -4 5 -14q-2 -6 -9 -6z"/>
</svg>