<svg xmlns="http://www.w3.org/2000/svg" viewBox="0 0 512 512">
    <defs><style>.color1{fill:#000000;}</style></defs>
    <title>electronics-44</title>
    <path class="color1" transform="scale(1, -1) translate(0, -512)" d="M501 31h-37q-8 0 -10 8l-21 72q-1 3 0 6l21 76q2 7 10 7h37q11 0 11 -10v-148q0 -11 -11 -11zM472 53h19v126h-19l-18 -65zM443 105h-366q-11 0 -11 11t11 11h366q11 0 11 -11t-11 -11zM501 226h-62q-11 0 -11 11q0 10 11 10h51l1 223q0 11 10 11h1q10 0 10 -11v-233
q0 -5 -3 -8t-8 -3zM312 226h-241q-5 0 -8 3q-3 5 -3 8q7 118 116 178t325 66q11 0 11 -11q0 -9 -10 -11q-398 -9 -420 -212h230q10 0 10 -10q0 -11 -10 -11zM375 182q-31 0 -52.5 21.5t-21.5 52.5t21.5 52.5t52.5 21.5t52.5 -21.5t21.5 -52.5t-21.5 -52.5t-52.5 -21.5z
M375 308q-22 0 -37.5 -15t-15.5 -37t15.5 -37.5t37.5 -15.5t37.5 15.5t15.5 37.5t-15.5 37t-37.5 15zM83 105h-9h-4q-20 2 -26 8l-3 2q-10 8 -16 19q-2 4 -6 12.5t-6 12.5l-3 9q-23 52 8 83l3 3q13 13 29 13h6h10q10 5 14 -5q5 -10 -5 -14q-8 -4 -20 -2h-5q-7 0 -14 -7
l-3 -3q-20 -20 -4 -59q2 -4 4 -10q4 -11 11 -23q2 -5 11 -12l3 -3q3 -2 13 -2q1 0 2.5 -0.5t2.5 -0.5h14h8q10 0 10 -10q0 -11 -10 -11h-7h-8z"/>
</svg>