<svg xmlns="http://www.w3.org/2000/svg" viewBox="0 0 512 512">
    <defs><style>.color1{fill:#000000;}</style></defs>
    <title>electronics-45</title>
    <path class="color1" transform="scale(1, -1) translate(0, -512)" d="M297 127h-82q-22 0 -37.5 15.5t-15.5 37.5v279q0 22 15.5 37.5t37.5 15.5h82q22 0 37.5 -15.5t15.5 -37.5v-279q0 -22 -15.5 -37.5t-37.5 -15.5zM215 491q-13 0 -22.5 -9.5t-9.5 -22.5v-279q0 -13 9.5 -22.5t22.5 -9.5h82q13 0 22.5 9.5t9.5 22.5v279q0 13 -9.5 22.5
t-22.5 9.5h-82zM393 1h-274q-11 0 -11 11t11 11h274q11 0 11 -11t-11 -11zM252 0q-10 0 -10 11v126q0 10 10 10q11 0 11 -10v-126q0 -11 -11 -11zM332 421h-151q-11 0 -11 11q0 10 11 10h151q10 0 10 -10q0 -11 -10 -11zM332 352h-151q-11 0 -11 11q0 10 11 10h151
q10 0 10 -10q0 -11 -10 -11zM332 283h-151q-11 0 -11 11t11 11h151q10 0 10 -11t-10 -11z"/>
</svg>