<svg xmlns="http://www.w3.org/2000/svg" viewBox="0 0 512 512">
    <defs><style>.color1{fill:#000000;}</style></defs>
    <title>electronics-60</title>
    <path class="color1" transform="scale(1, -1) translate(0, -512)" d="M192 277q0 7 -4.5 12t-11.5 5t-12 -5t-5 -12q0 -16 17 -16q16 0 16 16zM273 277q0 7 -5 12t-12 5t-12 -5t-5 -12t5 -11.5t12 -4.5t12 4.5t5 11.5zM353 277q0 7 -5 12t-12 5t-11.5 -5t-4.5 -12q0 -16 16 -16q17 0 17 16zM192 181q0 7 -4.5 12t-11.5 5t-12 -5t-5 -12
q0 -16 17 -16q16 0 16 16zM273 181q0 7 -5 12t-12 5t-12 -5t-5 -12t5 -11.5t12 -4.5t12 4.5t5 11.5zM353 181q0 7 -5 12t-12 5t-11.5 -5t-4.5 -12q0 -16 16 -16q17 0 17 16zM192 85q0 7 -4.5 12t-11.5 5t-12 -5t-5 -12q0 -16 17 -16q16 0 16 16zM273 85q0 7 -5 12t-12 5
t-12 -5t-5 -12t5 -11.5t12 -4.5t12 4.5t5 11.5zM353 85q0 7 -5 12t-12 5t-11.5 -5t-4.5 -12q0 -16 16 -16q17 0 17 16zM388 0h-264q-22 0 -37.5 15.5t-15.5 37.5v406q0 22 15.5 37.5t37.5 15.5h264q22 0 37.5 -15.5t15.5 -37.5v-406q0 -22 -15.5 -37.5t-37.5 -15.5zM124 491
q-13 0 -22.5 -9.5t-9.5 -22.5v-406q0 -13 9.5 -22.5t22.5 -9.5h264q13 0 22.5 9.5t9.5 22.5v406q0 13 -9.5 22.5t-22.5 9.5h-264zM359 385h-206q-11 0 -11 10q0 11 11 11h206q11 0 11 -11q0 -10 -11 -10z"/>
</svg>