<svg xmlns="http://www.w3.org/2000/svg" viewBox="0 0 512 512">
    <defs><style>.color1{fill:#000000;}</style></defs>
    <title>electronics-63</title>
    <path class="color1" transform="scale(1, -1) translate(0, -512)" d="M480 78h-448q-14 0 -23 9t-9 23v292q0 14 9 23t23 9h448q14 0 23 -9t9 -23v-292q0 -14 -9 -23t-23 -9zM32 413q-11 0 -11 -11v-292q0 -11 11 -11h448q11 0 11 11v292q0 11 -11 11h-448zM127 225q-22 0 -37 15.5t-15 36.5q0 22 15 37.5t37 15.5t37 -15.5t15 -37.5
q0 -21 -15 -36.5t-37 -15.5zM127 308q-13 0 -22 -9t-9 -22t9 -22t22 -9t22 9t9 22t-9 22t-22 9zM385 225q-22 0 -37 15.5t-15 36.5q0 22 15 37.5t37 15.5t37 -15.5t15 -37.5q0 -21 -15 -36.5t-37 -15.5zM385 308q-13 0 -22 -9t-9 -22t9 -22t22 -9t22 9t9 22t-9 22t-22 9z
M455 78q-7 0 -10 7l-30 75h-314l-34 -68q-5 -10 -15 -5q-10 4 -4 14l37 74q1 6 9 6h328q7 0 10 -6l33 -82q4 -10 -6 -14q-1 0 -3 -1h-1z"/>
</svg>