<svg xmlns="http://www.w3.org/2000/svg" viewBox="0 0 512 512">
    <defs><style>.color1{fill:#000000;}</style></defs>
    <title>electronics-68</title>
    <path class="color1" transform="scale(1, -1) translate(0, -512)" d="M328 0h-143q-66 0 -104 44q-32 35 -26 85l32 257q6 52 53 89t106 37h8q60 0 107.5 -36.5t55.5 -88.5l38 -258q8 -49 -24 -85q-38 -44 -103 -44zM246 491q-52 0 -92.5 -31.5t-45.5 -76.5l-32 -257q-5 -39 21 -68q32 -37 88 -37h143q55 0 87 37q25 28 19 67l-38 258
q-7 45 -48.5 76.5t-93.5 31.5h-8zM442 161q-3 0 -5 1q-9 4 -5 14q5 10 13 32q3 9 6 15q2 5 6.5 15t6.5 15q18 34 22 54q6 22 4.5 38.5t-17.5 30.5q-16 12 -35 7q-15 -4 -20 -11q-2 -10 -12 -8q-11 0 -9 12q2 11 14 18.5t22 9.5q31 7 54 -12q21 -19 24 -43.5t-4 -46.5
q-5 -24 -23 -59q-2 -3 -5 -9t-5 -10.5t-4 -8.5l-5 -15q-8 -17 -13 -33q-3 -6 -10 -6zM247 376q-2 0 -6.5 0.5t-7.5 0.5q-75 2 -133 22q-11 4 -7 13q3 10 14 7q57 -20 127 -21q97 -3 159 26q8 5 14 -5q4 -10 -5 -14q-61 -29 -155 -29zM71 163q-8 0 -10 8q-6 20 -16 50.5
t-13 41.5q-34 110 -32 125q2 8 6 12q9 8 29 0q15 -6 29.5 -7.5t21.5 0.5l8 2q11 4 13 -7q4 -9 -6 -13q-3 -1 -11 -3t-26.5 -1t-36.5 9l-6 2q1 -18 32 -112q4 -13 13 -44t15 -49q3 -11 -7 -14h-3z"/>
</svg>