<svg xmlns="http://www.w3.org/2000/svg" viewBox="0 0 512 512">
    <defs><style>.color1{fill:#000000;}</style></defs>
    <title>electronics-69</title>
    <path class="color1" transform="scale(1, -1) translate(0, -512)" d="M443 0h-374q-10 0 -10 11v490q0 11 10 11h374q10 0 10 -11v-490q0 -11 -10 -11zM80 21h352v470h-352v-470zM256 78q-44 0 -75.5 31.5t-31.5 75.5t31.5 75.5t75.5 31.5t75.5 -31.5t31.5 -75.5t-31.5 -75.5t-75.5 -31.5zM256 270q-35 0 -60 -25t-25 -60t25 -60t60 -25
t60 25t25 60t-25 60t-60 25zM176 418h-62q-11 0 -11 10q0 11 11 11h62q11 0 11 -11q0 -10 -11 -10zM319 425q0 -10 -10 -10t-10 10q0 11 10 11t10 -11zM391 425q0 -10 -11 -10q-10 0 -10 10q0 11 10 11q11 0 11 -11z"/>
</svg>