<svg xmlns="http://www.w3.org/2000/svg" viewBox="0 0 512 512">
    <defs><style>.color1{fill:#000000;}</style></defs>
    <title>electronics-96</title>
    <path class="color1" transform="scale(1, -1) translate(0, -512)" d="M501 82h-490q-11 0 -11 11v190q0 10 11 10h490q11 0 11 -10v-190q0 -11 -11 -11zM21 103h470v169h-470v-169zM430 190h-348q-10 0 -10 11t10 11h348q10 0 10 -11t-10 -11zM430 132h-58q-10 0 -10 10q0 11 10 11h58q10 0 10 -11q0 -10 -10 -10zM106 129h-17q-11 0 -11 11
q0 10 11 10h17q10 0 10 -10q0 -11 -10 -11zM501 272h-490q-7 0 -10 6q-3 5 1 11l107 137q3 4 8 4h278q5 0 8 -4l107 -137q4 -6 1 -11q-3 -6 -10 -6zM33 293h446l-90 116h-266z"/>
</svg>