<svg xmlns="http://www.w3.org/2000/svg" viewBox="0 0 512 512">
    <defs><style>.color1{fill:#000000;}</style></defs>
    <title>travel-10</title>
    <path class="color1" transform="scale(1, -1) translate(0, -512)" d="M266 194h-232q-11 0 -11 11v224q0 11 11 11h232q10 0 10 -11v-224q0 -11 -10 -11zM45 216h210v203h-210v-203zM474 137h-49q-11 0 -11 10q0 11 11 11h39v111l-72 108h-81v-219h36q10 0 10 -11q0 -10 -10 -10h-47q-10 0 -10 10v241q0 10 10 10h98q5 0 9 -4l76 -116
q2 -4 2 -6v-125q0 -10 -11 -10zM464 251h-156q-11 0 -11 10q0 11 11 11h156q11 0 11 -11q0 -10 -11 -10zM501 137h-76q-11 0 -11 10q0 11 11 11h76q11 0 11 -11q0 -10 -11 -10zM347 137h-156q-10 0 -10 10q0 11 10 11h156q10 0 10 -11q0 -10 -10 -10zM119 137h-108
q-11 0 -11 10q0 11 11 11h108q10 0 10 -11q0 -10 -10 -10zM156 72q-21 0 -36.5 16t-15.5 38t15.5 37.5t36.5 15.5q22 0 37 -15.5t15 -37.5q0 -23 -15 -38.5t-37 -15.5zM156 158q-13 0 -21.5 -9t-8.5 -23t8.5 -23.5t21.5 -9.5t22 9.5t9 23.5q0 13 -9 22.5t-22 9.5zM387 72
q-21 0 -36 16t-15 38t15 37.5t36 15.5q22 0 37 -15.5t15 -37.5q0 -23 -15 -38.5t-37 -15.5zM387 158q-12 0 -21 -9.5t-9 -22.5t9 -23t21 -10q13 0 22 9.5t9 23.5q0 13 -9 22.5t-22 9.5z"/>
</svg>