<svg xmlns="http://www.w3.org/2000/svg" viewBox="0 0 512 512">
    <defs><style>.color1{fill:#000000;}</style></defs>
    <title>travel-115</title>
    <path class="color1" transform="scale(1, -1) translate(0, -512)" d="M453 173l-13 13l-65 -27l-4 4q-46 44 -54 36q-9 -9 35 -54l5 -5l-28 -66l13 -13l40 56q20 -18 30 -26l-8 -30l9 -8l17 26q6 -3 7 -2q2 2 -2 8l27 17l-9 9l-29 -9q-7 10 -26 31zM55 193q-8 0 -10 7l-42 120q-8 22 2 43t32 28l335 118q22 8 42 -3q21 -9 29 -32l60 -174
q5 -15 2 -29q-2 -11 -12 -9q-11 4 -9 13q2 10 -1 18l-61 174q-5 14 -17 20q-13 7 -26 2l-335 -118q-13 -4 -19.5 -17t-1.5 -27l42 -120q4 -9 -7 -13q-1 -1 -3 -1zM456 0h-354q-23 0 -39.5 16.5t-16.5 39.5v185q0 23 16.5 39.5t39.5 16.5h354q27 0 43 -21q13 -16 13 -35v-185
q0 -23 -16.5 -39.5t-39.5 -16.5zM102 275q-14 0 -24 -10t-10 -24v-185q0 -14 10 -24.5t24 -10.5h354q14 0 24.5 10.5t10.5 24.5v185q0 11 -8 22q-11 12 -27 12h-354zM279 226h-162q-10 0 -10 11q0 10 10 10h162q11 0 11 -10q0 -11 -11 -11zM279 164h-162q-10 0 -10 11
q0 10 10 10h162q11 0 11 -10q0 -11 -11 -11zM279 102h-162q-10 0 -10 11q0 10 10 10h162q11 0 11 -10q0 -11 -11 -11z"/>
</svg>