<svg xmlns="http://www.w3.org/2000/svg" viewBox="0 0 512 512">
    <defs><style>.color1{fill:#000000;}</style></defs>
    <title>travel-134</title>
    <path class="color1" transform="scale(1, -1) translate(0, -512)" d="M357 0h-202q-24 0 -41 17t-17 41v396q0 24 17 41t41 17h202q24 0 41 -17t17 -41v-396q0 -24 -17 -41t-41 -17zM155 491q-15 0 -25.5 -11t-10.5 -26v-396q0 -15 10.5 -26t25.5 -11h202q15 0 25.5 11t10.5 26v396q0 15 -10.5 26t-25.5 11h-202zM353 105h-194q-11 0 -11 11
v307q0 11 11 11h194q11 0 11 -11v-307q0 -11 -11 -11zM169 127h174v286h-174v-286zM267 53h-22q-11 0 -11 11q0 10 11 10h22q11 0 11 -10q0 -11 -11 -11zM282 232q-11 0 -11 10q0 15 -15 15t-15 -15q0 -10 -11 -10t-11 10q0 15 11 26t26 11t26 -11t11 -26q0 -10 -11 -10z
M262 240q0 -6 -6 -6t-6 6t6 6t6 -6zM322 225q-11 0 -11 10q0 23 -16 39.5t-39 16.5t-39 -16.5t-16 -39.5q0 -10 -11 -10t-11 10q0 32 22.5 54.5t54.5 22.5t54.5 -22.5t22.5 -54.5q0 -10 -11 -10z"/>
</svg>