<svg xmlns="http://www.w3.org/2000/svg" viewBox="0 0 512 512">
    <defs><style>.color1{fill:#000000;}</style></defs>
    <title>travel-135</title>
    <path class="color1" transform="scale(1, -1) translate(0, -512)" d="M342 98l-175 2q-5 0 -8 3t-3 8l3 174q0 9 11 11l175 -3q11 0 11 -11l-3 -174q0 -10 -11 -10zM178 121l154 -2l2 153l-154 2zM256 130q-28 0 -47.5 19.5t-19.5 47.5q0 27 19.5 46.5t47.5 19.5t47.5 -19.5t19.5 -46.5q0 -28 -19.5 -47.5t-47.5 -19.5zM256 242
q-19 0 -32 -13t-13 -32t13 -32.5t32 -13.5t32 13.5t13 32.5t-13 32t-32 13zM318 0l-136 2q-11 0 -11 10l2 99q0 4 3 7t8 3l136 -2q11 0 11 -11l-2 -98q0 -4 -3 -7t-8 -3zM193 23l115 -2l1 77l-115 2zM188 281q-11 0 -11 11l1 63q0 4 3.5 7.5t7.5 3.5h12l14 60q2 8 11 8h12
l12 70q2 10 12 8q11 -2 9 -12l-13 -79q-2 -10 -11 -8h-13l-14 -61q-2 -8 -11 -8h-10v-53q-2 -10 -11 -10zM327 279q-11 0 -11 11l1 53h-10q-8 0 -10 8l-12 61h-13q-9 0 -11 9l-11 79q-2 12 9 12q10 2 12 -9l10 -70h13q8 0 10 -8l12 -61h12q5 0 8 -3t3 -8l-1 -64
q0 -10 -11 -10z"/>
</svg>