<svg xmlns="http://www.w3.org/2000/svg" viewBox="0 0 512 512">
    <defs><style>.color1{fill:#000000;}</style></defs>
    <title>travel-137</title>
    <path class="color1" transform="scale(1, -1) translate(0, -512)" d="M273 178h-234h-3q-20 6 -24 23q-6 17 14 57q53 64 127 64q48 0 88 -24.5t52 -54.5q13 -34 3 -52q-9 -13 -23 -13zM41 199h231q3 0 6 4q5 9 -4 32q-10 25 -45.5 45.5t-75.5 20.5q-64 0 -109 -56q-17 -21 -12 -38q2 -5 9 -8zM263 52h-215q-16 0 -26.5 14t-10.5 34v4
q0 11 11 11h267q10 0 10 -11v-4q0 -20 -10.5 -34t-25.5 -14zM33 94q3 -20 15 -20h215q12 0 15 20h-245zM158 122q-19 0 -36 13q-12 11 -23 11h-7l-3 -3q-1 -2 -5 -6q-37 -28 -71 13q-7 7 1 15q10 6 15 -2q21 -24 42 -9l3 3l6 6q7 5 19 5q18 -1 37 -16q14 -10 23 -9
q5 0 19 10q8 6 12 8q19 10 35 -2l6 -6q1 -1 3.5 -3t4.5 -3.5t4 -2.5q11 -6 19 6l4 4q11 13 23 13q4 1 7.5 -2.5t3.5 -7.5q0 -11 -10 -11q-3 0 -8 -6q-1 -1 -2.5 -3t-2.5 -3q-22 -20 -43 -9q-5 3 -17 12q-4 4 -6 5q-5 3 -10 0q-3 -1 -11 -7q-20 -13 -30 -13h-2zM447 53h-116
q-9 0 -11 9l-26 281q-2 5 2 8q3 4 8 4h170q4 0 7 -4q3 -3 3 -8l-26 -281q-2 -9 -11 -9zM340 74h97l25 259h-146zM385 333q-11 2 -11 11q0 35 10 63t18 38t11 12q8 8 15 -1q8 -8 -1 -15q-31 -30 -32 -97q0 -11 -10 -11zM501 333h-225q-10 0 -10 11t10 11h225q11 0 11 -11
t-11 -11zM99 234q0 -9 -9 -9t-9 9t9 9t9 -9zM223 234q0 9 -9 9t-9 -9t9 -9t9 9zM167 269q0 11 -12 11q-11 0 -11 -11t11 -11q12 0 12 11z"/>
</svg>