<svg xmlns="http://www.w3.org/2000/svg" viewBox="0 0 512 512">
    <defs><style>.color1{fill:#000000;}</style></defs>
    <title>travel-141</title>
    <path class="color1" transform="scale(1, -1) translate(0, -512)" d="M177 156q0 -13 -10 -22.5t-24 -9.5q-13 0 -23 9.5t-10 22.5t9.5 22.5t23.5 9.5t24 -9.5t10 -22.5zM402 156q0 13 -9.5 22.5t-23.5 9.5t-24 -9.5t-10 -22.5t10 -22.5t24 -9.5q13 0 23 9.5t10 22.5zM288 146h-64q-10 0 -10 10q0 11 10 11h64q10 0 10 -11q0 -10 -10 -10z
M11 286q-11 0 -11 11v62q0 11 11 11q10 0 10 -11v-62q0 -11 -10 -11zM501 286q-10 0 -10 11v62q0 11 10 11q11 0 11 -11v-62q0 -11 -11 -11zM118 0q-10 0 -10 11v38q0 11 10 11q11 0 11 -11v-38q0 -11 -11 -11zM394 0q-11 0 -11 11v38q0 11 11 11q10 0 10 -11v-38
q0 -11 -10 -11zM368 59h-224q-41 0 -70.5 34.5t-29.5 83.5v108q0 94 55.5 160.5t134.5 66.5h44q79 0 135 -67q55 -66 55 -160v-108q0 -49 -29.5 -83.5t-70.5 -34.5zM234 491q-70 0 -119.5 -60.5t-49.5 -145.5v-108q0 -40 23.5 -68.5t55.5 -28.5h224q32 0 55.5 28.5
t23.5 68.5v108q0 85 -50 146q-51 60 -119 60h-44zM453 242h-392q-11 0 -11 11t11 11h392q10 0 10 -11t-10 -11z"/>
</svg>