<svg xmlns="http://www.w3.org/2000/svg" viewBox="0 0 512 512">
    <defs><style>.color1{fill:#000000;}</style></defs>
    <title>travel-2</title>
    <path class="color1" transform="scale(1, -1) translate(0, -512)" d="M356 0q-11 0 -11 11q0 32 -26 55t-63 23t-63 -23t-26 -55q0 -11 -11 -11q-10 0 -10 11q0 41 32 70t78 29t78 -29t32 -70q0 -11 -10 -11zM153 0h-95q-7 0 -10 6q-3 4 1 10l105 166q-12 62 9 94q14 22 41 28l24 199q0 9 10 9h18q11 0 11 -11q0 -10 -11 -10h-8l-23 -197
q-1 -7 -9 -9q-24 -3 -36 -21q-18 -31 -4 -81q1 -3 -1 -9l-98 -153h76q11 0 11 -10q0 -11 -11 -11zM454 0h-95q-11 0 -11 11q0 10 11 10h76l-98 153q-2 6 -1 9q15 51 -5 81q-11 18 -35 21q-8 2 -9 9l-23 197h-8q-11 0 -11 10q0 11 11 11h18q10 0 10 -9l24 -199q27 -6 41 -28
q21 -32 9 -94l105 -166q4 -6 1 -10q-3 -6 -10 -6zM256 136q-2 0 -6 2q-9 6 -3 14l30 48l-29 34q-7 7 1 15q7 7 15 -1l35 -40q5 -6 1 -13l-35 -54q-3 -5 -9 -5zM256 136q-6 0 -9 5l-35 54q-3 7 1 13l35 40q8 8 15 1q8 -8 1 -15l-29 -34l30 -48q6 -8 -3 -14q-4 -2 -6 -2z"/>
</svg>