<svg xmlns="http://www.w3.org/2000/svg" viewBox="0 0 512 512">
    <defs><style>.color1{fill:#000000;}</style></defs>
    <title>travel-24</title>
    <path class="color1" transform="scale(1, -1) translate(0, -512)" d="M207 181q-74 0 -126.5 58.5t-52.5 140.5q0 14 1 21q0 9 11 9h334q10 0 10 -9q1 -7 1 -21q0 -82 -52.5 -140.5t-125.5 -58.5zM50 389q-1 -3 -1 -9q0 -73 46.5 -125t111.5 -52t111 52t46 125v9h-314zM207 0q-11 0 -11 11v172q0 11 11 11q10 0 10 -11v-172q0 -11 -10 -11z
M287 0h-161q-10 0 -10 11q0 10 10 10h161q11 0 11 -10q0 -11 -11 -11zM257 299q-13 0 -22 4q-2 1 -4.5 2.5t-5.5 2.5t-4 2q-17 10 -31 13q-17 4 -47 -4l-4 -2q-38 -9 -52 -9q-19 2 -31 10q-2 2 -6 4q-4 4 -6 4q-10 3 -8 13t13 8q7 -1 14 -8l2 -2t2 -1q9 -6 21 -6q12 -1 45 8
l4 1q33 9 57 5q10 -2 37 -15q8 -4 13 -6q14 -7 41 4q19 7 27 8q35 5 55 -13q9 -6 2 -15q-6 -8 -15 -1q-15 11 -39 8q-18 -5 -23 -7q-22 -8 -35 -8zM192 323q-5 0 -8 4l-153 167q-8 8 1 15q8 7 15 0l153 -168q7 -7 -1 -15q-3 -3 -7 -3zM375 293q-11 0 -11 11t11 11
q36 0 62 25.5t26 62.5q0 36 -26 62t-62 26q-37 0 -62.5 -26t-25.5 -62q0 -11 -11 -11t-11 11q0 45 32 77t78 32q45 0 77 -32t32 -77q0 -46 -32 -78t-77 -32zM375 394q-11 0 -11 10v92q0 11 11 11q10 0 10 -11v-92q0 -10 -10 -10zM467 394h-89q-11 0 -11 10q0 11 11 11h89
q11 0 11 -11q0 -10 -11 -10zM445 330q-4 0 -7 3l-136 126q-9 7 -1 15q7 7 15 1l136 -126q9 -7 1 -15q-4 -4 -8 -4zM378 397q-5 0 -8 3q-8 8 0 15l64 59q8 8 15 0q8 -8 -1 -15l-63 -59q-3 -3 -7 -3z"/>
</svg>