<svg xmlns="http://www.w3.org/2000/svg" viewBox="0 0 512 512">
    <defs><style>.color1{fill:#000000;}</style></defs>
    <title>travel-33</title>
    <path class="color1" transform="scale(1, -1) translate(0, -512)" d="M173 161q0 -15 -10 -25.5t-24 -10.5q-15 0 -25 10.5t-10 25.5q0 16 10 26.5t25 10.5q14 0 24 -10.5t10 -26.5zM408 161q0 -15 -10 -25.5t-25 -10.5q-14 0 -24 10.5t-10 25.5q0 16 10 26.5t24 10.5q15 0 25 -10.5t10 -26.5zM289 151h-66q-11 0 -11 10q0 11 11 11h66
q11 0 11 -11q0 -10 -11 -10zM113 0q-11 0 -11 11v44q0 10 11 10q10 0 10 -10v-44q0 -11 -10 -11zM399 0q-10 0 -10 11v44q0 10 10 10q11 0 11 -10v-44q0 -11 -11 -11zM400 56h-288q-26 0 -45 22.5t-19 53.5v304q0 31 19 53.5t45 22.5h288q26 0 45 -22.5t19 -53.5v-304
q0 -31 -19 -53.5t-45 -22.5zM112 491q-17 0 -29.5 -16t-12.5 -39v-304q0 -23 12.5 -39t29.5 -16h288q18 0 30 16t12 39v304q0 23 -12 39t-30 16h-288zM443 245h-374q-11 0 -11 10q0 11 11 11h374q11 0 11 -11q0 -10 -11 -10zM256 245q-11 0 -11 10v246q0 11 11 11t11 -11
v-246q0 -10 -11 -10zM11 314q-11 0 -11 11v108q0 11 11 11q10 0 10 -11v-108q0 -11 -10 -11zM501 314q-10 0 -10 11v108q0 11 10 11q11 0 11 -11v-108q0 -11 -11 -11z"/>
</svg>