<svg xmlns="http://www.w3.org/2000/svg" viewBox="0 0 512 512">
    <defs><style>.color1{fill:#000000;}</style></defs>
    <title>travel-39</title>
    <path class="color1" transform="scale(1, -1) translate(0, -512)" d="M256 398q-23 0 -40 16.5t-17 40.5q0 23 17 40t40 17q24 0 40.5 -17t16.5 -40q0 -24 -16.5 -40.5t-40.5 -16.5zM256 491q-15 0 -25.5 -10.5t-10.5 -25.5t10.5 -25.5t25.5 -10.5t25.5 10.5t10.5 25.5t-10.5 25.5t-25.5 10.5zM354 237q-11 0 -11 11q0 49 -25.5 83t-61.5 34
t-61.5 -34t-25.5 -83q0 -11 -11 -11q-10 0 -10 11q0 57 31.5 97.5t76.5 40.5t76.5 -40.5t31.5 -97.5q0 -11 -10 -11zM474 237h-436q-11 0 -11 11t11 11h436q11 0 11 -11t-11 -11zM398 0h-284q-10 0 -10 11v237q0 11 10 11h284q10 0 10 -11v-237q0 -11 -10 -11zM125 21h262
v216h-262v-216zM104 243q-9 0 -11 10q0 74 52 106q10 6 15 -3q6 -9 -4 -15q-20 -13 -30 -34.5t-11 -35t0 -17.5q0 -11 -10 -11h-1zM251 42q-35 0 -59.5 25t-24.5 59t24.5 59t59.5 25t59.5 -24.5t24.5 -59.5t-24.5 -59.5t-59.5 -24.5zM251 189q-26 0 -44 -18.5t-18 -44.5
t18 -44.5t44 -18.5t44.5 18.5t18.5 44.5t-18.5 44.5t-44.5 18.5zM251 42q-19 0 -31.5 24t-12.5 60t12.5 60t31.5 24t31.5 -24t12.5 -60t-12.5 -60t-31.5 -24zM251 189q-8 0 -15.5 -18.5t-7.5 -44.5t7.5 -44.5t15.5 -18.5t15.5 18.5t7.5 44.5t-7.5 44.5t-15.5 18.5zM322 115
h-142q-10 0 -10 11t10 11h142q11 0 11 -11t-11 -11z"/>
</svg>