<svg xmlns="http://www.w3.org/2000/svg" viewBox="0 0 512 512">
    <defs><style>.color1{fill:#000000;}</style></defs>
    <title>travel-4</title>
    <path class="color1" transform="scale(1, -1) translate(0, -512)" d="M353 0h-294q-9 0 -11 10l-48 490q0 5 3 8q3 4 8 4h390q5 0 8 -4q3 -3 3 -8l-48 -490q-2 -10 -11 -10zM68 21h276l45 470h-367zM393 202q-10 0 -14 1q-10 2 -10 12q2 11 12 9q38 -5 69 19q35 29 40 74q5 44 -20.5 78.5t-65.5 39.5q-9 2 -9 12q2 11 12 9q49 -6 79.5 -47.5
t24.5 -93.5q-6 -56 -48 -88q-31 -25 -70 -25zM166 373q-11 0 -11 11v117q0 11 11 11q10 0 10 -11v-117q0 -11 -10 -11zM231 175h-130q-11 0 -11 11v169q0 6 6 10l66 29q5 2 8 0l65 -29q6 -3 6 -10v-169q0 -11 -10 -11zM111 196h109v152l-54 24l-55 -24v-152z"/>
</svg>