<svg xmlns="http://www.w3.org/2000/svg" viewBox="0 0 512 512">
    <defs><style>.color1{fill:#000000;}</style></defs>
    <title>travel-69</title>
    <path class="color1" transform="scale(1, -1) translate(0, -512)" d="M131 0q-23 0 -37 13q-16 15 -16 44v214q0 4 3 7t7 3q11 0 28 1.5t54.5 13t58.5 31.5q26 24 26 64q0 11 10 11q11 0 11 -11q0 -48 -32 -80q-49 -48 -145 -51v-203q0 -19 10 -28q4 -4 10 -6t10 -2h4h94q11 0 18 7.5t8.5 13.5t1.5 9q0 11 11 9q5 0 8 -3.5t2 -7.5
q-1 -17 -13.5 -33t-35.5 -16h-92h-4zM266 214q-11 0 -11 11v189q0 32 -22.5 54.5t-54.5 22.5t-54.5 -22.5t-22.5 -54.5q0 -11 -10 -11q-11 0 -11 11q0 40 29 69t69 29t69 -29t29 -69v-189q0 -11 -10 -11zM320 23q-47 0 -80.5 33.5t-33.5 80.5t33.5 80.5t80.5 33.5
t80.5 -33.5t33.5 -80.5t-33.5 -80.5t-80.5 -33.5zM320 230q-38 0 -65 -27.5t-27 -65.5t27 -65.5t65 -27.5t65.5 27.5t27.5 65.5t-27.5 65.5t-65.5 27.5zM375 126h-110q-10 0 -10 11t10 11h110q11 0 11 -11t-11 -11z"/>
</svg>