<svg xmlns="http://www.w3.org/2000/svg" viewBox="0 0 512 512">
    <defs><style>.color1{fill:#000000;}</style></defs>
    <title>travel-79</title>
    <path class="color1" transform="scale(1, -1) translate(0, -512)" d="M440 81q-30 0 -51 21.5t-21 50.5q0 30 21 51t51 21t51 -21t21 -51q0 -29 -21 -50.5t-51 -21.5zM440 204q-21 0 -36 -15t-15 -36t15 -35.5t36 -14.5t36 14.5t15 35.5t-15 36t-36 15zM72 81q-30 0 -51 21.5t-21 50.5q0 30 21 51t51 21t51 -21t21 -51t-21 -51t-51 -21z
M72 204q-21 0 -36 -15t-15 -36t15 -35.5t36 -14.5t36 14.5t15 35.5t-15 36t-36 15zM313 116h-117q-11 0 -11 10q-2 38 -21 71t-44 52t-51.5 32.5t-42.5 19t-18 5.5q-8 2 -8 10t7 11q93 23 130 2q27 -14 70 -8t56 21q18 21 62 24.5t75 -16.5q8 -6 3 -15q-6 -10 -15 -3
q-26 15 -61.5 13t-46.5 -16q-18 -22 -69.5 -28.5t-84.5 10.5q-22 12 -77 4q144 -61 156 -178h99q23 96 77 134q37 27 84 24q-8 21 -20 41t-39 43.5t-59 30.5q-10 2 -8 12q2 11 13 9q29 -7 54.5 -24t40 -36t25.5 -39.5t14.5 -31.5t4.5 -15q2 -6 -2 -10t-10 -4q-49 9 -85 -17
q-25 -18 -42.5 -51t-22.5 -53t-5 -25q-2 -9 -11 -9z"/>
</svg>