<svg xmlns="http://www.w3.org/2000/svg" viewBox="0 0 512 512">
    <defs><style>.color1{fill:#000000;}</style></defs>
    <title>travel-94</title>
    <path class="color1" transform="scale(1, -1) translate(0, -512)" d="M474 158h-8q-11 0 -11 11t11 11h8q7 0 12 4.5t5 11.5v110q0 7 -5 12t-12 5h-82q-17 0 -17 -17v-110q0 -7 4.5 -11.5t10.5 -4.5q10 0 10 -11t-10 -11q-15 0 -25.5 11t-10.5 27v110q0 16 11 27t27 11h82q16 0 27 -11t11 -27v-110q0 -16 -11 -27t-27 -11zM337 158h-118
q-11 0 -11 11t11 11h118q7 0 12 4.5t5 11.5v158q0 7 -5 11.5t-12 4.5h-299q-7 0 -12 -4.5t-5 -11.5v-158q0 -7 5 -11.5t12 -4.5h19q11 0 11 -11t-11 -11h-19q-16 0 -27 11t-11 27v158q0 16 11 27t27 11h299q16 0 27 -11t11 -27v-158q0 -16 -11 -27t-27 -11zM428 120
q-20 0 -34.5 14.5t-14.5 34.5t14.5 34.5t34.5 14.5t34 -14.5t14 -34.5t-14 -34.5t-34 -14.5zM428 196q-11 0 -19.5 -8t-8.5 -19t8.5 -19t19.5 -8t19 8t8 19t-8 19t-19 8zM96 120q-20 0 -34 14.5t-14 34.5t14 34.5t34 14.5t34.5 -14.5t14.5 -34.5t-14.5 -34.5t-34.5 -14.5z
M96 196q-11 0 -19 -8t-8 -19t8 -19t19 -8t19 8t8 19t-8 19t-19 8zM181 120q-20 0 -34.5 14.5t-14.5 34.5t14.5 34.5t34.5 14.5t34 -14.5t14 -34.5t-14 -34.5t-34 -14.5zM181 196q-11 0 -19.5 -8t-8.5 -19t8.5 -19t19.5 -8t19 8t8 19t-8 19t-19 8zM496 242h-83q-11 0 -11 11
v81q0 10 11 10t11 -10v-70h72q11 0 11 -11t-11 -11z"/>
</svg>