<svg xmlns="http://www.w3.org/2000/svg" viewBox="0 0 512 512">
    <defs><style>.color1{fill:#000000;}</style></defs>
    <title>music-101</title>
    <path class="color1" transform="scale(1, -1) translate(0, -512)" d="M363 0q-4 0 -7 3q-8 7 0 15l27 24q52 46 64 77q13 35 6.5 76t-29.5 67q-52 58 -68 114.5t-3 93.5q11 36 39 41q27 6 54 -24q8 -8 -1 -15q-7 -7 -15 1q-17 20 -34 17q-15 -3 -23 -26q-11 -33 4 -83.5t63 -104.5q27 -30 34.5 -77t-7.5 -88q-7 -17 -20 -34t-22 -25.5
t-29 -25.5q-18 -16 -25 -23q-3 -3 -8 -3zM149 0q-5 0 -8 3q-11 11 -26 23l-5 5q-49 43 -63 75q-1 2 -2 5q-15 41 -7.5 88t34.5 77q48 54 63 104.5t4 83.5q-8 23 -23 26q-17 3 -34 -17q-8 -8 -15 -1q-9 7 -1 15q27 30 54 24q28 -5 39 -41q13 -37 -3 -93.5t-68 -114.5
q-23 -26 -29.5 -67t6.5 -76q12 -31 64 -77q3 -3 8.5 -7.5t10 -8.5t8.5 -8q8 -8 0 -15q-3 -3 -7 -3zM365 0h-215q-11 0 -11 11q0 10 11 10h215q10 0 10 -10q0 -11 -10 -11zM359 391h-206q-11 0 -11 11q0 10 11 10h206q11 0 11 -10q0 -11 -11 -11zM304 7q-11 0 -11 10v376
q0 11 11 11q10 0 10 -11v-376q0 -10 -10 -10zM253 7q-11 0 -11 10v376q0 11 11 11q10 0 10 -11v-376q0 -10 -10 -10zM201 7q-10 0 -10 10v376q0 11 10 11q11 0 11 -11v-376q0 -10 -11 -10z"/>
</svg>