<svg xmlns="http://www.w3.org/2000/svg" viewBox="0 0 512 512">
    <defs><style>.color1{fill:#000000;}</style></defs>
    <title>music-50</title>
    <path class="color1" transform="scale(1, -1) translate(0, -512)" d="M11 0q-11 0 -11 11v240q0 10 11 10q10 0 10 -10v-240q0 -11 -10 -11zM81 0q-11 0 -11 11v266q0 10 11 10q10 0 10 -10v-266q0 -11 -10 -11zM151 0q-11 0 -11 11v294q0 11 11 11t11 -11v-294q0 -11 -11 -11zM221 0q-11 0 -11 11v326q0 10 11 10t11 -10v-326q0 -11 -11 -11
zM291 0q-11 0 -11 11v361q0 11 11 11t11 -11v-361q0 -11 -11 -11zM361 0q-11 0 -11 11v400q0 10 11 10t11 -10v-400q0 -11 -11 -11zM431 0q-10 0 -10 11v443q0 10 10 10q11 0 11 -10v-443q0 -11 -11 -11zM501 0q-10 0 -10 11v490q0 11 10 11q11 0 11 -11v-490q0 -11 -11 -11
z"/>
</svg>