<svg xmlns="http://www.w3.org/2000/svg" viewBox="0 0 512 512">
    <defs><style>.color1{fill:#000000;}</style></defs>
    <title>music-6</title>
    <path class="color1" transform="scale(1, -1) translate(0, -512)" d="M501 0h-490q-11 0 -11 11v490q0 11 11 11h490q11 0 11 -11v-490q0 -11 -11 -11zM21 21h470v470h-470v-470z"/>
</svg>