<svg xmlns="http://www.w3.org/2000/svg" viewBox="0 0 512 512">
    <defs><style>.color1{fill:#000000;}</style></defs>
    <title>music-80</title>
    <path class="color1" transform="scale(1, -1) translate(0, -512)" d="M501 47q-4 0 -6 2l-297 199q-5 3 -5 8q0 6 5 9l297 198q6 4 11 1q6 -3 6 -9v-398q0 -6 -6 -9q-1 -1 -5 -1zM223 256l268 -179v358zM308 47q-4 0 -6 2l-297 199q-5 3 -5 8q0 6 5 9l297 198q6 4 11 1q6 -3 6 -9v-123q0 -11 -11 -11q-10 0 -10 11v103l-268 -179l268 -179
v106q0 10 10 10q11 0 11 -10v-126q0 -6 -6 -9q-1 -1 -5 -1z"/>
</svg>