<svg xmlns="http://www.w3.org/2000/svg" viewBox="0 0 512 512">
    <defs><style>.color1{fill:#000000;}</style></defs>
    <title>music-90</title>
    <path class="color1" transform="scale(1, -1) translate(0, -512)" d="M501 103h-490q-11 0 -11 11v376q0 10 11 10h490q11 0 11 -10v-376q0 -11 -11 -11zM21 124h470v355h-470v-355zM440 186h-368q-11 0 -11 11v239q0 11 11 11h368q11 0 11 -11v-239q0 -11 -11 -11zM83 208h346v217h-346v-217zM152 12q-3 0 -7 2q-8 8 -1 15q14 15 21 36t7 35
l1 13q0 11 10 11q4 1 7.5 -2t3.5 -8q0 -62 -34 -99q-3 -3 -8 -3zM360 12q-5 0 -8 3q-34 37 -34 99q0 5 3.5 8t7.5 2q10 0 10 -11q-2 -50 29 -84q7 -7 -1 -15q-4 -2 -7 -2zM270 149h-28q-11 0 -11 10q0 11 11 11h28q11 0 11 -11q0 -10 -11 -10z"/>
</svg>