<svg xmlns="http://www.w3.org/2000/svg" viewBox="0 0 512 512">
    <defs><style>.color1{fill:#000000;}</style></defs>
    <title>music-91</title>
    <path class="color1" transform="scale(1, -1) translate(0, -512)" d="M224 143q-37 0 -63 26t-26 63t26 63.5t63 26.5q38 0 64 -26t26 -64q0 -37 -26.5 -63t-63.5 -26zM224 301q-28 0 -48 -20.5t-20 -48.5t20 -48t48 -20t48 20t20 48q0 29 -20 49t-48 20zM403 96h-358q-19 0 -32 13t-13 32v183q0 19 13 32t32 13h358q19 0 32 -13t13 -32v-23
q0 -11 -10 -11q-11 0 -11 11v23q0 10 -7 17t-17 7h-358q-10 0 -17 -7t-7 -17v-183q0 -10 7 -17t17 -7h358q10 0 17 7t7 17v99q0 10 11 10q10 0 10 -10v-99q0 -19 -13 -32t-32 -13zM501 229h-103q-11 0 -11 10v62q0 11 11 11h103q11 0 11 -11v-62q0 -10 -11 -10zM409 250h82
v40h-82v-40zM106 395h-43q-11 0 -11 11q0 10 11 10h43q10 0 10 -10q0 -11 -10 -11z"/>
</svg>