<svg xmlns="http://www.w3.org/2000/svg" viewBox="0 0 512 512">
    <defs><style>.color1{fill:#000000;}</style></defs>
    <title>music-95</title>
    <path class="color1" transform="scale(1, -1) translate(0, -512)" d="M447 240h-382q-11 0 -11 11q-2 67 37 122.5t103 75.5q29 10 62 10q66 0 119 -38.5t73 -101.5q11 -36 10 -68q0 -11 -11 -11zM75 262h362q-2 26 -9 50q-18 56 -65.5 91t-106.5 35q-28 0 -55 -9q-55 -18 -90 -64t-36 -103zM301 240h-90q-9 0 -11 10q-2 20 8.5 37t30.5 24
q10 2 17 2q41 0 54 -39q3 -13 2 -24q-2 -10 -11 -10zM221 262h70q0 2 -2 6q-7 24 -33 24q-3 0 -11 -2q-21 -6 -24 -28zM501 53h-490q-11 0 -11 11v187q0 11 11 11h490q11 0 11 -11v-187q0 -11 -11 -11zM21 74h470v166h-470v-166zM437 123q0 -16 -16 -16t-16 16q0 6 4.5 11
t11.5 5t11.5 -5t4.5 -11zM437 192q0 -16 -16 -16t-16 16t16 16t16 -16zM346 170h-271q-11 0 -11 11t11 11h271q11 0 11 -11t-11 -11z"/>
</svg>