<svg xmlns="http://www.w3.org/2000/svg" viewBox="0 0 512 512">
    <defs><style>.color1{fill:#000000;}</style></defs>
    <title>finance-102</title>
    <path class="color1" transform="scale(1, -1) translate(0, -512)" d="M371 7q-8 0 -10 7q-8 25 -12 31q-2 1 -16.5 9t-30 16.5t-27.5 15.5q-12 6 -17 19t0 27q8 23 31 23q7 0 13 -3l33 -16l-3 13v1l-24 110q-3 14 4 27t20 17q1 0 3.5 0.5t4.5 0.5q11 0 20.5 -8t11.5 -20l14 -63q7 1 15 -2q5 3 11 5q12 5 23 -3q5 3 7 3q14 4 25.5 -3.5
t14.5 -21.5l1 -1l29 -134q2 -10 -8 -13l-130 -37h-3zM289 134q-7 0 -11 -9q-5 -15 7 -20q78 -43 80 -45q7 -10 13 -29l111 31l-27 123v1q-4 14 -14 11q-1 -1 -2.5 -2t-2.5 -1q-3 -4 -8 -4q-4 0 -7 4q-5 5 -10 3q-3 -1 -6 -4q-3 -4 -7 -4q-4 -1 -9 2q-4 3 -8 2q0 -1 -2 -1
t-2 -1q-5 -3 -10 -1q-6 2 -6 7l-17 76q-2 14 -13 10q-13 -4 -9 -18l24 -111v-1l7 -33q2 -7 -4 -11t-11 -1l-52 25q-1 0 -2 0.5t-2 0.5zM394 214h-21q-11 0 -11 11q0 10 11 10h10v93h-77v-93h19q11 0 11 -10q0 -11 -11 -11h-30q-11 0 -11 11v113q0 11 11 11h99q11 0 11 -11
v-113q0 -11 -11 -11zM252 214h-99q-11 0 -11 11v113q0 11 11 11h99q11 0 11 -11v-113q0 -11 -11 -11zM163 235h78v93h-78v-93zM110 214h-99q-11 0 -11 11v113q0 11 11 11h99q10 0 10 -11v-113q0 -11 -10 -11zM21 235h78v93h-78v-93zM252 47h-99q-11 0 -11 11v114q0 10 11 10
h99q11 0 11 -10v-114q0 -11 -11 -11zM163 69h78v92h-78v-92zM110 47h-99q-11 0 -11 11v114q0 10 11 10h99q10 0 10 -10v-114q0 -11 -10 -11zM21 69h78v92h-78v-92zM394 377h-99q-11 0 -11 11v113q0 11 11 11h99q11 0 11 -11v-113q0 -11 -11 -11zM306 398h77v93h-77v-93z
M252 377h-99q-11 0 -11 11v113q0 11 11 11h99q11 0 11 -11v-113q0 -11 -11 -11zM163 398h78v93h-78v-93zM110 377h-99q-11 0 -11 11v113q0 11 11 11h99q10 0 10 -11v-113q0 -11 -10 -11zM21 398h78v93h-78v-93zM332 0h-321q-11 0 -11 11q0 10 11 10h321q11 0 11 -10
q0 -11 -11 -11zM443 232q-11 0 -11 11v258q0 11 11 11q10 0 10 -11v-258q0 -11 -10 -11z"/>
</svg>