<svg xmlns="http://www.w3.org/2000/svg" viewBox="0 0 512 512">
    <defs><style>.color1{fill:#000000;}</style></defs>
    <title>finance-135</title>
    <path class="color1" transform="scale(1, -1) translate(0, -512)" d="M178 193q-56 0 -96 40t-40 96t40 96t96 40t96 -40t40 -96t-38 -94q-40 -42 -98 -42zM178 444q-47 0 -81 -34t-34 -81t34 -81t81 -34q49 0 83 36q32 32 32 79t-33.5 81t-81.5 34zM178 151q-74 0 -126 52.5t-52 125.5t52 125.5t126 52.5t126 -52.5t52 -125.5
q0 -72 -49 -123q-52 -55 -129 -55zM178 486q-65 0 -111 -46t-46 -111t46.5 -111t110.5 -46v-10v10q67 0 113 48q44 47 44 109q0 65 -46 111t-111 46zM471 5q-15 0 -28 11l-148 145q-12 12 -12 29q0 16 11 29q11 11 28.5 11.5t29.5 -11.5l148 -145q12 -11 12 -28t-12 -29
q-10 -12 -29 -12zM323 210q-9 0 -13 -6q-6 -6 -6 -14t6 -13l148 -145q5 -6 13.5 -6t13.5 6q14 13 0 27l-148 145q-6 6 -14 6z"/>
</svg>