<svg xmlns="http://www.w3.org/2000/svg" viewBox="0 0 512 512">
    <defs><style>.color1{fill:#000000;}</style></defs>
    <title>finance-151</title>
    <path class="color1" transform="scale(1, -1) translate(0, -512)" d="M476 70h-260v22h260q6 0 10.5 5.5t4.5 12.5v275q0 7 -4.5 12.5t-10.5 5.5h-370q-14 0 -14 -18v-172h-22v172q0 17 10.5 28.5t25.5 11.5h370q15 0 25.5 -11.5t10.5 -28.5v-275q0 -17 -10.5 -28.5t-25.5 -11.5zM99 403l-17 12q9 12 20 15l294 81q14 3 26 -4q15 -8 18 -26
l13 -66l-21 -4l-13 66q-1 7 -8 12q-4 2 -9 1l-294 -81q-4 -1 -9 -6zM501 178h-127q-11 0 -11 11v115q0 10 11 10h127q11 0 11 -10v-115q0 -11 -11 -11zM385 200h106v93h-106v-93zM454 246q0 8 -5 13.5t-11 5.5q-16 0 -16 -19q0 -18 16 -18q6 0 11 5.5t5 12.5zM118 0
q-49 0 -83.5 34t-34.5 81t34.5 81t83.5 34q48 0 84 -34q34 -32 34 -81q0 -23 -7 -41q-13 -33 -43.5 -53.5t-67.5 -20.5zM118 208q-40 0 -68.5 -27.5t-28.5 -65.5q0 -39 28.5 -66.5t68.5 -27.5q30 0 55 17t36 44q6 16 6 33q0 38 -28.5 65.5t-68.5 27.5zM161 104h-85
q-11 0 -11 11t11 11h85q10 0 10 -11t-10 -11z"/>
</svg>