<svg xmlns="http://www.w3.org/2000/svg" viewBox="0 0 512 512">
    <defs><style>.color1{fill:#000000;}</style></defs>
    <title>finance-152</title>
    <path class="color1" transform="scale(1, -1) translate(0, -512)" d="M400 354h-152q-10 0 -10 10v137q0 7 6 10t12 -2l152 -137q5 -5 2 -11q-1 -7 -10 -7zM259 375h114l-114 102v-102zM351 0h-290q-25 0 -43 17.5t-18 41.5v394q0 24 18 41.5t43 17.5h187q11 0 11 -11v-126h142q10 0 10 -11v-105h-21v95h-142q-10 0 -10 10v126h-177
q-17 0 -28.5 -10.5t-11.5 -26.5v-394q0 -16 11.5 -27t28.5 -11h290q14 0 24.5 9t13.5 22l21 -5q-5 -20 -21.5 -33.5t-37.5 -13.5zM394 40q-49 0 -83.5 33.5t-34.5 81.5q0 47 34.5 80.5t83.5 33.5t83.5 -33.5t34.5 -80.5q0 -48 -34.5 -81.5t-83.5 -33.5zM394 248
q-40 0 -68.5 -27.5t-28.5 -65.5q0 -39 28.5 -66.5t68.5 -27.5t68.5 27.5t28.5 66.5q0 38 -28.5 65.5t-68.5 27.5zM436 144h-85q-10 0 -10 11q0 10 10 10h85q11 0 11 -10q0 -11 -11 -11zM190 398h-97q-11 0 -11 11t11 11h97q11 0 11 -11t-11 -11zM190 338h-97q-11 0 -11 10
q0 11 11 11h97q11 0 11 -11q0 -10 -11 -10zM313 277h-220q-11 0 -11 10q0 11 11 11h220q11 0 11 -11q0 -10 -11 -10zM254 216h-161q-11 0 -11 10q0 11 11 11h161q11 0 11 -11q0 -10 -11 -10zM244 155h-151q-11 0 -11 11q0 10 11 10h151q11 0 11 -10q0 -11 -11 -11zM254 94
h-161q-11 0 -11 11q0 10 11 10h161q11 0 11 -10q0 -11 -11 -11z"/>
</svg>