<svg xmlns="http://www.w3.org/2000/svg" viewBox="0 0 512 512">
    <defs><style>.color1{fill:#000000;}</style></defs>
    <title>finance-176</title>
    <path class="color1" transform="scale(1, -1) translate(0, -512)" d="M443 0h-374q-10 0 -10 11v98h-48q-11 0 -11 11v88q0 10 11 10h490q11 0 11 -10v-88q0 -11 -11 -11h-48v-98q0 -11 -10 -11zM80 21h352v99q0 10 11 10h48v67h-470v-67h48q11 0 11 -10v-99zM109 234q-11 0 -11 11v89q0 10 11 10t11 -10v-89q0 -11 -11 -11zM57 277
q-4 0 -7 3q-8 8 -1 15l52 54q3 3 7 3q5 0 8 -3l52 -54q8 -7 0 -15t-15 0l-45 46l-43 -46q-3 -3 -8 -3zM256 234q-11 0 -11 11v158q0 11 11 11t11 -11v-158q0 -11 -11 -11zM308 350q-5 0 -8 3l-45 46l-43 -46q-8 -8 -15 -1q-7 9 -1 16l52 54q3 3 7 3q5 0 8 -3l52 -54
q7 -8 0 -15q-3 -3 -7 -3zM403 234q-11 0 -11 11v231q0 10 11 10t11 -10v-231q0 -11 -11 -11zM455 437q-5 0 -8 3l-45 46l-43 -46q-7 -8 -15 0q-7 7 -1 15l52 54q3 3 7 3q5 0 8 -3l52 -54q8 -7 0 -15q-3 -3 -7 -3zM256 59q-21 0 -36.5 15t-15.5 37q0 21 15.5 36t36.5 15
t36.5 -15t15.5 -36q0 -22 -15.5 -37t-36.5 -15zM256 141q-13 0 -21.5 -9t-8.5 -21q0 -13 8.5 -21.5t21.5 -8.5t21.5 8.5t8.5 21.5q0 12 -8.5 21t-21.5 9z"/>
</svg>