<svg xmlns="http://www.w3.org/2000/svg" viewBox="0 0 512 512">
    <defs><style>.color1{fill:#000000;}</style></defs>
    <title>finance-181</title>
    <path class="color1" transform="scale(1, -1) translate(0, -512)" d="M256 0q-106 0 -181 75t-75 181t75 181t181 75t181 -75t75 -181t-75 -181t-181 -75zM256 491q-97 0 -166 -69t-69 -166t69 -166t166 -69t166 69t69 166t-69 166t-166 69zM403 102h-294q-11 0 -11 11t11 11h294q11 0 11 -11t-11 -11zM124 140q-11 0 -11 11v82q0 11 11 11
q10 0 10 -11v-82q0 -11 -10 -11zM209 140q-11 0 -11 11v162q0 10 11 10t11 -10v-162q0 -11 -11 -11zM294 140q-10 0 -10 11v204q0 10 10 10q11 0 11 -10v-204q0 -11 -11 -11zM380 140q-11 0 -11 11v248q0 11 11 11t11 -11v-248q0 -11 -11 -11z"/>
</svg>