<svg xmlns="http://www.w3.org/2000/svg" viewBox="0 0 512 512">
    <defs><style>.color1{fill:#000000;}</style></defs>
    <title>finance-184</title>
    <path class="color1" transform="scale(1, -1) translate(0, -512)" d="M291 67h-70q-8 0 -10 7l-29 77q-35 19 -55.5 53.5t-20.5 74.5q0 61 44 104t106 43t106 -43t44 -104q0 -40 -20.5 -74.5t-55.5 -53.5l-29 -77q-2 -7 -10 -7zM228 89h56l27 73q1 4 5 6q32 16 50.5 46t18.5 65q0 52 -38 88.5t-91 36.5t-91 -36.5t-38 -88.5q0 -35 18.5 -65
t50.5 -46q4 -2 5 -6zM286 30h-63q-11 0 -11 11t11 11h63q11 0 11 -11t-11 -11zM286 0h-63q-11 0 -11 11q0 10 11 10h63q11 0 11 -10q0 -11 -11 -11zM256 438q-11 0 -11 10v53q0 11 11 11t11 -11v-53q0 -10 -11 -10zM125 385q-4 0 -7 3l-37 39q-7 9 1 15q8 8 15 0l36 -39
q7 -9 0 -16q-4 -2 -8 -2zM387 385q-4 0 -8 2q-7 7 0 16l36 39q7 8 15 0q8 -6 1 -15l-37 -39q-3 -3 -7 -3zM65 268h-54q-11 0 -11 11t11 11h54q11 0 11 -11t-11 -11zM501 268h-54q-11 0 -11 11t11 11h54q11 0 11 -11t-11 -11zM248 92q-9 0 -11 9l-26 188q-2 10 9 12
q10 2 12 -9l26 -188q2 -10 -9 -12h-1zM264 92h-1q-11 2 -9 12l26 188q2 11 12 9q11 -2 9 -12l-26 -188q-2 -9 -11 -9z"/>
</svg>