<svg xmlns="http://www.w3.org/2000/svg" viewBox="0 0 512 512">
    <defs><style>.color1{fill:#000000;}</style></defs>
    <title>finance-190</title>
    <path class="color1" transform="scale(1, -1) translate(0, -512)" d="M429 0h-346q-18 0 -30.5 12.5t-12.5 30.5v389q0 18 12.5 30.5t30.5 12.5h346q18 0 30.5 -12.5t12.5 -30.5v-389q0 -18 -13 -30q-12 -13 -30 -13zM83 454q-9 0 -15.5 -6.5t-6.5 -15.5v-389q0 -9 6.5 -15.5t15.5 -6.5h346q9 0 15.5 6.5t6.5 15.5v389q0 9 -6.5 15.5
t-15.5 6.5h-346zM153 412q-11 0 -11 11v78q0 11 11 11t11 -11v-78q0 -11 -11 -11zM359 412q-11 0 -11 11v78q0 11 11 11t11 -11v-78q0 -11 -11 -11zM421 48h-330v314h330v-314zM113 69h286v272h-286v-272zM357 242h-101q-11 0 -11 10q0 11 11 11h101q11 0 11 -11
q0 -10 -11 -10zM357 139h-101q-11 0 -11 11q0 10 11 10h101q11 0 11 -10q0 -11 -11 -11zM169 220l-35 35q-8 7 0 15q8 6 16 0l20 -20l63 61q7 7 15 0t0 -15zM169 110l-35 34q-6 8 0 16q8 6 16 0l20 -21l63 62q7 7 15 0q7 -8 0 -15z"/>
</svg>