<svg xmlns="http://www.w3.org/2000/svg" viewBox="0 0 512 512">
    <defs><style>.color1{fill:#000000;}</style></defs>
    <title>finance-199</title>
    <path class="color1" transform="scale(1, -1) translate(0, -512)" d="M240 75h-210q-13 0 -21.5 8.5t-8.5 20.5v235q0 12 8.5 20.5t21.5 8.5h123q12 0 21 -8.5t9 -20.5v-5q0 -7 8 -7h164q12 0 20.5 -8.5t8.5 -20.5v-21h-21v21q0 7 -8 7h-164q-12 0 -21 8.5t-9 20.5v5q0 8 -8 8h-123q-9 0 -9 -8v-235q0 -7 9 -7h210v-22zM341 316h-21v175h-255
v-133h-22v143q0 11 11 11h276q11 0 11 -11v-185zM276 435h-168q-11 0 -11 11t11 11h168q11 0 11 -11t-11 -11zM276 382h-168q-11 0 -11 11q0 10 11 10h168q11 0 11 -10q0 -11 -11 -11zM364 0q-61 0 -104.5 42t-43.5 101q0 58 43.5 100t104.5 42t104.5 -41.5t43.5 -100.5
t-43.5 -101t-104.5 -42zM364 264q-52 0 -89 -35.5t-37 -85.5t37 -86t89 -36t89.5 36t37.5 86t-37 85.5t-90 35.5zM356 47v23q-25 2 -37 11l5 15q18 -10 35 -10q29 0 29 23q0 18 -27 28q-40 14 -40 40q0 33 37 38v24h15v-23q17 0 31 -8l-6 -16q-13 8 -31 8q-25 0 -25 -20
q0 -15 30 -26q38 -15 38 -43q0 -15 -10.5 -26t-28.5 -14v-24h-15z"/>
</svg>