<svg xmlns="http://www.w3.org/2000/svg" viewBox="0 0 512 512">
    <defs><style>.color1{fill:#000000;}</style></defs>
    <title>finance-2</title>
    <path class="color1" transform="scale(1, -1) translate(0, -512)" d="M512 80h-512v234h512v-234zM21 102h470v191h-470v-191zM436 150v12q-10 0 -17 5l3 8q7 -5 16 -5q14 0 14 11q0 7 -13 14q-19 6 -19 19q0 16 17 19v11h7v-11q9 0 15 -4l-3 -7q-8 4 -14 4q-12 0 -12 -10q0 -7 14 -13q18 -7 18 -21q0 -17 -19 -20v-12h-7zM72 150v12
q-11 0 -18 5l3 8q7 -5 16 -5q14 0 14 11q0 7 -13 14q-19 6 -19 19q0 16 17 19v11h8v-11q8 0 14 -4l-2 -7q-12 4 -15 4q-12 0 -12 -10q0 -7 14 -13q18 -7 18 -21q0 -17 -18 -20v-12h-7zM258 223l-12 -6l-2 7l16 8h8v-69h-10v60zM475 333h-438q-11 0 -11 11t11 11h438
q11 0 11 -11t-11 -11zM450 374h-388q-11 0 -11 10q0 11 11 11h388q11 0 11 -11q0 -10 -11 -10zM428 410h-344q-10 0 -10 11t10 11h344q10 0 10 -11t-10 -11zM256 119q-32 0 -55 23t-23 55t23 55.5t55 23.5t55 -23.5t23 -55.5t-23 -55t-55 -23zM256 254q-23 0 -40 -16.5
t-17 -40.5q0 -23 17 -40t40 -17t40 17t17 40q0 24 -17 40.5t-40 16.5z"/>
</svg>