<svg xmlns="http://www.w3.org/2000/svg" viewBox="0 0 512 512">
    <defs><style>.color1{fill:#000000;}</style></defs>
    <title>finance-219</title>
    <path class="color1" transform="scale(1, -1) translate(0, -512)" d="M472 0h-432q-17 0 -28.5 13t-11.5 32v320q0 19 11.5 32t28.5 13h432q17 0 28.5 -13t11.5 -32v-320q0 -19 -11.5 -32t-28.5 -13zM40 389q-8 0 -13.5 -7t-5.5 -17v-320q0 -10 5.5 -17t13.5 -7h432q8 0 13.5 7t5.5 17v320q0 10 -5.5 17t-13.5 7h-432zM31 388l-18 11
q9 14 23 17l343 95q17 3 29 -5q15 -9 20 -29l15 -76l-21 -5l-15 77q-1 10 -10 15q-6 4 -12 2l-344 -94q-3 -1 -10 -8zM501 126h-148q-11 0 -11 11v134q0 10 11 10h148q11 0 11 -10v-134q0 -11 -11 -11zM363 147h128v113h-128v-113zM446 204q0 9 -5.5 15t-13.5 6t-13.5 -6
t-5.5 -15t5.5 -15.5t13.5 -6.5t13.5 6.5t5.5 15.5z"/>
</svg>