<svg xmlns="http://www.w3.org/2000/svg" viewBox="0 0 512 512">
    <defs><style>.color1{fill:#000000;}</style></defs>
    <title>finance-23</title>
    <path class="color1" transform="scale(1, -1) translate(0, -512)" d="M310 69h-299q-11 0 -11 10v257q0 10 11 10h161q4 0 6 -1l47 -33h208q11 0 11 -10v-108q0 -11 -11 -11t-11 11v97h-200q-2 0 -6 2l-47 32h-148v-235h289q10 0 10 -11q0 -10 -10 -10zM378 291q-2 0 -3 1q-11 2 -7 13l31 105l-283 78l-47 -155q-2 -11 -13 -7q-11 2 -7 13
l49 165q3 10 13 8l304 -84q4 -1 6 -5q3 -4 1 -9l-34 -115q-2 -8 -10 -8zM354 370h-3l-213 59q-10 3 -8 14q4 11 13 7l214 -59q11 -4 7 -13q-2 -8 -10 -8zM336 318q-2 0 -3 1l-213 59q-10 2 -8 13q4 11 13 7l214 -59q11 -2 7 -13q-2 -8 -10 -8zM406 0q-44 0 -75.5 30
t-31.5 73t31.5 73t75.5 30t75 -30t31 -73t-31 -73t-75 -30zM406 185q-35 0 -60.5 -24t-25.5 -58t25.5 -58t60.5 -24t60 24t25 58t-25 58t-60 24zM391 59q-4 0 -7 3l-38 33q-7 7 -1 15q7 8 16 1l29 -27l60 60q8 8 15 0t0 -15l-67 -67q-3 -3 -7 -3z"/>
</svg>