<svg xmlns="http://www.w3.org/2000/svg" viewBox="0 0 512 512">
    <defs><style>.color1{fill:#000000;}</style></defs>
    <title>finance-256</title>
    <path class="color1" transform="scale(1, -1) translate(0, -512)" d="M81 293q0 -7 -5.5 -12t-12.5 -5t-12 5t-5 12t5 12.5t12 5.5t12.5 -5.5t5.5 -12.5zM306 151h-306v285h409v-116q0 -10 -11 -10t-11 10v94h-366v-242h285q10 0 10 -10q0 -11 -10 -11zM204 181q-40 0 -68 33t-28 79t28 79t68 33t68.5 -32.5t28.5 -79.5q0 -46 -28.5 -79
t-68.5 -33zM204 384q-31 0 -53 -27t-22 -64t22 -63.5t53 -26.5q32 0 54 26.5t22 63.5q0 38 -22.5 64.5t-53.5 26.5zM372 451h-347q-11 0 -11 11t11 11h347q11 0 11 -11t-11 -11zM341 490h-286q-10 0 -10 11t10 11h286q11 0 11 -11t-11 -11zM398 0q-47 0 -80.5 34t-33.5 81
t33.5 81t80.5 34t80.5 -34t33.5 -81t-33.5 -81t-80.5 -34zM398 208q-38 0 -65.5 -27.5t-27.5 -65.5t27.5 -65.5t65.5 -27.5t65.5 27.5t27.5 65.5t-27.5 65.5t-65.5 27.5zM469 198h-21v65q0 19 -14 33t-33 14h-6q-19 0 -32.5 -14t-13.5 -33v-62h-22v62q0 28 20 48t48 20h6
q28 0 48 -20t20 -48v-65zM428 127q0 13 -9 21.5t-21 8.5t-21 -8.5t-9 -21.5q0 -21 20 -28v-42h20v42q20 7 20 28zM198 217v19q-18 0 -28 8l4 12q14 -8 27 -8q22 0 22 19q0 13 -21 22q-31 11 -31 32q0 25 28 30v19h12v-18q15 -1 24 -7l-5 -12q-12 6 -23 6q-20 0 -20 -16
q0 -11 23 -21q29 -12 29 -34q0 -26 -29 -32v-19h-12z"/>
</svg>