<svg xmlns="http://www.w3.org/2000/svg" viewBox="0 0 512 512">
    <defs><style>.color1{fill:#000000;}</style></defs>
    <title>finance-261</title>
    <path class="color1" transform="scale(1, -1) translate(0, -512)" d="M473 50h-434q-16 0 -27.5 11.5t-11.5 27.5v274q0 16 11.5 27.5t27.5 11.5h434q16 0 27.5 -11.5t11.5 -27.5v-274q0 -16 -11.5 -27.5t-27.5 -11.5zM39 380q-7 0 -12.5 -5t-5.5 -12v-274q0 -7 5.5 -12.5t12.5 -5.5h434q7 0 12.5 5.5t5.5 12.5v274q0 7 -5.5 12t-12.5 5h-434
zM433 262h-133q-10 0 -10 11q0 10 10 10h133q11 0 11 -10q0 -11 -11 -11zM433 180h-133q-10 0 -10 10q0 11 10 11h133q11 0 11 -11q0 -10 -11 -10zM151 241q-22 0 -37.5 16t-15.5 38t15.5 37.5t37.5 15.5q23 0 38 -15q15 -17 15 -38q0 -22 -15.5 -38t-37.5 -16zM151 327
q-13 0 -22.5 -9.5t-9.5 -22.5t9.5 -22.5t22.5 -9.5t22.5 9.5t9.5 22.5t-9.5 22.5t-22.5 9.5zM253 105h-204q-11 0 -11 11q0 46 33 79.5t80 33.5t80 -33.5t33 -79.5q0 -11 -11 -11zM60 127h182q-4 34 -30 57.5t-61 23.5t-61 -23.5t-30 -57.5zM256 346q-11 0 -11 10v95
q0 11 11 11t11 -11v-95q0 -10 -11 -10z"/>
</svg>