<svg xmlns="http://www.w3.org/2000/svg" viewBox="0 0 512 512">
    <defs><style>.color1{fill:#000000;}</style></defs>
    <title>finance-28</title>
    <path class="color1" transform="scale(1, -1) translate(0, -512)" d="M468 132q-5 0 -8 3l-84 90h-173q-19 0 -33 13.5t-14 33.5v193q0 19 14 33t33 14h262q19 0 33 -14t14 -33v-193q0 -16 -9.5 -28t-24.5 -17v-85q0 -7 -6 -10h-4zM203 491q-10 0 -17.5 -7.5t-7.5 -18.5v-193q0 -10 7 -17.5t18 -7.5h178q4 0 8 -4l68 -73v66q0 9 10 11
q10 1 17 8t7 17v193q0 11 -7.5 18.5t-18.5 7.5h-262zM44 0q-2 0 -4 1q-6 1 -6 10v85q-15 4 -24.5 16t-9.5 28v194q0 19 14 32.5t33 13.5h120q11 0 11 -10q0 -11 -11 -11h-120q-11 0 -18.5 -7.5t-7.5 -17.5v-194q0 -10 7 -17t17 -8q10 0 10 -10v-67l68 73q3 4 8 4h178
q11 0 18 7.5t7 17.5v96q0 11 11 11t11 -11v-96q0 -19 -13.5 -32.5t-33.5 -13.5h-173l-84 -91q-3 -3 -8 -3zM329 305v16q-15 0 -24 7l3 10q12 -6 23 -6q19 0 19 15q0 11 -18 19q-26 10 -26 27q0 22 24 25v16h10v-15q10 0 20 -5l-4 -11q-9 6 -20 6q-16 0 -16 -14q0 -9 19 -18
q25 -11 25 -29q0 -22 -25 -27v-16h-10zM334 268q-42 0 -71.5 30t-29.5 72t29.5 71.5t71.5 29.5t72 -29.5t30 -71.5t-30 -72t-72 -30zM334 450q-33 0 -56.5 -23.5t-23.5 -56.5q0 -34 23.5 -57.5t56.5 -23.5t56.5 23.5t23.5 57.5q0 33 -23.5 56.5t-56.5 23.5z"/>
</svg>