<svg xmlns="http://www.w3.org/2000/svg" viewBox="0 0 512 512">
    <defs><style>.color1{fill:#000000;}</style></defs>
    <title>finance-31</title>
    <path class="color1" transform="scale(1, -1) translate(0, -512)" d="M406 0q-8 0 -10 9q-1 3 -14 9q-40 19 -57 52q-11 19 -17.5 63t-6.5 61q-1 4 3 9q5 4 10 2q10 -2 15 -2q19 0 36 12t25 24l7 12q3 6 9 6q7 0 10 -6q3 -5 8.5 -13t23 -21.5t36.5 -13.5q5 0 15 2q5 2 9 -2q4 -3 4 -9q-10 -98 -24 -124q-19 -35 -58 -52q-13 -7 -13 -9
q-2 -9 -11 -9zM323 182q8 -80 20 -102q15 -27 48 -43q9 -4 15 -8q10 6 16 8q33 16 47 43q10 16 21 102h-6q-45 0 -78 45q-33 -49 -83 -45zM448 133h-86q-10 0 -10 11q0 10 10 10h86q10 0 10 -10q0 -11 -10 -11zM437 88h-64q-10 0 -10 11q0 10 10 10h64q10 0 10 -10
q0 -11 -10 -11zM226 60q-94 0 -160 66.5t-66 159.5q0 94 66 160t160 66q93 0 159.5 -66t66.5 -160q0 -34 -11 -69q-4 -11 -14 -7q-9 3 -7 14q10 29 10 62q0 85 -59.5 145t-144.5 60t-145 -60t-60 -145t60 -144.5t145 -59.5q50 0 93 22q10 6 14 -4q5 -10 -4 -15
q-50 -25 -103 -25zM213 134v37q-36 2 -57 16l9 25q25 -16 54 -16q19 0 31.5 10.5t12.5 26.5q0 27 -42 44q-61 24 -61 64q0 23 15.5 39.5t40.5 20.5v38h23v-36q26 -1 48 -13l-9 -25q-21 13 -47 13q-20 0 -29.5 -9.5t-9.5 -22.5q0 -14 10 -23t36 -20q57 -23 57 -68
q0 -23 -15.5 -40.5t-42.5 -22.5v-38h-24z"/>
</svg>