<svg xmlns="http://www.w3.org/2000/svg" viewBox="0 0 512 512">
    <defs><style>.color1{fill:#000000;}</style></defs>
    <title>finance-36</title>
    <path class="color1" transform="scale(1, -1) translate(0, -512)" d="M452 37h-392q-11 0 -11 11v69q0 11 11 11h81v11h-130q-11 0 -11 11v314q0 11 11 11h490q11 0 11 -11v-314q0 -11 -11 -11h-130v-11h81q11 0 11 -11v-69q0 -11 -11 -11zM70 58h372v49h-82q-10 0 -10 10v33q0 10 10 10h131v294h-470v-294h131q10 0 10 -10v-33
q0 -10 -10 -10h-82v-49zM460 181h-408q-10 0 -10 11v231q0 11 10 11h408q10 0 10 -11v-231q0 -11 -10 -11zM63 202h386v210h-386v-210zM109 214q-11 0 -11 11v44q0 10 11 10q10 0 10 -10v-44q0 -11 -10 -11zM164 214q-10 0 -10 11v20q0 10 10 10q11 0 11 -10v-20
q0 -11 -11 -11zM220 214q-11 0 -11 11v83q0 11 11 11t11 -11v-83q0 -11 -11 -11zM276 214q-11 0 -11 11v135q0 11 11 11q10 0 10 -11v-135q0 -11 -10 -11zM331 214q-10 0 -10 11v61q0 11 10 11q11 0 11 -11v-61q0 -11 -11 -11zM387 214q-11 0 -11 11v166q0 11 11 11t11 -11
v-166q0 -11 -11 -11z"/>
</svg>