<svg xmlns="http://www.w3.org/2000/svg" viewBox="0 0 512 512">
    <defs><style>.color1{fill:#000000;}</style></defs>
    <title>finance-38</title>
    <path class="color1" transform="scale(1, -1) translate(0, -512)" d="M442 0h-372q-29 0 -49.5 19.5t-20.5 47.5v318q0 28 20.5 47.5t49.5 19.5h42v-21h-42q-20 0 -34.5 -13.5t-14.5 -32.5v-318q0 -19 14.5 -32.5t34.5 -13.5h372q20 0 34.5 13.5t14.5 32.5v318q0 19 -14.5 32.5t-34.5 13.5h-42v21h42q29 0 49.5 -19.5t20.5 -47.5v-318
q0 -28 -20.5 -47.5t-49.5 -19.5zM167 452h178v-21h-178v21zM432 84h-352q-11 0 -11 11v231q0 10 11 10h352q11 0 11 -10v-231q0 -11 -11 -11zM91 106h330v209h-330v-209zM139 378q-16 0 -27.5 12t-11.5 29v52q0 17 11.5 29t27.5 12q17 0 28.5 -12t11.5 -29v-52
q0 -17 -11.5 -29t-28.5 -12zM139 491q-7 0 -12.5 -6t-5.5 -14v-52q0 -8 5.5 -14t12.5 -6q8 0 13.5 6t5.5 14v52q0 8 -5.5 14t-13.5 6zM373 378q-17 0 -28.5 12t-11.5 29v52q0 17 11.5 29t28.5 12q16 0 27.5 -12t11.5 -29v-52q0 -17 -11.5 -29t-27.5 -12zM373 491
q-8 0 -13.5 -6t-5.5 -14v-52q0 -8 5.5 -14t13.5 -6q7 0 12.5 6t5.5 14v52q0 8 -5.5 14t-12.5 6zM191 237h-1l-25 -12l-5 22l35 16h26v-126h-30v100zM265 137v18l17 15q43 36 43 53q0 18 -22 18q-14 0 -28 -10l-9 21q19 13 44 13q22 0 34 -11t12 -28q0 -25 -35 -54l-12 -10
h50v-25h-94z"/>
</svg>