<svg xmlns="http://www.w3.org/2000/svg" viewBox="0 0 512 512">
    <defs><style>.color1{fill:#000000;}</style></defs>
    <title>finance-76</title>
    <path class="color1" transform="scale(1, -1) translate(0, -512)" d="M492 303h-472q-11 0 -11 10q0 68 72.5 116t174.5 48t174.5 -48t72.5 -116q0 -10 -11 -10zM31 324h450q-7 56 -71.5 94t-153.5 38t-153.5 -38t-71.5 -94zM214 0h-5q-22 0 -37.5 15.5t-15.5 37.5q0 11 10 11q11 0 11 -11q0 -13 9.5 -22.5t22.5 -9.5h5q13 0 22 9.5t9 22.5
v35q0 11 11 11t11 -11v-35q0 -22 -15.5 -37.5t-37.5 -15.5zM256 456q-11 0 -11 11v34q0 11 11 11t11 -11v-34q0 -11 -11 -11zM256 263q-11 0 -11 11v34q0 11 11 11t11 -11v-34q0 -11 -11 -11zM485 78h-458q-10 0 -10 10v186q0 11 10 11h458q10 0 10 -11v-186q0 -10 -10 -10z
M38 99h436v164h-436v-164zM256 110q-31 0 -53 21t-22 50t22 50t53 21t53 -21t22 -50t-22 -50t-53 -21zM256 231q-23 0 -38.5 -14.5t-15.5 -35.5q0 -20 16 -35t38 -15t38 15t16 35q0 21 -15.5 35.5t-38.5 14.5zM112 181q0 6 -4.5 10.5t-10.5 4.5q-7 0 -11.5 -4.5t-4.5 -10.5
q0 -14 16 -14q15 0 15 14zM431 181q0 6 -4.5 10.5t-11.5 4.5q-6 0 -10.5 -4.5t-4.5 -10.5q0 -14 15 -14q16 0 16 14zM253 141v10q-9 0 -15 4l2 7q7 -5 14 -5q12 0 12 10q0 7 -11 12q-16 6 -16 17q0 13 14 15v10h6v-9q7 0 13 -4l-2 -6q-6 3 -13 3q-10 0 -10 -8q0 -7 12 -11
q15 -6 15 -18q0 -14 -15 -17v-10h-6z"/>
</svg>