<svg xmlns="http://www.w3.org/2000/svg" viewBox="0 0 512 512">
    <defs><style>.color1{fill:#000000;}</style></defs>
    <title>real-estate-10</title>
    <path class="color1" transform="scale(1, -1) translate(0, -512)" d="M356 0h-331q-11 0 -11 11v454q0 11 11 11h331q11 0 11 -11v-29q0 -10 -11 -10q-10 0 -10 10v18h-311v-433h311v320q0 11 10 11q11 0 11 -11v-330q0 -11 -11 -11zM343 324l-50 2q-5 0 -7 5q-3 5 -2 8l7 54q0 3 4 7l143 110q10 6 15 -2l43 -55q2 -2 2 -7q0 -2 -4 -8
l-144 -112q-4 -2 -7 -2zM305 348l34 -1l132 103l-29 37l-133 -101zM260 265h-138q-11 0 -11 10q0 11 11 11h138q11 0 11 -11q0 -10 -11 -10zM260 170h-138q-11 0 -11 10q0 11 11 11h138q11 0 11 -11q0 -10 -11 -10zM260 75h-138q-11 0 -11 10q0 11 11 11h138q11 0 11 -11
q0 -10 -11 -10z"/>
</svg>