<svg xmlns="http://www.w3.org/2000/svg" viewBox="0 0 512 512">
    <defs><style>.color1{fill:#000000;}</style></defs>
    <title>real-estate-17</title>
    <path class="color1" transform="scale(1, -1) translate(0, -512)" d="M421 0h-410q-11 0 -11 11v490q0 11 11 11h354q10 0 10 -11q0 -10 -10 -10h-344v-470h390v362q0 11 10 11q11 0 11 -11v-372q0 -11 -11 -11zM271 0h-111q-11 0 -11 11v174q0 10 11 10h111q11 0 11 -10v-174q0 -11 -11 -11zM171 21h89v153h-89v-153zM95 425h-42
q-10 0 -10 10q0 11 10 11h42q11 0 11 -11q0 -10 -11 -10zM95 306h-42q-10 0 -10 11q0 10 10 10h42q11 0 11 -10q0 -11 -11 -11zM234 306h-43q-11 0 -11 11q0 10 11 10h43q10 0 10 -10q0 -11 -10 -11zM95 188h-42q-10 0 -10 10q0 11 10 11h42q11 0 11 -11q0 -10 -11 -10z
M95 69h-42q-10 0 -10 11t10 11h42q11 0 11 -11t-11 -11zM365 306h-43q-11 0 -11 11q0 10 11 10h43q10 0 10 -10q0 -11 -10 -11zM365 188h-43q-11 0 -11 10q0 11 11 11h43q10 0 10 -11q0 -10 -10 -10zM365 69h-43q-11 0 -11 11t11 11h43q10 0 10 -11t-10 -11zM379 362
q-28 0 -48 21.5t-20 52.5q0 30 19 52t45 23h4q25 0 44 -18.5t23 -47.5q0 -4 -1 -7v-2v-4q-1 -24 -17 -47q-21 -23 -49 -23zM375 490q-17 -1 -29.5 -16.5t-12.5 -37.5t13 -37.5t33 -15.5q18 0 32 16q10 12 12 34v3q0 6 2 8q-4 19 -17 32t-29 13h-4v1zM501 282q-4 0 -7 3
l-87 96q-7 7 2 15q7 6 14 -1l87 -96q6 -8 -1 -15q-4 -2 -8 -2z"/>
</svg>