<svg xmlns="http://www.w3.org/2000/svg" viewBox="0 0 512 512">
    <defs><style>.color1{fill:#000000;}</style></defs>
    <title>real-estate-35</title>
    <path class="color1" transform="scale(1, -1) translate(0, -512)" d="M396 404q-3 0 -6 1l-146 84l-146 -84q-10 -6 -15 5q-4 9 4 15l152 86q5 3 11 0l151 -86q8 -6 4 -15q-3 -6 -9 -6zM11 291q-7 0 -10 7q-4 9 5 13l113 55v69q0 11 11 11t11 -11v-76q0 -6 -7 -9l-119 -58q-1 -1 -4 -1zM477 291q-3 0 -4 1l-120 58q-6 4 -6 9v76q0 11 10 11
q11 0 11 -11v-69l113 -55q10 -4 5 -13q-3 -7 -9 -7zM446 0h-403q-11 0 -11 11v305q0 10 11 10q10 0 10 -10v-295h382v295q0 10 11 10t11 -10v-305q0 -11 -11 -11zM388 0h-89q-11 0 -11 11v146q0 10 11 10h89q11 0 11 -10v-146q0 -11 -11 -11zM309 21h69v125h-69v-125z
M501 402q-10 0 -10 11l-2 35l-34 2q-11 0 -9 12q0 12 12 9l42 -3q10 0 10 -9l2 -46q0 -11 -11 -11zM70 73q-4 0 -5 1q-8 5 -3 15l60 100q3 7 10 5q7 -1 9 -8l6 -44l61 82q3 4 10 4l69 -6l197 233q8 9 15 2q8 -10 1 -15l-200 -239q-2 -5 -10 -5l-68 7l-73 -97q-5 -7 -10 -5
q-8 3 -8 9l-6 41l-45 -75q-3 -5 -10 -5zM274 293h-61q-10 0 -10 11t10 11h61q11 0 11 -11t-11 -11z"/>
</svg>