<svg xmlns="http://www.w3.org/2000/svg" viewBox="0 0 512 512">
    <defs><style>.color1{fill:#000000;}</style></defs>
    <title>real-estate-41</title>
    <path class="color1" transform="scale(1, -1) translate(0, -512)" d="M422 329q-2 0 -6 2l-160 119l-160 -119q-8 -8 -15 2q-6 9 2 15l167 125q6 5 12 0l167 -125q8 -6 2 -15q-3 -4 -9 -4zM203 187h-65q-11 0 -11 10v177q0 11 11 11q10 0 10 -11v-166h55q10 0 10 -11q0 -10 -10 -10zM374 187h-64q-10 0 -10 10q0 11 10 11h54v166q0 11 10 11
q11 0 11 -11v-177q0 -10 -11 -10zM307 187q-10 0 -10 10v89h-82v-89q0 -10 -10 -10q-11 0 -11 10v100q0 10 11 10h102q11 0 11 -10v-100q0 -10 -11 -10zM501 138h-490q-11 0 -11 10v353q0 11 11 11h490q11 0 11 -11v-353q0 -10 -11 -10zM21 159h470v332h-470v-332zM113 0
q-2 0 -3 1q-10 4 -7 14l45 134q4 10 14 7q10 -4 7 -14l-45 -136q-4 -6 -11 -6zM399 0q-8 0 -10 7l-44 136q-6 9 6 14q10 4 14 -7l45 -135q4 -10 -7 -14q-2 -1 -4 -1z"/>
</svg>