<svg xmlns="http://www.w3.org/2000/svg" viewBox="0 0 512 512">
    <defs><style>.color1{fill:#000000;}</style></defs>
    <title>real-estate-60</title>
    <path class="color1" transform="scale(1, -1) translate(0, -512)" d="M501 0h-490q-5 0 -9 4q-4 6 -1 10l86 257q3 7 10 7h96q11 0 11 -10q0 -11 -11 -11h-88l-79 -236h461l-65 236h-102q-11 0 -11 11q0 10 11 10h110q6 0 11 -7l71 -257q2 -5 -2 -10q-3 -4 -9 -4zM256 163q-5 0 -9 4l-13 18q-13 18 -29 42.5t-32.5 53t-27.5 56.5t-11 47
q0 53 36 90.5t86 37.5t86 -37.5t36 -90.5q0 -19 -11 -47t-27.5 -56.5t-32.5 -53t-29 -42.5l-13 -18q-4 -4 -9 -4zM256 491q-41 0 -70.5 -31.5t-29.5 -75.5q0 -54 100 -192q100 138 100 192q0 45 -28.5 76t-71.5 31zM256 317q-26 0 -45 19.5t-19 47.5t19 47.5t45 19.5
t45 -19.5t19 -47.5t-19 -47.5t-45 -19.5zM256 430q-17 0 -30 -13.5t-13 -32.5t13 -32.5t30 -13.5t30 13.5t13 32.5t-13 32.5t-30 13.5z"/>
</svg>