<svg xmlns="http://www.w3.org/2000/svg" viewBox="0 0 512 512">
    <defs><style>.color1{fill:#000000;}</style></defs>
    <title>real-estate-91</title>
    <path class="color1" transform="scale(1, -1) translate(0, -512)" d="M79 459q-3 0 -8 3l-26 24l-26 -24q-7 -7 -15 0q-8 8 0 15l33 32q8 7 15 0l34 -32q9 -7 0 -15q-3 -3 -7 -3zM44 143q-5 0 -8 3l-33 31q-7 7 0 15t15 0l26 -25l26 25q9 8 15 0q9 -7 -1 -15l-34 -31q-2 -3 -6 -3zM45 143q-11 0 -11 11v347q0 11 11 11q10 0 10 -11v-347
q0 -11 -10 -11zM439 1q-4 0 -7 3q-7 8 0 15l25 26l-25 26q-6 8 1 15q7 9 15 -1l31 -34q5 -7 0 -15l-31 -33q-6 -2 -9 -2zM156 0q-5 0 -8 3l-32 34q-7 8 0 15l32 33q8 8 15 0q7 -7 0 -15l-24 -25l24 -27q7 -8 0 -15q-3 -3 -7 -3zM470 34h-346q-11 0 -11 11q0 10 11 10h346
q11 0 11 -10q0 -11 -11 -11zM501 141h-355q-4 0 -7 3q-4 4 -4 7l23 350q0 10 11 10h310q11 0 11 -10l22 -346v-4q0 -10 -11 -10zM158 162h333l-22 329h-291zM484 316h-114q-7 0 -11 9l-11 85h-80q-11 0 -11 10v75q0 11 11 11q10 0 10 -11v-64h79q9 0 11 -10l12 -84h104
q11 0 11 -11q0 -10 -11 -10zM400 141q-9 0 -11 9l-8 88h-113q-11 0 -11 11v51q0 10 11 10q10 0 10 -10v-41h112q9 0 11 -9l10 -97q0 -10 -11 -12zM268 346h-107q-11 0 -11 10q0 11 11 11h107q10 0 10 -11q0 -10 -10 -10z"/>
</svg>