<svg xmlns="http://www.w3.org/2000/svg" viewBox="0 0 512 512">
    <defs><style>.color1{fill:#000000;}</style></defs>
    <title>communication-100</title>
    <path class="color1" transform="scale(1, -1) translate(0, -512)" d="M256 30q-94 0 -160 66t-66 160t66 160t160 66t160 -66t66 -160t-66 -160t-160 -66zM256 461q-85 0 -145 -60t-60 -145t60 -145t145 -60t145 60t60 145t-60 145t-145 60zM417 86q-94 0 -216 65q-106 56 -162 124.5t-33 112.5q23 41 100 38l-1 -22q-65 3 -80 -26
q-17 -33 34.5 -94.5t150.5 -113.5q71 -38 139 -54t108 -3q21 6 29 21q15 28 -23 81l17 13q47 -62 26 -104q-12 -23 -42 -32q-17 -6 -47 -6zM151 0q-15 0 -27 6q-41 23 -38 101l22 -1q-3 -66 26 -81q33 -17 94.5 34.5t113.5 150.5q38 71 54 139t3 108q-6 21 -21 29
q-28 15 -81 -23l-13 17q61 47 104 26q23 -12 32 -42q14 -44 -2 -115.5t-56 -146.5q-48 -91 -106.5 -146.5t-104.5 -55.5z"/>
</svg>