<svg xmlns="http://www.w3.org/2000/svg" viewBox="0 0 512 512">
    <defs><style>.color1{fill:#000000;}</style></defs>
    <title>communication-118</title>
    <path class="color1" transform="scale(1, -1) translate(0, -512)" d="M117 362q-28 0 -47.5 19.5t-19.5 47.5t19.5 47.5t47.5 19.5t48 -19.5t20 -47.5t-19.5 -47.5t-48.5 -19.5zM117 475q-19 0 -32.5 -13.5t-13.5 -32.5t13.5 -32.5t32.5 -13.5t32.5 13.5t13.5 32.5t-13.5 32.5t-32.5 13.5zM117 262h-117v11q0 11 2 22t4.5 20.5t7 18.5t8.5 16
t9 14t9.5 12t9 9t7.5 6.5t5 4.5l2 2q9 6 15 -2q6 -9 -2 -15q-5 -4 -13.5 -11.5t-23.5 -33t-18 -52.5h96q11 0 11 -11t-12 -11zM235 262h-118q-10 0 -10 11t10 11h96q-2 27 -15.5 51.5t-25.5 34.5l-13 11q-8 6 -2 15q6 8 15 2l2 -2q2 -2 5 -4.5t7.5 -6.5t9 -9t9.5 -12t9 -14
t8.5 -16t7 -18.5t4.5 -20.5t2 -22v-11h-1zM395 362q-29 0 -48.5 19.5t-19.5 47.5t20 47.5t48 19.5t47.5 -19.5t19.5 -47.5t-19.5 -47.5t-47.5 -19.5zM395 475q-19 0 -32.5 -13.5t-13.5 -32.5t13.5 -32.5t32.5 -13.5t32.5 13.5t13.5 32.5t-13.5 32.5t-32.5 13.5zM395 262
h-118v11q0 11 2 22t4.5 20.5t7 18.5t8.5 16t9 14t9.5 12t9 9t7.5 6.5t5 4.5l2 2q9 6 15 -2q6 -9 -2 -15q-5 -4 -13.5 -11.5t-23.5 -33t-17 -52.5h96q10 0 10 -11t-11 -11zM512 262h-117q-11 0 -11 11t11 11h96q-3 27 -16.5 51.5t-26.5 34.5l-12 11q-8 6 -2 15q7 9 15 2l2 -2
q2 -2 5 -4.5t7.5 -6.5t9 -9t9.5 -12t9 -14t8.5 -16t7 -18.5t4.5 -20.5t2 -22v-11h-1zM256 115q-28 0 -47.5 19.5t-19.5 47.5t19.5 48t47.5 20t47.5 -20t19.5 -48t-19.5 -47.5t-47.5 -19.5zM256 228q-20 0 -33 -13t-13 -33q0 -19 13.5 -32t32.5 -13t32.5 13t13.5 32
q0 20 -13 33t-33 13zM256 16h-117v11q0 13 2 25t6 22t8.5 19.5t9.5 17t10.5 13.5t10.5 11l8.5 8.5l5.5 5.5l3 2q7 7 15 -2q6 -8 -3 -15q-5 -4 -13.5 -11.5t-23.5 -33t-17 -52.5h96q11 0 11 -10q0 -11 -12 -11zM373 16h-117q-11 0 -11 11q0 10 11 10h96q-2 27 -15.5 51.5
t-26.5 35.5l-12 10q-9 7 -3 15q8 9 15 2q7 -5 18.5 -15.5t28.5 -42t17 -66.5v-11h-1zM165 80q-2 0 -6 2q-74 51 -74 141q0 23 10 53q3 10 14 7q9 -4 6 -14q-7 -22 -7 -47q0 -78 65 -124q8 -5 3 -15q-1 0 -5 -1.5t-6 -1.5zM347 80q-5 0 -9 4q-5 10 3 15q65 44 65 124
q0 19 -7 47q-4 10 6 14q11 4 14 -7q10 -26 10 -53q0 -90 -74 -141q-6 -3 -8 -3zM187 356q-7 0 -10 7q-4 9 5 14q40 17 74 17q38 0 73 -16q9 -5 5 -14q-3 -10 -14 -6q-27 14 -64 14q-34 0 -65 -15q-1 -1 -4 -1z"/>
</svg>