<svg xmlns="http://www.w3.org/2000/svg" viewBox="0 0 512 512">
    <defs><style>.color1{fill:#000000;}</style></defs>
    <title>communication-130</title>
    <path class="color1" transform="scale(1, -1) translate(0, -512)" d="M326 30q-42 0 -72 30q-3 3 -3 7q0 5 3 8l130 130q3 3 7 3q5 0 8 -3q30 -31 30 -73t-30 -72t-73 -30zM277 68q22 -16 50 -16q32 0 58 24q22 22 24 52t-16 54zM99 9q-38 0 -64 26q-26 27 -26 65t26 64l1 1l6 5l71 71l206 207l129 -129l-284 -284q-26 -26 -65 -26zM50 149
q-20 -19 -20 -48.5t20 -50.5q20 -20 49 -20q28 0 50 20l269 269l-99 99l-265 -265zM412 325l-88 88l95 95l88 -88zM355 413l58 -58l65 65l-58 58zM182 127q-4 0 -7 3q-7 8 0 15l140 139q7 7 15 0q7 -8 0 -15l-140 -139q-3 -3 -8 -3zM410 432q0 -9 -9 -9q-8 0 -8 9t8 9
q9 0 9 -9zM438 403q0 -8 -8 -8q-9 0 -9 8q0 9 9 9q8 0 8 -9z"/>
</svg>