<svg xmlns="http://www.w3.org/2000/svg" viewBox="0 0 512 512">
    <defs><style>.color1{fill:#000000;}</style></defs>
    <title>communication-154</title>
    <path class="color1" transform="scale(1, -1) translate(0, -512)" d="M421 0h-291q-22 0 -37 15t-15 37v408q0 22 15 37t37 15h291q22 0 37.5 -15t15.5 -37v-408q0 -22 -15.5 -37t-37.5 -15zM130 491q-13 0 -22 -9t-9 -22v-408q0 -13 9 -22t22 -9h291q13 0 22 9t9 22v408q0 13 -9 22t-22 9h-291zM321 165q-22 -11 -52 -11q-37 0 -63 25
t-26 66q0 47 29.5 80t77.5 33q38 0 61.5 -24t23.5 -61q0 -32 -15 -50.5t-37 -18.5t-21 25h-1q-16 -25 -42 -25q-13 0 -22.5 10t-9.5 27q0 28 20 48.5t49 20.5q21 0 31 -6l-9 -53q-7 -33 8 -33q12 0 22 14.5t10 38.5q0 33 -18.5 53.5t-52.5 20.5q-37 0 -63 -27.5t-26 -70.5
q0 -36 21 -57t55 -21q26 0 45 10zM305 292q-6 2 -15 2q-19 0 -33 -15.5t-14 -37.5t19 -22q12 0 23 12.5t14 26.5zM49 379h81v-22h-81v22zM49 155h81v-22h-81v22z"/>
</svg>