<svg xmlns="http://www.w3.org/2000/svg" viewBox="0 0 512 512">
    <defs><style>.color1{fill:#000000;}</style></defs>
    <title>communication-161</title>
    <path class="color1" transform="scale(1, -1) translate(0, -512)" d="M512 45h-512v421h512v-421zM21 66h470v379h-470v-379zM512 320h-512v146h512v-146zM21 341h470v104h-470v-104zM49 404h22v-21h-22v21zM93 404h22v-21h-22v21zM137 404h302v-21h-302v21zM79 267h141v-22h-141v22zM288 267h141v-22h-141v22zM79 209h141v-21h-141v21z
M288 209h141v-21h-141v21zM79 153h141v-22h-141v22zM288 153h141v-22h-141v22z"/>
</svg>