<svg xmlns="http://www.w3.org/2000/svg" viewBox="0 0 512 512">
    <defs><style>.color1{fill:#000000;}</style></defs>
    <title>communication-36</title>
    <path class="color1" transform="scale(1, -1) translate(0, -512)" d="M464 137h-434v266q0 20 14.5 34.5t34.5 14.5h336q20 0 34.5 -14.5t14.5 -34.5v-266zM51 158h392v245q0 12 -8 20t-20 8h-336q-12 0 -20 -8t-8 -20v-245zM467 60h-422q-19 0 -32 13t-13 32v8q0 19 13 32t32 13h421q20 0 32.5 -13t12.5 -32v-8q2 -19 -12 -31
q-12 -14 -32 -14zM45 137q-11 0 -17.5 -6.5t-6.5 -17.5v-8q0 -11 6.5 -17.5t17.5 -6.5h422q11 0 17 6q7 7 6 16v10q0 11 -7 17.5t-17 6.5h-421zM63 119h51v-21h-51v21zM164 119h51v-21h-51v21zM107 393h197v-22h-197v22zM107 337h197v-21h-197v21zM107 283h99v-22h-99v22z
M295 272l60 -59l-15 -15l-60 59zM299 214h-22v61h61v-21h-39v-40z"/>
</svg>