<svg xmlns="http://www.w3.org/2000/svg" viewBox="0 0 512 512">
    <defs><style>.color1{fill:#000000;}</style></defs>
    <title>communication-39</title>
    <path class="color1" transform="scale(1, -1) translate(0, -512)" d="M237 110q-61 0 -103.5 42.5t-42.5 103.5t42.5 103.5t103.5 42.5t103.5 -42.5t42.5 -103.5t-42.5 -103.5t-103.5 -42.5zM237 381q-52 0 -88.5 -36.5t-36.5 -88.5t36.5 -88.5t88.5 -36.5t88.5 36.5t36.5 88.5t-36.5 88.5t-88.5 36.5zM302 245h-76v114h21v-92h55v-22z
M399 289h21v-67h-21v67zM339 332l-46 159h-112l-46 -159l-21 6l50 174h146l51 -174zM310 0h-146l-50 174l21 6l46 -159h112l46 159l22 -6z"/>
</svg>