<svg xmlns="http://www.w3.org/2000/svg" viewBox="0 0 512 512">
    <defs><style>.color1{fill:#000000;}</style></defs>
    <title>communication-44</title>
    <path class="color1" transform="scale(1, -1) translate(0, -512)" d="M406 263q-57 0 -102 45q-40 41 -44.5 91t29.5 84q30 30 76 30q59 0 102 -45q45 -45 45 -102q0 -45 -30 -73q-30 -30 -76 -30zM365 492q-35 0 -61 -24q-27 -27 -23 -69t38 -76q38 -38 87 -38q36 0 61 23q24 24 24 58q0 48 -39 87q-37 39 -87 39zM464 288q-60 18 -110 67
q-54 54 -70 110l20 5q15 -51 64 -101q50 -49 101 -62zM128 59l-75 73l210 273l18 -12l-200 -259l49 -48l260 199l13 -17zM76 0q-25 0 -44 9q-17 8 -26 23t-3 30q7 14 30 24q15 8 30 13q5 2 14.5 6.5t14.5 6.5l8 -19q-26 -11 -30 -13q-5 -2 -14.5 -6.5t-13.5 -6.5
q-15 -6 -20 -14q-4 -13 19 -25q34 -15 80 2q6 2 46 19q4 2 17 7.5t20 8.5q70 26 143 15.5t123 -54.5l-13 -16q-46 40 -113.5 50t-132.5 -15q-6 -2 -17.5 -7.5t-17.5 -7.5q-27 -14 -49 -20q-22 -10 -51 -10z"/>
</svg>