<svg xmlns="http://www.w3.org/2000/svg" viewBox="0 0 512 512">
    <defs><style>.color1{fill:#000000;}</style></defs>
    <title>communication-46</title>
    <path class="color1" transform="scale(1, -1) translate(0, -512)" d="M413 163h-313q-22 0 -37 15.5t-15 36.5v245q0 22 15 37t37 15h313q22 0 37 -15t15 -37v-243q0 -23 -15 -38.5t-37 -15.5zM100 491q-13 0 -22 -9t-9 -22v-245q0 -13 9 -21.5t22 -8.5h313q13 0 22 9t9 23v243q0 13 -9 22t-22 9h-313zM483 0h-455q-14 0 -23 12q-9 14 -3 37
l37 106q4 13 15.5 21.5t23.5 8.5h354q13 0 23.5 -8.5t14.5 -21.5l37 -106q8 -21 -2 -36q-6 -13 -22 -13zM79 162q-14 0 -19 -15l-38 -105q-4 -11 0 -19q2 -2 6 -2h455q3 0 6 4q4 6 0 17l-37 106q-4 15 -19 15h-354v-1zM224 283l-15 15q20 19 47 19t47 -19l-15 -15
q-13 13 -31.5 13t-32.5 -13zM188 318l-15 15q34 34 83 34t83 -34l-15 -15q-28 28 -68 28t-68 -28zM357 352q-41 41 -101 41t-101 -41l-15 15q48 48 116 48t116 -48zM266 266q0 -10 -10 -10t-10 10q0 9 10 9t10 -9z"/>
</svg>