<svg xmlns="http://www.w3.org/2000/svg" viewBox="0 0 512 512">
    <defs><style>.color1{fill:#000000;}</style></defs>
    <title>communication-60</title>
    <path class="color1" transform="scale(1, -1) translate(0, -512)" d="M320 0h-128v157h-87l151 149l151 -149h-87v-157zM213 21h86v157h57l-100 98l-100 -98h57v-157zM419 182l-4 22q33 6 54.5 32.5t21.5 60.5q0 40 -28 68t-67 28h-94v19q0 32 -23 55.5t-56 23.5t-56 -23.5t-23 -55.5v-19h-28q-39 0 -67 -28t-28 -68q0 -34 21 -60.5t54 -32.5
l-4 -22q-40 8 -66 40.5t-26 74.5q0 49 34 83t82 34h7q1 40 30 69t70 29t70 -29t30 -69h73q48 0 82 -34t34 -83q0 -42 -26 -74.5t-67 -40.5z"/>
</svg>