<svg xmlns="http://www.w3.org/2000/svg" viewBox="0 0 512 512">
    <defs><style>.color1{fill:#000000;}</style></defs>
    <title>communication-77</title>
    <path class="color1" transform="scale(1, -1) translate(0, -512)" d="M350 0h-188q-22 0 -37 15t-15 37v408q0 22 15 37t37 15h188q22 0 37 -15t15 -37v-409q0 -22 -15 -36.5t-37 -14.5zM162 491q-14 0 -22.5 -8.5t-8.5 -22.5v-408q0 -13 9 -22t22 -9h188q13 0 22 8.5t9 21.5v409q0 13 -9 22t-22 9h-188zM169 447h36v-21h-36v21zM238 447h36
v-21h-36v21zM307 447h36v-21h-36v21zM169 391h36v-21h-36v21zM238 391h36v-21h-36v21zM307 391h36v-21h-36v21zM169 335h36v-21h-36v21zM238 335h36v-21h-36v21zM307 335h36v-21h-36v21zM169 278h36v-21h-36v21zM238 278h36v-21h-36v21zM307 278h36v-21h-36v21zM169 83h36
v-21h-36v21zM238 83h36v-21h-36v21zM307 83h36v-21h-36v21zM245 228h22v-111h-22v111zM201 183h110v-21h-110v21z"/>
</svg>