<svg xmlns="http://www.w3.org/2000/svg" viewBox="0 0 512 512">
    <defs><style>.color1{fill:#000000;}</style></defs>
    <title>communication-87</title>
    <path class="color1" transform="scale(1, -1) translate(0, -512)" d="M186 101h-3q-8 2 -8 11v353q0 9 8 11q9 1 12 -7q28 -69 107 -82q18 -2 34 -2q22 0 35 1q18 1 66 1q33 0 50 -20q24 -25 24 -79q0 -53 -24 -78q-17 -20 -50 -20q-14 0 -36 0.5t-30 0.5q-7 0 -18.5 0.5t-16.5 0.5q-16 0 -34 -2q-79 -11 -107 -82q-1 -7 -9 -7zM196 423v-270
q39 50 104 57q20 2 37 2q22 0 36 -1q18 -1 66 -1q23 0 36 14q21 22 17 62v1q2 42 -18 64q-13 14 -35 14q-14 0 -35.5 -0.5t-30.5 -0.5q-7 0 -19 -0.5t-17 -0.5q-16 0 -36 2q-69 12 -105 58zM183 210q-29 0 -50.5 21.5t-21.5 51.5q0 29 21.5 50.5t50.5 21.5v-21
q-20 0 -35.5 -15.5t-15.5 -35.5q0 -21 15.5 -36.5t35.5 -15.5v-21zM343 37q-3 0 -5 1l-54 29q-10 3 -6 14l55 126l19 -9l-50 -117l37 -19l99 147l19 -12l-105 -155q-3 -5 -9 -5zM324 347h22v-117h-22v117zM366 347h21v-117h-21v117zM91 190q-39 37 -39 93q0 55 39 92l15 -14
q-32 -32 -32 -78q0 -48 32 -78zM54 153q-53 53 -53 129t53 130l15 -15q-47 -47 -47 -115t47 -115z"/>
</svg>