<svg xmlns="http://www.w3.org/2000/svg" viewBox="0 0 512 512">
    <defs><style>.color1{fill:#000000;}</style></defs>
    <title>hotel-103</title>
    <path class="color1" transform="scale(1, -1) translate(0, -512)" d="M512 0h-512v512h512v-512zM21 21h470v470h-470v-470zM15 165h482v-21h-482v21zM87 155h-21v160l78 129h137v-22h-124l-70 -114v-153zM446 155h-21v153l-70 114h-124v22h137l78 -129v-160zM256 278q-23 0 -39 16.5t-16 39.5t16 39t39 16t39 -16t16 -39t-16 -39.5
t-39 -16.5zM256 368q-14 0 -24 -10t-10 -24t10 -24t24 -10t24 10t10 24t-10 24t-24 10zM375 144h-238v11q1 48 36 81.5t83 33.5q49 0 83.5 -33t35.5 -82v-11zM159 165h194q-5 36 -33 60t-64 24t-64 -24.5t-33 -59.5z"/>
</svg>