<svg xmlns="http://www.w3.org/2000/svg" viewBox="0 0 512 512">
    <defs><style>.color1{fill:#000000;}</style></defs>
    <title>hotel-113</title>
    <path class="color1" transform="scale(1, -1) translate(0, -512)" d="M256 0q-106 0 -181 75t-75 181t75 181t181 75t181 -75t75 -181t-75 -181t-181 -75zM256 491q-97 0 -166 -69t-69 -166t69 -166t166 -69t166 69t69 166t-69 166t-166 69zM256 110q-61 0 -103.5 42.5t-42.5 103.5t42.5 103.5t103.5 42.5t103.5 -42.5t42.5 -103.5
t-42.5 -103.5t-103.5 -42.5zM256 381q-52 0 -88.5 -36.5t-36.5 -88.5t36.5 -88.5t88.5 -36.5t88.5 36.5t36.5 88.5t-36.5 88.5t-88.5 36.5zM222 382l-20 5q5 21 3 36.5t-6.5 26t-11.5 16.5t-11.5 8.5t-5.5 2.5l7 20l3 -2q4 -2 9.5 -6t12 -10.5t12 -15t9 -20.5t3.5 -27
t-4 -34zM317 374l-15 16q24 23 30 46t0 35l-6 12l17 12q4 -2 10 -17.5t-0.5 -45.5t-35.5 -58zM340 14q-1 0 -7 3.5t-15.5 11.5t-16 21.5t-10 33t3.5 45.5l21 -5q-5 -21 -3 -36.5t6.5 -25.5t11.5 -16.5t11.5 -9t5.5 -2.5zM174 15l-2 3q-1 2 -2.5 5.5t-3.5 9t-3 12.5t-1 15
t2 17t6.5 18.5t12 19.5t18.5 20l14 -16q-48 -44 -24 -92zM36 164l-20 8q0 1 3.5 7t11.5 15.5t21.5 16t33 10t45.5 -3.5l-5 -21q-66 16 -90 -32zM124 298q-22 24 -45.5 30t-35.5 0l-12 -6l-12 17l3 1q2 2 5.5 3.5t9.5 3.5t12.5 3t14.5 1t17 -2t18.5 -6t20 -11.5t20.5 -18.5z
M419 288q-17 0 -33 4l5 21q35 -10 55 -0.5t27.5 19t7.5 13.5l20 -8l-1 -3q-2 -2 -5 -6.5t-7 -10t-11 -10.5t-15 -9.5t-19 -7t-24 -2.5zM455 159q-42 0 -77 39l16 15q44 -48 92 -24l12 -17q0 -1 -5 -4t-15.5 -6t-22.5 -3z"/>
</svg>