<svg xmlns="http://www.w3.org/2000/svg" viewBox="0 0 512 512">
    <defs><style>.color1{fill:#000000;}</style></defs>
    <title>hotel-122</title>
    <path class="color1" transform="scale(1, -1) translate(0, -512)" d="M501 0h-490q-11 0 -11 11v289q0 5 4 8l64 53q9 7 15 -2q6 -8 -1 -14l-61 -51v-273h470v273l-60 49q-8 8 -1 15q7 11 15 1l64 -52q4 -4 4 -8v-288q-2 -11 -12 -11zM332 427q-3 0 -7 2l-72 58l-71 -58q-7 -7 -15 1q-3 3 -2.5 8t4.5 7l76 64q8 5 14 0l79 -64q9 -7 1 -15
q-1 -3 -7 -3zM11 0q-7 0 -10 5q-3 11 4 15l491 284q9 6 15 -4q5 -10 -4 -15l-491 -284q-2 -1 -5 -1zM501 0q-3 0 -5 1l-491 284q-7 5 -4 15q5 8 15 4l491 -284q7 -4 4 -15q-3 -5 -10 -5zM434 252q-11 0 -11 10v164h-334v-164q0 -10 -11 -10t-11 10v174q0 11 11 11h356
q11 0 11 -11v-174q0 -10 -11 -10zM372 352h-232q-11 0 -11 11q0 10 11 10h232q11 0 11 -10q0 -11 -11 -11zM372 284h-232q-11 0 -11 10q0 11 11 11h232q11 0 11 -11q0 -10 -11 -10z"/>
</svg>