<svg xmlns="http://www.w3.org/2000/svg" viewBox="0 0 512 512">
    <defs><style>.color1{fill:#000000;}</style></defs>
    <title>hotel-137</title>
    <path class="color1" transform="scale(1, -1) translate(0, -512)" d="M256 0q-106 0 -181 75t-75 181t75 181t181 75t181 -75t75 -181t-75 -181t-181 -75zM256 491q-97 0 -166 -69t-69 -166t69 -166t166 -69t166 69t69 166t-69 166t-166 69zM256 0q-62 0 -104 74t-42 182t42 182t104 74t104 -74t42 -182t-42 -182t-104 -74zM256 491
q-52 0 -88.5 -69t-36.5 -166t36.5 -166t88.5 -69t88.5 69t36.5 166t-36.5 166t-88.5 69zM256 0q-11 0 -11 11v490q0 11 11 11t11 -11v-490q0 -11 -11 -11zM469 122h-426q-11 0 -11 10q0 11 11 11h426q11 0 11 -11q0 -10 -11 -10zM501 245h-490q-11 0 -11 11t11 11h490
q11 0 11 -11t-11 -11zM469 369h-426q-11 0 -11 11q0 10 11 10h426q11 0 11 -10q0 -11 -11 -11z"/>
</svg>