<svg xmlns="http://www.w3.org/2000/svg" viewBox="0 0 512 512">
    <defs><style>.color1{fill:#000000;}</style></defs>
    <title>hotel-141</title>
    <path class="color1" transform="scale(1, -1) translate(0, -512)" d="M245 512h22v-512h-22v512zM455 326h-210v118h210l62 -54zM267 348h180l39 40l-38 34h-181v-74zM267 261h-210l-61 62l62 56h209v-118zM65 283h180v74h-180l-38 -34z"/>
</svg>