<svg xmlns="http://www.w3.org/2000/svg" viewBox="0 0 512 512">
    <defs><style>.color1{fill:#000000;}</style></defs>
    <title>hotel-142</title>
    <path class="color1" transform="scale(1, -1) translate(0, -512)" d="M254 0h-178q-5 0 -8 3t-3 9l28 388q0 10 10 10h123q4 0 7.5 -3t3.5 -7l28 -386v-3q0 -11 -11 -11zM87 21h156l-26 367h-103zM218 388h-105q-11 0 -11 11v102q0 11 11 11h105q10 0 10 -11v-102q0 -11 -10 -11zM124 410h83v81h-83v-81zM370 0h-2q-11 2 -9 12l48 292v2
l18 49v146q0 11 10 11q11 0 11 -11v-147q0 -2 -1 -3l-18 -50l-48 -291q1 -10 -9 -10zM410 478h-59q-11 0 -11 11q0 10 11 10h59q10 0 10 -10q0 -11 -10 -11zM410 449h-59q-11 0 -11 11q0 10 11 10h59q10 0 10 -10q0 -11 -10 -11zM410 421h-59q-11 0 -11 11t11 11h59
q10 0 10 -11t-10 -11zM410 393h-59q-11 0 -11 10q0 11 11 11h59q10 0 10 -11q0 -10 -10 -10zM410 365h-59q-11 0 -11 10q0 11 11 11h59q10 0 10 -11q0 -10 -10 -10z"/>
</svg>