<svg xmlns="http://www.w3.org/2000/svg" viewBox="0 0 512 512">
    <defs><style>.color1{fill:#000000;}</style></defs>
    <title>hotel-152</title>
    <path class="color1" transform="scale(1, -1) translate(0, -512)" d="M337 -1h-36q-7 0 -11 2q-5 2 -8 11l-1 2q-4 10 -10 28.5t-8 24.5q-6 22 -20 62q-68 -5 -116 -5q0 -75 1 -113v-10h-11q-32 -3 -73 1l-10 1v10v105v105q0 34 12 48q19 22 66 22h32q6 0 16 0.5t16 0.5q32 0 48 8q24 12 47 60l2 4q28 53 61 64q2 27 18 43l7 7l8 -6
q21 -18 29 -47q26 -3 41 -27q1 -2 20 -36q3 -8 4 -10q10 -26 24 -36q1 -1 3.5 -2.5t3.5 -2.5q21 -16 22 -29q3 -24 -30 -34h-1v-4q0 -25 -25 -35q-4 -1 -11 -1q-15 0 -41 18q-19 17 -32 16q-16 -2 -20 -17v-1q-4 -9 -4 -34q-2 -109 9 -169v-2q0 -10 -1 -11l-1 -1
q-6 -10 -20 -10zM300 21l37 -1q-12 62 -10 172q0 29 7 42q9 28 38 31h5q17 0 43 -22q23 -16 32 -13q11 6 11 14v2q0 10 3 14l1 2q2 2 9 6l2 1q9 3 13 6t3 7q0 3 -13 12q-1 2 -3.5 3.5t-3.5 2.5q-18 12 -31 45q-1 1 -3 4t-2 5q-7 20 -16 32q-14 20 -34 19l-10 -1l-1 10
q-3 17 -15 34q-7 -13 -6 -28l1 -10l-10 -1q-27 -3 -54 -55l-2 -2q-10 -19 -15.5 -27.5t-17 -22t-24.5 -19.5q-21 -10 -57 -10h-32q-5 0 -16 -0.5t-16 -0.5q-37 0 -49 -14q-7 -8 -7 -35v-106v-95q19 -1 49 -1q-1 39 -1 114v11h10q58 -1 134 5l8 2l3 -8q4 -12 12 -35.5
t12 -34.5q5 -23 16 -54zM49 256q-10 0 -18 5q-9 7 -11 11q-2 2 -3 4l-1 1l-2 4q-9 16 -10 18q-4 9 -4 26q0 24 4 34q13 31 45 34l1 -22q-19 -2 -27 -19q-2 -7 -2 -27q0 -12 2 -18v-1q1 -2 4 -6.5t4 -6.5l2 -2l4 -4q5 -5 7 -6l1 -2q2 -2 6 -2l7 -20q-2 0 -5 -0.5t-4 -0.5z
M362 316q-15 0 -25 10t-10 24t10 24t25 10q14 0 24 -10t10 -24t-10 -24t-24 -10zM362 363q-13 0 -13 -13t13 -13q12 0 12 13t-12 13zM340 228q-30 14 -72.5 56.5t-81 90.5t-61.5 79t-30 41l17 12q3 -6 42 -58.5t99 -118.5t96 -84z"/>
</svg>