<svg xmlns="http://www.w3.org/2000/svg" viewBox="0 0 512 512">
    <defs><style>.color1{fill:#000000;}</style></defs>
    <title>hotel-156</title>
    <path class="color1" transform="scale(1, -1) translate(0, -512)" d="M155 369q-29 0 -49 21t-20 51q0 29 20.5 50t48.5 21t48 -21t20 -50q0 -30 -20 -51t-48 -21zM155 491q-19 0 -33 -15t-14 -35q0 -21 14 -36t33 -15t33 15t14 36q0 20 -14 35t-33 15zM230 170h-151v27l-11 -27h-72l68 177l2 2q17 17 91 17q66 0 90 -16l3 -2l40 -63l39 24
l89 -2l-147 -104l-41 41v-74zM100 191h109v104l64 -65l78 56h-19l-51 -33l-51 79q-20 10 -75 10q-58 0 -75 -10l-53 -141h26l47 117v-117zM384 318q-128 0 -128 28q0 12 22 18l5 -15q31 -9 102 -9q69 0 104 10l4 15q21 -5 21 -18q-3 -29 -130 -29zM38 12v9l11 11
q36 34 37 54q0 21 -19 21q-6 0 -21 -9l-4 10q10 10 27 10q30 0 30 -29q0 -24 -34 -56l-7 -7h44v-12h-64v-2zM158 12v29h-46v9l44 66h15v-65h14v-10h-14v-29h-13zM158 51v35v16q-5 -10 -9 -15l-24 -35zM244 121v-46h49v44h14v-107h-14v50h-49v-50h-13v109h13zM331 118
q18 3 25 3q19 0 30 -9q9 -9 9 -20q0 -21 -20 -28q12 -4 15 -21l8 -30h-14q-2 4 -6 25q-6 21 -21 22h-12v-47h-14v105zM343 69h14q10 0 17 6t7 15q0 20 -24 20q-3 0 -7 -0.5t-5 -0.5zM410 29q12 -8 23 -8q21 0 21 18q0 14 -19 22q-26 9 -26 31q0 29 33 29q14 0 22 -6l-3 -12
q-6 6 -19 6q-20 0 -20 -16q0 -11 21 -22q25 -10 25 -32q0 -30 -36 -30q-14 0 -26 6z"/>
</svg>