<svg xmlns="http://www.w3.org/2000/svg" viewBox="0 0 512 512">
    <defs><style>.color1{fill:#000000;}</style></defs>
    <title>hotel-161</title>
    <path class="color1" transform="scale(1, -1) translate(0, -512)" d="M250 86q-58 0 -100 42t-42 100q0 10 5.5 43.5t11.5 67.5t12 63.5t6 30.5l2 9h209l2 -9q0 -1 6 -30.5t12 -63t11.5 -67t5.5 -44.5q0 -58 -41.5 -100t-99.5 -42zM162 420q-33 -159 -33 -192q0 -50 35.5 -85t85.5 -35t85 35t35 85q0 33 -33 192h-175zM239 93h21v-82h-21v82z
M195 21h109v-21h-109v21zM128 309h243v-21h-243v21zM364 349l-6 20q19 4 31.5 19.5t12.5 34.5q0 24 -16 40.5t-40 16.5q-21 0 -37.5 -14t-18.5 -35l-21 3q4 29 26 48.5t51 19.5q32 0 54.5 -23t22.5 -54q-1 -27 -17.5 -48t-41.5 -28zM295 292l-145 197l-44 -18l-9 20l60 23
l156 -209z"/>
</svg>