<svg xmlns="http://www.w3.org/2000/svg" viewBox="0 0 512 512">
    <defs><style>.color1{fill:#000000;}</style></defs>
    <title>hotel-163</title>
    <path class="color1" transform="scale(1, -1) translate(0, -512)" d="M383 254q-65 0 -102 51q-32 43 -24.5 95.5t49.5 84.5q37 27 78 27q65 0 102 -51q33 -44 25 -95q-8 -53 -50 -85q-35 -27 -78 -27zM384 491q-36 0 -65 -23q-35 -27 -41.5 -71t20.5 -79q32 -43 85 -43q36 0 65 23q36 26 42 70q6 43 -21 80q-32 43 -85 43zM60 71l-63 84
l264 263l15 -15l-251 -250l41 -54l307 176l11 -19zM99 1q-45 0 -73 22q-13 11 -21 23q-16 31 18 84l19 -13q-29 -39 -17 -62q5 -7 13 -16q27 -20 72 -18q35 3 73 26q10 5 15 8q47 28 69 32q27 7 66 -2q76 -10 95 -57l-21 -8q-12 36 -78 45q-33 7 -58 2t-62 -30
q-10 -6 -15 -8q-41 -25 -82 -28h-13z"/>
</svg>