<svg xmlns="http://www.w3.org/2000/svg" viewBox="0 0 512 512">
    <defs><style>.color1{fill:#000000;}</style></defs>
    <title>hotel-165</title>
    <path class="color1" transform="scale(1, -1) translate(0, -512)" d="M256 407q-22 0 -37 15.5t-15 37.5t15 37t37 15t37 -15t15 -37t-15 -37.5t-37 -15.5zM256 491q-13 0 -22 -9t-9 -22t9 -22t22 -9t22 9t9 22t-9 22t-22 9zM382 263h-60l-6 12v-12h-119v12l-6 -12h-60l49 117q9 21 76 21q70 0 76 -22zM335 285h15l-37 85q-30 10 -57 10
q-47 0 -57 -10l-36 -85h15l41 71v-71h75v71zM114 285h284v-22h-284v22zM114 21h284v-21h-284v21zM382 30h-253v225h253v-225zM150 51h211v183h-211v-183zM311 63h-110l-2 10q-2 20 -23 22l-10 1v94l10 1q21 2 23 22l2 10h110l2 -10q2 -20 23 -22l10 -1v-94l-10 -1
q-21 -2 -23 -22zM219 84h74q11 25 31 30v58q-20 5 -31 30h-74q-11 -25 -31 -30v-58q20 -5 31 -30z"/>
</svg>