<svg xmlns="http://www.w3.org/2000/svg" viewBox="0 0 512 512">
    <defs><style>.color1{fill:#000000;}</style></defs>
    <title>hotel-191</title>
    <path class="color1" transform="scale(1, -1) translate(0, -512)" d="M466 29h-420q-20 0 -33 13.5t-13 32.5v278q0 19 13 32.5t33 13.5h420q20 0 33 -13.5t13 -32.5v-278q0 -19 -13 -32.5t-33 -13.5zM46 378q-10 0 -17.5 -7.5t-7.5 -17.5v-278q0 -10 7.5 -17.5t17.5 -7.5h420q10 0 17.5 7.5t7.5 17.5v278q0 10 -7.5 17.5t-17.5 7.5h-420z
M245 279h22v-131h-22v131zM190 224h132v-21h-132v21zM256 70q-59 0 -101 42t-42 101t42 101t101 42t101 -42t42 -101t-42 -101t-101 -42zM256 335q-50 0 -86 -35.5t-36 -86.5q0 -50 36 -85.5t86 -35.5t86 35.5t36 85.5q0 51 -36 86.5t-86 35.5zM385 378h-257v55
q0 21 14.5 35.5t35.5 14.5h157q21 0 35.5 -14.5t14.5 -35.5v-55zM149 399h215v34q0 12 -8.5 20.5t-20.5 8.5h-157q-12 0 -20.5 -8.5t-8.5 -20.5v-34z"/>
</svg>