<svg xmlns="http://www.w3.org/2000/svg" viewBox="0 0 512 512">
    <defs><style>.color1{fill:#000000;}</style></defs>
    <title>hotel-196</title>
    <path class="color1" transform="scale(1, -1) translate(0, -512)" d="M256 70q-76 0 -131 55t-55 131t55 131t131 55t131 -55t55 -131t-55 -131t-131 -55zM256 420q-68 0 -116 -48t-48 -116t48 -116t116 -48t116 48t48 116t-48 116t-116 48zM245 512h22v-51h-22v51zM245 51h22v-51h-22v51zM245 399h22v-286h-22v286zM461 267h51v-22h-51v22z
M0 267h51v-22h-51v22zM113 267h286v-22h-286v22zM430 444l15 -15l-37 -37l-15 15zM105 119l15 -15l-37 -37l-15 15zM350 365l15 -15l-203 -203l-15 15zM407 119l37 -37l-15 -15l-37 37zM82 444l37 -37l-15 -15l-37 37zM162 365l203 -203l-15 -15l-203 203z"/>
</svg>