<svg xmlns="http://www.w3.org/2000/svg" viewBox="0 0 512 512">
    <defs><style>.color1{fill:#000000;}</style></defs>
    <title>hotel-199</title>
    <path class="color1" transform="scale(1, -1) translate(0, -512)" d="M501 262h-21q0 95 -65.5 162t-158.5 67t-158.5 -67t-65.5 -162h-21q0 103 72 176.5t173 73.5t173 -73.5t72 -176.5zM437 262h-21q0 68 -46.5 116t-113.5 48t-113.5 -48t-46.5 -116h-21q0 77 53 131t128 54t128 -54t53 -131zM382 262h-21q0 44 -31 75.5t-74 31.5
t-74 -31.5t-31 -75.5h-21q0 53 37 90.5t89 37.5t89 -37.5t37 -90.5zM52 11l-41 166h22l19 -84q8 -27 12 -58q2 18 13 58l21 84h23l20 -84q8 -40 12 -57q4 25 12 58l22 84h21l-45 -167h-22l-20 86q-8 28 -11 54q-4 -22 -13 -54l-23 -86h-22zM252 177v-166h-22v166h22zM337 85
v-16h-60v16h60zM363 177h87v-18h-67v-56h62v-18h-62v-74h-21zM501 177v-166h-21v166h21z"/>
</svg>