<svg xmlns="http://www.w3.org/2000/svg" viewBox="0 0 512 512">
    <defs><style>.color1{fill:#000000;}</style></defs>
    <title>hotel-206</title>
    <path class="color1" transform="scale(1, -1) translate(0, -512)" d="M256 0q-106 0 -181 75t-75 181t75 181t181 75t181 -75t75 -181t-75 -181t-181 -75zM256 491q-97 0 -166 -69t-69 -166t69 -166t166 -69t166 69t69 166t-69 166t-166 69zM480 256h-21q0 84 -59.5 143.5t-143.5 59.5v21q93 0 158.5 -65.5t65.5 -158.5zM429 266h-22
q0 59 -41.5 101t-100.5 42v21q67 0 115.5 -48t48.5 -116zM256 132q-51 0 -87.5 36.5t-36.5 87.5t36.5 87.5t87.5 36.5t87.5 -36.5t36.5 -87.5t-36.5 -87.5t-87.5 -36.5zM256 358q-43 0 -72.5 -29.5t-29.5 -72.5t29.5 -72.5t72.5 -29.5t72.5 29.5t29.5 72.5t-29.5 72.5
t-72.5 29.5zM256 197q-24 0 -41.5 17.5t-17.5 41.5t17.5 41.5t41.5 17.5t41.5 -17.5t17.5 -41.5t-17.5 -41.5t-41.5 -17.5zM256 293q-15 0 -26 -11t-11 -26t11 -26t26 -11t26 11t11 26t-11 26t-26 11z"/>
</svg>