<svg xmlns="http://www.w3.org/2000/svg" viewBox="0 0 512 512">
    <defs><style>.color1{fill:#000000;}</style></defs>
    <title>hotel-232</title>
    <path class="color1" transform="scale(1, -1) translate(0, -512)" d="M175 1h-109q-28 0 -47 18t-19 44v387q0 25 19.5 43.5t46.5 18.5h109v-21h-109q-18 0 -31.5 -12t-13.5 -29v-387q0 -17 13 -29t32 -12h109v-21zM70 465h105v-21h-105v21zM70 421h105v-21h-105v21zM70 377h105v-22h-105v22zM70 333h105v-22h-105v22zM70 289h105v-21h-105
v21zM70 244h105v-21h-105v21zM70 201h105v-22h-105v22zM70 157h105v-22h-105v22zM70 112h105v-21h-105v21zM70 68h105v-21h-105v21zM447 0q-27 0 -46 18t-19 43t19 43t46 18t46 -18t19 -43t-19 -43t-46 -18zM447 100q-19 0 -31.5 -11.5t-12.5 -27.5q0 -17 12.5 -28.5
t31.5 -11.5q18 0 31 12t13 28t-13 27.5t-31 11.5zM271 0q-27 0 -46 18t-19 43t19 43t46 18t46 -18t19 -43t-19 -43t-46 -18zM271 100q-19 0 -31.5 -11.5t-12.5 -27.5q0 -17 12.5 -28.5t31.5 -11.5q18 0 31 12t13 28t-13 27.5t-31 11.5zM422 107l-64 128l-63 -128l-19 8
l82 169l84 -169zM358 222l-83 276l22 7l61 -208l63 208l22 -7z"/>
</svg>