<svg xmlns="http://www.w3.org/2000/svg" viewBox="0 0 512 512">
    <defs><style>.color1{fill:#000000;}</style></defs>
    <title>hotel-234</title>
    <path class="color1" transform="scale(1, -1) translate(0, -512)" d="M454 0h-396l-63 165h521zM73 21h366l46 123h-459zM54 156l-21 4q8 40 34 60.5t58 19.5q30 -1 55 -22t29 -58l-21 -2q-4 29 -22.5 45t-41.5 17q-24 -1 -44 -16.5t-26 -47.5zM277 151q-6 34 -18 59q-7 13 -8 15q-9 10 -16 14q-32 20 -60 14q-14 -2 -26 -12t-15 -23l-21 4
q3 21 20.5 35t37.5 17q37 6 74 -17q11 -6 22 -19q5 -8 10 -19q11 -22 20 -63zM405 154l-21 4q8 39 -3 78q-3 14 -15 30q-14 14 -32 22q-27 12 -33 13q-12 1 -28 -4q-42 -14 -51 -31l-18 10q15 27 64 42q19 6 36 4q16 -1 42 -15q24 -12 38 -26q13 -14 19 -39q11 -46 2 -88z
M476 155l-19 8q8 19 3 44t-21 43q-25 28 -59 19l-7 21q47 14 82 -27q20 -22 26 -53t-5 -55zM322 244h-21q0 9 -8 12l11 18q18 -8 18 -30zM347 192l-22 3q1 6 -2 14l20 6q6 -10 4 -23zM244 346l-19 9l4 12l1 3q3 4 3 9t-9 16q-1 1 -3.5 3t-3.5 3q-8 8 -12 13q-13 17 -13 35
q0 11 3 17q4 8 7 11q4 6 4 9h21q0 -11 -8 -21q-3 -3 -5 -7v-1q-1 -2 -1 -8q0 -9 9 -22q1 -2 9 -10q2 -1 5 -3.5t4 -3.5q15 -18 15 -31q0 -7 -4 -17l-1 -1q-1 -5 -6 -15zM309 361l-19 9l4 12l1 4q3 4 3 9t-9 16l-3 2l-3 3q-7 4 -13 12q-13 16 -13 35q0 11 3 17q1 2 3.5 5.5
t3.5 5.5q4 6 4 9h21q0 -11 -8 -21q-1 -1 -2.5 -4t-2.5 -4v-1q-1 -2 -1 -8q0 -9 9 -23q1 -2 10 -9q1 -1 2.5 -2t3 -3t2.5 -3q15 -15 15 -31q0 -5 -4 -17l-1 -1zM183 323l-19 10q1 2 2.5 6t2.5 6l1 4q2 4 2 8q0 9 -9 16l-7 7q-5 3 -13 11q-13 17 -13 36q0 10 3 17q1 2 4 5.5
t3 4.5q4 8 4 10h21q0 -11 -8 -21l-4 -8v-1q-2 -2 -2 -8q0 -9 9 -23q1 -2 10 -9l8 -8q15 -15 15 -31q0 -7 -4 -17l-1 -1q0 -7 -5 -14z"/>
</svg>