<svg xmlns="http://www.w3.org/2000/svg" viewBox="0 0 512 512">
    <defs><style>.color1{fill:#000000;}</style></defs>
    <title>hotel-240</title>
    <path class="color1" transform="scale(1, -1) translate(0, -512)" d="M258 0q-107 0 -182.5 77t-75.5 186q0 84 47.5 152.5t125.5 95.5q8 3 13 -5q4 -9 -4 -14q-39 -30 -61 -75t-22 -95q0 -88 61 -150t147 -62q58 0 108.5 31t76.5 84q5 9 13 5q9 -3 7 -11q-15 -95 -87 -157t-167 -62zM123 462q-47 -34 -74.5 -87t-27.5 -112q0 -100 69.5 -171
t167.5 -71q70 0 128 38.5t87 102.5q-67 -72 -166 -72q-95 0 -162 68t-67 165q0 77 45 139z"/>
</svg>