<svg xmlns="http://www.w3.org/2000/svg" viewBox="0 0 512 512">
    <defs><style>.color1{fill:#000000;}</style></defs>
    <title>hotel-241</title>
    <path class="color1" transform="scale(1, -1) translate(0, -512)" d="M224 61h21v-50h-21v50zM235 83q-83 0 -141 58.5t-58 140.5t58.5 140t140.5 58t140 -58t58 -140q0 -83 -58 -141t-140 -58zM235 459q-73 0 -125 -51.5t-52 -125.5t51.5 -125.5t125.5 -51.5t125.5 51.5t51.5 125.5t-52 125.5t-125 51.5zM235 50q-50 0 -98 21l8 20
q83 -37 169 -5q87 35 121 116q37 83 4.5 168t-115.5 122l9 19q90 -41 125.5 -134t-4.5 -184q-38 -89 -133 -127q-41 -16 -86 -16zM114 21h241v-21h-241v21z"/>
</svg>