<svg xmlns="http://www.w3.org/2000/svg" viewBox="0 0 512 512">
    <defs><style>.color1{fill:#000000;}</style></defs>
    <title>hotel-245</title>
    <path class="color1" transform="scale(1, -1) translate(0, -512)" d="M151 27q-45 0 -76.5 43t-36.5 108q-1 29 -18 78q-26 77 -17 117q13 60 55 99t92 39q12 0 27 -3q56 -13 84.5 -70t14.5 -127q-10 -42 -10 -132q-1 -63 -34.5 -107.5t-80.5 -44.5zM150 490q-43 0 -79 -34.5t-46 -86.5q-8 -31 16 -106q18 -62 19 -84q3 -56 29 -93.5
t62 -37.5q38 0 65 38.5t27 92.5q0 84 11 137q13 60 -11.5 109.5t-71.5 60.5q-9 4 -21 4zM77 183l-1 1q-46 61 -24 137q17 58 76 113l6 5l8 -4l1 -1q64 -46 83 -115q10 -40 2 -81l-21 4q8 42 -6.5 82t-30.5 58t-33 31q-26 -25 -42 -50.5t-22.5 -44.5t-6 -40t2.5 -32
t9.5 -25.5t8.5 -15.5t5 -7zM194 2q-50 0 -78 33l16 14q25 -28 71.5 -24.5t87.5 37.5q26 19 75 40q70 31 91 59q42 60 30 122q-8 44 -40 67q-38 27 -88.5 14t-86.5 -59l-16 13q41 53 100.5 67t104.5 -18q41 -30 49 -81q11 -72 -35 -138q-24 -32 -100 -66q-55 -25 -70 -37
q-52 -43 -111 -43zM285 78v21q6 0 15 1.5t30 11t37.5 26t31 52.5t17.5 84q-94 15 -151 -36l-14 16q21 19 47.5 29.5t46.5 13t42.5 1t29 -2.5t13.5 -3l8 -2v-8q-2 -57 -19 -98.5t-37 -61t-45 -30.5t-35.5 -12.5t-16.5 -1.5z"/>
</svg>