<svg xmlns="http://www.w3.org/2000/svg" viewBox="0 0 512 512">
    <defs><style>.color1{fill:#000000;}</style></defs>
    <title>hotel-249</title>
    <path class="color1" transform="scale(1, -1) translate(0, -512)" d="M500 129h-486l-2 9q-1 5 -1 15q0 101 72 173t173 72t173 -72t72 -173q0 -6 -1 -8v-5v-11zM32 150h448v3q0 92 -65.5 158t-158.5 66t-158.5 -66t-65.5 -158v-3zM512 13h-512v88h512v-88zM21 34h470v46h-470v-46zM256 405q-19 0 -33 14t-14 33q0 20 13.5 33.5t33.5 13.5
t33.5 -13.5t13.5 -33.5q0 -19 -14 -33t-33 -14zM256 478q-10 0 -18 -8t-8 -18t7.5 -17.5t18.5 -7.5t18.5 7.5t7.5 17.5t-8 18t-18 8zM109 220l-19 8l6 12t16 25t26 31.5t37 27.5t49 18l4 -21q-13 -2 -25 -7t-22 -11.5t-19 -14t-16 -15.5t-13 -15.5t-10.5 -14.5t-7.5 -12
t-5 -8z"/>
</svg>