<svg xmlns="http://www.w3.org/2000/svg" viewBox="0 0 512 512">
    <defs><style>.color1{fill:#000000;}</style></defs>
    <title>hotel-250</title>
    <path class="color1" transform="scale(1, -1) translate(0, -512)" d="M103 281h-62l-2 9q-2 50 72 69q112 28 135 72l20 -10q-27 -52 -150 -82q-44 -10 -54 -36h40v-22h1zM471 281h-62v21h41q-9 25 -54 36q-123 30 -149 82l20 10q21 -42 134 -72q22 -6 37.5 -15.5t22 -16.5t10 -18t3.5 -12.5v-6.5zM267 413h-22v48h11q5 0 10 4.5t5 10.5
q0 5 -5 10t-10 5t-10 -5t-5 -10h-21q0 14 11 25t25 11t25 -11t11 -25q0 -27 -25 -34v-29zM419 0h-326v321h326v-321zM114 21h284v279h-284v-279z"/>
</svg>