<svg xmlns="http://www.w3.org/2000/svg" viewBox="0 0 512 512">
    <defs><style>.color1{fill:#000000;}</style></defs>
    <title>hotel-30</title>
    <path class="color1" transform="scale(1, -1) translate(0, -512)" d="M338 146q-35 0 -55 30q-13 -5 -25 -5q-30 0 -48 24q-10 -2 -16 -2q-29 0 -49 20t-20 48q0 36 29 56q-6 12 -6 25q0 23 15 40.5t36 22.5q2 23 19.5 39t40.5 16h7q3 20 18.5 33t36.5 13q23 0 39.5 -15.5t17.5 -38.5h6q21 0 36.5 -13t18.5 -33q29 0 48 -19t19 -47
q0 -25 -19 -46q12 -17 12 -39q0 -32 -22.5 -54t-54.5 -22q-12 0 -24 4q-18 -37 -60 -37zM291 208l6 -13q12 -28 41 -28q33 0 43 34l3 11l12 -5q14 -6 26 -6q23 0 39.5 16t16.5 38q0 21 -13 34l-8 10l10 6q18 13 18 35q0 19 -12.5 32t-31.5 13h-7l-14 -4v16q0 15 -10 25
t-25 10q-1 0 -15 -2l-20 -7l6 21v7q0 15 -10.5 25t-24.5 10t-24.5 -11t-10.5 -26v-19l-15 5q-6 3 -12 3q-16 0 -27 -11t-11 -27v-15h-11q-17 -1 -28.5 -13t-11.5 -30q0 -14 6 -24l6 -10l-10 -5q-26 -15 -26 -42q0 -20 14 -33.5t34 -13.5q10 0 17 4l10 4l4 -10q9 -20 33 -20
q13 0 23 7zM325 17h-21v83l-59 76l17 13l63 -82v-90zM371 181l16 -14l-64 -70l-16 14zM17 81h244v-21h-244v21zM65 63h21v-46h-21v46zM192 63h21v-46h-21v46z"/>
</svg>