<svg xmlns="http://www.w3.org/2000/svg" viewBox="0 0 512 512">
    <defs><style>.color1{fill:#000000;}</style></defs>
    <title>hotel-43</title>
    <path class="color1" transform="scale(1, -1) translate(0, -512)" d="M460 346q8 0 14 -6.5t6 -15.5v-271q0 -8 -6 -14.5t-14 -6.5h-408q-8 0 -14 6.5t-6 14.5v271q0 9 6 15.5t14 6.5h408zM460 367h-408q-17 0 -29 -12.5t-12 -30.5v-271q0 -17 12 -29.5t29 -12.5h408q17 0 29 12.5t12 29.5v271q0 18 -12 30.5t-29 12.5zM369 64h-307v250h307
v-250zM83 85h265v207h-265v-207zM398 96h61v-21h-61v21zM398 147h61v-21h-61v21zM398 199h61v-21h-61v21zM429 221q-18 0 -30 12t-12 29q0 18 12.5 30t29.5 12t29 -12t12 -30q0 -17 -12 -29t-29 -12zM429 283q-8 0 -14 -6.5t-6 -14.5t6 -14t14 -6q7 0 13.5 6t6.5 14t-6 14.5
t-14 6.5zM196 348l-69 123l19 11l52 -96l94 122l17 -13z"/>
</svg>