<svg xmlns="http://www.w3.org/2000/svg" viewBox="0 0 512 512">
    <defs><style>.color1{fill:#000000;}</style></defs>
    <title>hotel-47</title>
    <path class="color1" transform="scale(1, -1) translate(0, -512)" d="M500 0h-489q-11 0 -11 11v167q0 25 18 43t43 18h389q25 0 43 -18t18 -43v-167q0 -11 -11 -11zM21 21h469v157q0 16 -12 28t-28 12h-389q-16 0 -28 -12t-12 -28v-157zM431 218h-350q-11 0 -11 10v106q0 25 18 43t43 18h250q25 0 43 -18t18 -43v-106q0 -10 -11 -10zM92 239
h328v95q0 16 -11.5 27.5t-27.5 11.5h-250q-16 0 -27.5 -11.5t-11.5 -27.5v-95zM288 501h21v-117h-21v117zM202 501h21v-117h-21v117zM52 86q-21 0 -36.5 14t-15.5 32h21q0 -10 9.5 -17t21.5 -7t21 7t9 17h21q0 -19 -15 -32.5t-36 -13.5zM133 86q-20 0 -35.5 13.5t-15.5 32.5
h21q0 -10 9 -17t21 -7t21 7t9 17h22q0 -19 -15.5 -32.5t-36.5 -13.5zM215 86q-20 0 -35.5 13.5t-15.5 32.5h22q0 -10 8.5 -17t20.5 -7t21 7t9 17h22q0 -19 -15.5 -32.5t-36.5 -13.5zM298 86q-22 0 -37.5 14t-15.5 32h22q0 -10 9.5 -17t21.5 -7t20.5 7t8.5 17h22
q0 -19 -15.5 -32.5t-35.5 -13.5zM379 86q-21 0 -36.5 13.5t-15.5 32.5h22q0 -10 9 -17t21 -7t21 7t9 17h21q0 -19 -15.5 -32.5t-35.5 -13.5zM461 86q-21 0 -36 13.5t-15 32.5h21q0 -10 9 -17t21 -7t21 7t9 17h21q0 -19 -15 -32.5t-36 -13.5zM82 201h21v-36h-21v36zM163 201
h22v-36h-22v36zM245 201h22v-36h-22v36zM327 201h22v-36h-22v36zM409 201h21v-36h-21v36zM112 271q-16 0 -27.5 10.5t-11.5 25.5h21q0 -6 5.5 -10.5t12.5 -4.5t12.5 4.5t5.5 10.5h21q0 -15 -11.5 -25.5t-27.5 -10.5zM170 271q-17 0 -28.5 10.5t-11.5 25.5h21q0 -6 5.5 -10.5
t13.5 -4.5q7 0 12.5 4.5t5.5 10.5h21q0 -15 -11.5 -25.5t-27.5 -10.5zM227 271q-16 0 -27.5 10.5t-11.5 25.5h21q0 -6 5.5 -10.5t12.5 -4.5t12.5 4.5t5.5 10.5h22q0 -15 -11.5 -25.5t-28.5 -10.5zM285 271q-17 0 -28.5 10.5t-11.5 25.5h22q0 -6 5.5 -10.5t12.5 -4.5
t12.5 4.5t5.5 10.5h21q0 -15 -11.5 -25.5t-27.5 -10.5zM342 271q-16 0 -27.5 10.5t-11.5 25.5h21q0 -6 5.5 -10.5t12.5 -4.5q8 0 13.5 4.5t5.5 10.5h21q0 -15 -11.5 -25.5t-28.5 -10.5zM400 271q-16 0 -27.5 10.5t-11.5 25.5h21q0 -6 5.5 -10.5t12.5 -4.5t12.5 4.5t5.5 10.5
h21q0 -15 -11.5 -25.5t-27.5 -10.5zM130 354h21v-24h-21v24zM188 354h21v-24h-21v24zM245 354h22v-24h-22v24zM303 354h21v-24h-21v24zM361 354h21v-24h-21v24z"/>
</svg>