<svg xmlns="http://www.w3.org/2000/svg" viewBox="0 0 512 512">
    <defs><style>.color1{fill:#000000;}</style></defs>
    <title>hotel-63</title>
    <path class="color1" transform="scale(1, -1) translate(0, -512)" d="M450 190h-387q-11 0 -11 11v208q0 10 11 10h387q11 0 11 -10v-208q0 -11 -11 -11zM74 211h365v187h-365v-187zM256 98q-86 0 -156.5 11t-95.5 28q-4 4 -4 8v307q0 11 11 11h490q11 0 11 -11v-307q0 -4 -4 -8q-24 -18 -93.5 -28.5t-158.5 -10.5zM21 151q24 -13 88.5 -22.5
t146.5 -9.5q180 0 235 32v291h-470v-291zM157 170h35v-22h-35v22zM211 170h35v-22h-35v22zM266 170h35v-22h-35v22zM320 170h35v-22h-35v22zM92 70h328v-21h-328v21z"/>
</svg>