<svg xmlns="http://www.w3.org/2000/svg" viewBox="0 0 512 512">
    <defs><style>.color1{fill:#000000;}</style></defs>
    <title>hotel-64</title>
    <path class="color1" transform="scale(1, -1) translate(0, -512)" d="M358 0h-204v273h204v-273zM175 21h162v231h-162v-231zM256 410q-21 0 -36 15t-15 36t15 36t36 15t36 -15t15 -36t-15 -36t-36 -15zM256 491q-12 0 -21 -9t-9 -21t9 -21t21 -9t21 9t9 21t-9 21t-21 9zM362 290h-212l1 12q3 41 33.5 69.5t71.5 28.5t71.5 -28.5t33.5 -69.5z
M174 311h163q-5 29 -28.5 48.5t-53.5 19.5q-29 0 -52 -19.5t-29 -48.5zM117 273h278v-21h-278v21zM117 21h278v-21h-278v21z"/>
</svg>