<svg xmlns="http://www.w3.org/2000/svg" viewBox="0 0 512 512">
    <defs><style>.color1{fill:#000000;}</style></defs>
    <title>hotel-68</title>
    <path class="color1" transform="scale(1, -1) translate(0, -512)" d="M407 0h-249v114q-66 19 -105.5 61.5t-39.5 94.5v11h300q-3 11 -3 21h-310v64h309v93q0 22 17 37.5t41 15.5h87q23 0 40.5 -15.5t18.5 -37.5v-168q0 -17 -11.5 -31.5t-30.5 -18.5q-12 -52 -64 -90v-151zM179 21h207v141l4 3q53 36 62 87l1 7l8 1q13 1 21.5 10.5t8.5 20.5
v168q-1 13 -12 22.5t-26 9.5h-87q-14 0 -24.5 -9.5t-10.5 -22.5v-114h-310v-22h310v-10q0 -27 4 -37l14 -17l-23 1h-291q5 -43 41.5 -77.5t94.5 -49.5l8 -2v-110z"/>
</svg>