<svg xmlns="http://www.w3.org/2000/svg" viewBox="0 0 512 512">
    <defs><style>.color1{fill:#000000;}</style></defs>
    <title>hotel-70</title>
    <path class="color1" transform="scale(1, -1) translate(0, -512)" d="M21 414h-21q0 17 9.5 30.5t23.5 16.5l233 51q13 3 24 -5q13 -10 13 -31v-37h-21v37q0 8 -6 14q-2 2 -6 1l-233 -52q-16 -4 -16 -25zM310 0h-265q-19 0 -32 13t-13 32v362q0 19 13 32t32 13h265q20 0 32.5 -13t12.5 -32v-362q0 -19 -13 -32t-32 -13zM45 431
q-11 0 -17.5 -6.5t-6.5 -17.5v-362q0 -11 6.5 -17.5t17.5 -6.5h265q10 0 17 7t7 17v362q0 11 -7 17.5t-17 6.5h-265zM512 48h-178v351h178v-351zM355 69h136v309h-136v-309zM171 123q-47 0 -80.5 33.5t-33.5 80.5t33.5 80.5t80.5 33.5t80.5 -33.5t33.5 -80.5t-33.5 -80.5
t-80.5 -33.5zM171 330q-39 0 -66 -27.5t-27 -65.5t27 -65.5t66 -27.5q38 0 65 27.5t27 65.5t-27 65.5t-65 27.5zM171 123q-27 0 -44.5 33t-17.5 81t17.5 81t44.5 33q26 0 44 -33t18 -81t-18 -81t-44 -33zM171 330q-16 0 -28.5 -27t-12.5 -66q0 -40 12.5 -66.5t28.5 -26.5
q15 0 27.5 27t12.5 66t-12.5 66t-27.5 27zM160 340h21v-207h-21v207zM68 247h206v-21h-206v21zM345 336h99v-21h-99v21zM345 287h99v-21h-99v21zM345 131h99v-21h-99v21z"/>
</svg>