<svg xmlns="http://www.w3.org/2000/svg" viewBox="0 0 512 512">
    <defs><style>.color1{fill:#000000;}</style></defs>
    <title>hotel-82</title>
    <path class="color1" transform="scale(1, -1) translate(0, -512)" d="M512 0h-94v410h-324v-410h-94v512h512v-512zM439 21h52v470h-470v-470h52v410h366v-410zM126 471h31v-21h-31v21zM180 471h31v-21h-31v21zM235 471h31v-21h-31v21zM289 471h31v-21h-31v21zM343 471h31v-21h-31v21zM454 288h22v-39h-22v39zM454 219h22v-41h-22v41z
M256 310q-19 0 -32.5 13.5t-13.5 32.5q0 20 13 33t33 13t33 -13t13 -33q0 -19 -13.5 -32.5t-32.5 -13.5zM256 381q-10 0 -17.5 -7.5t-7.5 -17.5t7 -17t18 -7t18 7t7 17t-7.5 17.5t-17.5 7.5zM293 -1q-14 0 -23 8t-9 20v100h-10v-99q0 -12 -9 -20t-23 -8t-23 8t-9 20v163
l-16 -16q-18 -18 -43 -5q-12 5 -15 19q-2 11 8 21l72 75l2 2q2 3 7 6q6 8 20 10q4 1 12 1h44q8 0 12 -1q11 0 20 -9q6 -3 9 -8l71 -74q10 -8 8 -21q-1 -12 -14 -19q-6 -5 -18 -5q-13 0 -25 10l-16 16v-164q0 -13 -9 -21.5t-23 -8.5zM229 148h54v-121q0 -7 10 -7q11 0 11 7
v217l52 -54q3 -3 10 -3l6 1q5 2 5 4t-2 3l-73 77q-1 3 -4 4l-3 1q-4 4 -7 4h-2l-2 1h-7h-44h-7l-2 -1q-3 0 -6 -3l-1 -1l-2 -1l-3 -3q-2 -2 -2 -3l-72 -75q-1 -1 -1 -3t3 -3q11 -5 17 1l52 54v-216q0 -7 11 -7q10 0 10 7v120h-1z"/>
</svg>