<svg xmlns="http://www.w3.org/2000/svg" viewBox="0 0 512 512">
    <defs><style>.color1{fill:#000000;}</style></defs>
    <title>education-136</title>
    <path class="color1" transform="scale(1, -1) translate(0, -512)" d="M206 0q-11 0 -11 11v430h-146v-430q0 -11 -11 -11q-10 0 -10 11v441q0 10 10 10h168q10 0 10 -10v-441q0 -11 -10 -11zM206 285h-168q-10 0 -10 11q0 10 10 10h168q10 0 10 -10q0 -11 -10 -11zM456 0q-11 0 -11 11v242h-172v-242q0 -11 -11 -11q-10 0 -10 11v252
q0 11 10 11h194q10 0 10 -11v-252q0 -11 -10 -11zM456 253h-2q-11 2 -9 12l46 238q2 11 12 9q11 -2 9 -13l-46 -238q-2 -8 -10 -8zM243 441h-232q-11 0 -11 11q0 10 11 10h232q11 0 11 -10q0 -11 -11 -11z"/>
</svg>