<svg xmlns="http://www.w3.org/2000/svg" viewBox="0 0 512 512">
    <defs><style>.color1{fill:#000000;}</style></defs>
    <title>education-146</title>
    <path class="color1" transform="scale(1, -1) translate(0, -512)" d="M326 89h-1q-6 0 -7 4l-44 55q-7 7 2 15q7 6 15 -2l36 -46l84 74q7 7 15 -1q6 -8 -1 -15l-92 -82q-4 -2 -7 -2zM350 29q-50 0 -85 35t-35 84q0 50 35 85t85 35t85 -35t35 -85q0 -49 -35 -84t-85 -35zM350 246q-41 0 -70 -28.5t-29 -69.5t29 -69.5t70 -28.5t70 28.5
t29 69.5t-29 69.5t-70 28.5zM240 138h-187q-22 0 -37.5 15t-15.5 37v241q0 22 15.5 37t37.5 15h406q22 0 37.5 -15t15.5 -37v-241q0 -20 -14 -35.5t-34 -16.5q-10 -2 -12 9q0 10 10 12q12 1 20.5 10t8.5 21v241q0 13 -9.5 22t-22.5 9h-406q-13 0 -22.5 -9t-9.5 -22v-241
q0 -13 9.5 -22t22.5 -9h187q11 0 11 -11q0 -10 -11 -10zM34 145q-4 0 -8 4q-7 9 2 15l195 151q9 7 15 -2q7 -7 -2 -15l-195 -151q-4 -2 -7 -2zM347 246q-4 0 -7 3l-64 50q-10 6 -2 14q6 9 15 2l64 -49q9 -8 2 -15q-3 -5 -8 -5zM478 145q-3 0 -7 2l-20 16q-9 8 -2 15
q6 9 15 2l20 -16q9 -6 2 -15q-4 -4 -8 -4zM256 282q-4 0 -7 3l-221 171q-9 6 -2 15q6 8 15 2l215 -167l215 167q9 6 15 -2q7 -9 -2 -15l-221 -171q-3 -3 -7 -3z"/>
</svg>