<svg xmlns="http://www.w3.org/2000/svg" viewBox="0 0 512 512">
    <defs><style>.color1{fill:#000000;}</style></defs>
    <title>education-17</title>
    <path class="color1" transform="scale(1, -1) translate(0, -512)" d="M292 262l-12 -6l-2 7l15 8h8v-68h-9v59zM326 203v6l7 7q25 24 25 35q0 13 -13 13q-7 0 -15 -5l-3 6q9 7 19 7q21 0 21 -20q0 -13 -23 -36l-6 -5h31v-8h-43zM381 214q7 -5 15 -5q15 0 15 13q0 14 -17 14h-5v7h5q15 0 15 11q0 10 -12 10q-7 0 -13 -4l-3 7q10 5 18 5
q19 0 19 -16q0 -12 -12 -16q15 -4 15 -18q0 -20 -25 -20q-12 0 -17 5zM108 348l-7 -22h-10l24 70h11l24 -70h-10l-7 22h-25zM131 355l-7 20q-2 5 -4 13q-2 -8 -3 -13l-7 -20h21zM160 395q4 1 17 1t19 -5q6 -4 6 -12q0 -12 -12 -15v-1q14 -2 14 -17q0 -10 -6 -14
q-7 -7 -24 -7q-3 0 -8 0.5t-6 0.5v69zM169 366h8q15 0 15 12t-15 12q-2 0 -4.5 -0.5t-3.5 -0.5v-23zM169 333q2 -1 8 -1q18 0 18 14q0 13 -18 13h-8v-26zM265 328q-9 -3 -18 -3q-16 0 -25.5 9t-9.5 26q0 16 10 26.5t27 10.5q10 0 16 -3l-2 -7q-6 2 -14 2q-27 0 -27 -28
q0 -29 27 -29q5 0 14 3zM423 0h-37q-11 0 -11 11v24h-238v-24q0 -11 -11 -11h-37q-10 0 -10 11v24h-44q-14 0 -24.5 10.5t-10.5 26.5v403q0 15 10.5 26t24.5 11h442q14 0 24.5 -11t10.5 -26v-403q0 -16 -10.5 -26.5t-24.5 -10.5h-44v-24q0 -11 -10 -11zM397 21h15v24
q0 11 11 11h54q14 0 14 16v403q0 6 -4 11t-10 5h-442q-6 0 -10 -5t-4 -11v-403q0 -16 14 -16h54q11 0 11 -11v-24h15v24q0 11 11 11h260q11 0 11 -11v-24zM453 142h-394q-10 0 -10 11v293q0 11 10 11h394q10 0 10 -11v-293q0 -11 -10 -11zM70 163h372v273h-372v-273z"/>
</svg>