<svg xmlns="http://www.w3.org/2000/svg" viewBox="0 0 512 512">
    <defs><style>.color1{fill:#000000;}</style></defs>
    <title>education-178</title>
    <path class="color1" transform="scale(1, -1) translate(0, -512)" d="M133 48q-55 0 -94 39t-39 94t39 94t94 39t94 -39t39 -94t-39 -94t-94 -39zM133 293q-47 0 -79.5 -32.5t-32.5 -79.5q0 -46 33 -78.5t79 -32.5t78.5 32.5t32.5 78.5t-32.5 79t-78.5 33zM133 135q-19 0 -33 13.5t-14 32.5t14 33t33 14t32.5 -14t13.5 -33t-13.5 -32.5
t-32.5 -13.5zM133 206q-11 0 -18 -7t-7 -18t7 -18t18 -7t18 7t7 18t-7 18t-18 7zM149 206q-3 0 -4 1q-10 6 -5 14l35 75q4 11 14 5q10 -4 5 -14l-35 -75q-3 -6 -10 -6zM167 185q-9 0 -11 8q-2 11 9 13l81 15q11 2 13 -9q2 -10 -9 -12l-81 -15h-2zM94 57q-3 0 -4 1
q-9 4 -7 13l27 79q4 11 13 7q11 -4 7 -14l-26 -78q-3 -8 -10 -8zM21 131q-8 0 -10 7q-3 10 7 14l79 24q11 4 13 -7q4 -11 -7 -13l-79 -25h-3zM260 306h-3l-224 69q-8 2 -8 10t8 10l224 68q3 1 6 0l224 -68q8 -2 8 -10t-8 -10l-224 -69h-3zM73 385l187 -57l187 57l-187 57z
M387 156q-3 0 -5 1q-58 31 -126 29q-4 -1 -7.5 2t-3.5 8q0 11 10 11q65 2 122 -24v165q0 11 10 11q11 0 11 -11v-182q0 -6 -5 -9q-2 -1 -6 -1zM133 293q-11 0 -11 10v49q0 11 11 11q10 0 10 -11v-49q0 -10 -10 -10zM464 237q-11 0 -11 10v115l-175 25q-11 2 -9 12q2 11 12 9
l193 -28v-133q0 -10 -10 -10zM501 145q-10 0 -10 10v61l-27 12q-10 3 -6 14q5 9 14 5l34 -14q6 -4 6 -10v-68q0 -10 -11 -10zM426 145q-11 0 -11 10v68q0 7 7 10l33 14q11 4 14 -5q5 -10 -5 -14l-27 -12v-61q0 -10 -11 -10zM464 156q-11 0 -11 10v66q0 10 11 10q10 0 10 -10
v-66q0 -10 -10 -10z"/>
</svg>