<svg xmlns="http://www.w3.org/2000/svg" viewBox="0 0 512 512">
    <defs><style>.color1{fill:#000000;}</style></defs>
    <title>education-195</title>
    <path class="color1" transform="scale(1, -1) translate(0, -512)" d="M459 4h-406q-22 0 -37.5 15.5t-15.5 37.5v350q0 22 15.5 37.5t37.5 15.5h406q22 0 37.5 -15.5t15.5 -37.5v-350q0 -22 -15.5 -37.5t-37.5 -15.5zM53 438q-13 0 -22.5 -9t-9.5 -22v-350q0 -13 9.5 -22t22.5 -9h406q13 0 22.5 9t9.5 22v350q0 13 -9.5 22t-22.5 9h-406z
M126 392q-10 0 -10 10v95q0 11 10 11q11 0 11 -11v-95q0 -10 -11 -10zM386 392q-11 0 -11 10v95q0 11 11 11q10 0 10 -11v-95q0 -10 -10 -10zM436 61h-360q-11 0 -11 11v274q0 11 11 11h360q11 0 11 -11v-274q0 -11 -11 -11zM87 83h338v252h-338v-252zM248 114h-107
q-5 0 -9 6q-3 5 0 11q4 6 20 20q77 74 68 110q-4 14 -15 20q-24 11 -59 -7q-10 -6 -14 5q-6 10 5 14q44 22 77 7q20 -9 26 -34q6 -22 -8 -49.5t-27 -42t-38 -38.5h81q11 0 11 -11t-11 -11zM347 109q-11 0 -11 10v161l-20 -11q-9 -6 -14 4q-5 9 4 14l36 21q5 3 10 0
q6 -3 6 -9v-180q0 -10 -11 -10zM371 109h-51q-11 0 -11 10q0 11 11 11h51q10 0 10 -11q0 -10 -10 -10z"/>
</svg>