<svg xmlns="http://www.w3.org/2000/svg" viewBox="0 0 512 512">
    <defs><style>.color1{fill:#000000;}</style></defs>
    <title>education-23</title>
    <path class="color1" transform="scale(1, -1) translate(0, -512)" d="M256 357q-32 0 -54.5 23t-22.5 55t22.5 54.5t54.5 22.5t54.5 -22.5t22.5 -54.5t-22.5 -55t-54.5 -23zM256 491q-23 0 -39.5 -16.5t-16.5 -39.5t16.5 -39.5t39.5 -16.5t39.5 16.5t16.5 39.5t-16.5 39.5t-39.5 16.5zM346 0h-180q-11 0 -11 11v177l-70 -103q-14 -20 -39 -20
q-12 0 -23 6q-17 8 -22 26q-4 16 6 31l129 188q10 15 28 19q37 8 96 8q57 0 89 -8q17 -4 27 -19l129 -188q10 -15 6 -31q-5 -18 -22 -26q-11 -6 -23 -6q-24 0 -39 20l-70 103v-177q0 -11 -11 -11zM177 21h158v201q0 8 8 10q7 3 12 -4l90 -131q4 -7 15 -9.5t19 2.5
q10 5 11 12q1 6 -2 14l-130 188q-4 7 -15 11q-31 7 -83 7q-55 0 -92 -7q-9 -2 -14 -11l-130 -188q-3 -8 -2 -14q1 -7 11 -12q8 -5 19 -2.5t15 9.5l90 131q5 7 12 4q8 -2 8 -10v-201z"/>
</svg>