<svg xmlns="http://www.w3.org/2000/svg" viewBox="0 0 512 512">
    <defs><style>.color1{fill:#000000;}</style></defs>
    <title>education-57</title>
    <path class="color1" transform="scale(1, -1) translate(0, -512)" d="M453 0h-394q-34 0 -45 22q-13 27 15 62l155 198v219q0 11 10 11h124q11 0 11 -11v-219l154 -198q28 -35 15 -62q-11 -22 -45 -22zM205 491v-213q0 -4 -2 -6l-157 -201q-19 -25 -13 -39q6 -11 26 -11h394q20 0 26 11q6 14 -13 39l-157 201q-2 2 -2 6v213h-102zM355 491
h-198q-11 0 -11 10q0 11 11 11h198q11 0 11 -11q0 -10 -11 -10zM355 219h-198q-11 0 -11 11t11 11h198q11 0 11 -11t-11 -11z"/>
</svg>