<svg xmlns="http://www.w3.org/2000/svg" viewBox="0 0 512 512">
    <defs><style>.color1{fill:#000000;}</style></defs>
    <title>education-62</title>
    <path class="color1" transform="scale(1, -1) translate(0, -512)" d="M290 135q-3 0 -4 1l-255 112q-6 4 -6 8q-2 7 3 10l222 190q4 4 10 2l245 -89q5 -2 7 -7q1 -6 -3 -10l-212 -214q-3 -3 -7 -3zM55 261l232 -103l195 197l-223 81zM292 53l-2 1h-2q-173 75 -246 106q-45 19 -42 58q1 17 10.5 31.5t21.5 18.5q11 4 13 -7q4 -9 -7 -13
q-5 -2 -10.5 -11t-6.5 -20q0 -25 30 -38q136 -57 238 -102l186 189q7 8 15 0q9 -7 1 -15l-191 -194q-3 -4 -8 -4zM472 236q-6 0 -9 5q-28 40 -2 91q5 9 15 5q10 -6 4 -15q-20 -39 1 -69q5 -9 -3 -15q-4 -2 -6 -2zM290 58q-4 0 -8 4q-13 17 -13.5 37.5t4 31.5t7.5 14
q5 8 14 3t4 -14q-18 -36 0 -58q7 -9 -1 -15q-3 -3 -7 -3z"/>
</svg>