<svg xmlns="http://www.w3.org/2000/svg" viewBox="0 0 512 512">
    <defs><style>.color1{fill:#000000;}</style></defs>
    <title>education-72</title>
    <path class="color1" transform="scale(1, -1) translate(0, -512)" d="M465 0h-418q-20 0 -33.5 12t-13.5 29v273q0 17 14 29t33 12h153q29 0 56 -35l18 -21h191q20 0 33.5 -12t13.5 -29v-217q0 -17 -13.5 -29t-33.5 -12zM47 334q-11 0 -18.5 -6t-7.5 -14v-273q0 -8 7.5 -14t18.5 -6h418q11 0 18.5 6t7.5 14v217q0 8 -7.5 14t-18.5 6h-196
q-6 0 -9 4l-21 25q-21 27 -39 27h-153zM450 278q-3 0 -4 1q-10 4 -6 13l30 81l-325 115l-54 -148q-4 -9 -14 -6t-6 14l57 157q4 9 14 6l345 -121q5 -2 6 -6q2 -3 0 -8l-33 -91q-4 -7 -10 -7zM393 334h-4l-209 75q-11 4 -7 13q3 10 14 7l209 -75q11 -4 7 -13q-3 -7 -10 -7z
"/>
</svg>