<svg xmlns="http://www.w3.org/2000/svg" viewBox="0 0 512 512">
    <defs><style>.color1{fill:#000000;}</style></defs>
    <title>education-82</title>
    <path class="color1" transform="scale(1, -1) translate(0, -512)" d="M396 94q-48 0 -82 34t-34 82t34 82t82 34t82 -34t34 -82t-34 -82t-82 -34zM396 305q-39 0 -67 -28t-28 -67t28 -66.5t67 -27.5t67 27.5t28 66.5t-28 67t-67 28zM148 0q-26 0 -45 19t-19 46q0 26 19 45t45 19q27 0 46 -19t19 -45q0 -27 -19 -46t-46 -19zM148 108
q-17 0 -30 -13t-13 -30q0 -18 12.5 -31t30.5 -13t31 13t13 31q0 17 -13 30t-31 13zM88 225q-36 0 -62 26t-26 63t26 62.5t62 25.5q37 0 63 -25.5t26 -62.5t-26 -63t-63 -26zM88 381q-28 0 -47.5 -19.5t-19.5 -47.5t19.5 -47.5t47.5 -19.5t48 19.5t20 47.5t-20 47.5t-48 19.5
zM301 396q-31 0 -48 27q-10 15 -10 31q0 24 17 41t41 17t41 -17t17 -41t-17 -41t-41 -17zM301 491q-15 0 -25.5 -11t-10.5 -26q0 -11 6 -20q10 -16 30 -16q15 0 26 10.5t11 25.5t-11 26t-26 11zM156 351q-7 0 -10 6q-4 9 5 14l112 59q10 5 15 -5q5 -9 -5 -14l-112 -59
q-2 -1 -5 -1zM291 225q-1 0 -3 1l-135 30q-10 2 -8 12q4 11 13 8l135 -29q10 -3 8 -13q-2 -9 -10 -9zM202 78q-6 0 -9 5q-6 9 4 15l101 55q10 5 15 -4q6 -9 -4 -15l-102 -55q-1 -1 -5 -1z"/>
</svg>