<svg xmlns="http://www.w3.org/2000/svg" viewBox="0 0 512 512">
    <defs><style>.color1{fill:#000000;}</style></defs>
    <title>education-93</title>
    <path class="color1" transform="scale(1, -1) translate(0, -512)" d="M95 0q-45 0 -70 25q-46 46 -10.5 144.5t132.5 195.5q92 93 191 131q102 37 149 -9q50 -51 3 -164q-6 -9 -14 -6q-10 5 -6 14q42 101 2 141q-38 37 -126 4q-97 -37 -184 -126q-88 -88 -124 -180t2 -130q38 -37 126 -4q97 37 184 126q60 60 99 127q5 9 15 4q8 -5 4 -14
q-40 -69 -103 -132q-92 -93 -191 -131q-42 -16 -79 -16zM135 60q-35 0 -55 20q-9 9 -15 23q-3 10 7 14q9 4 13 -6q6 -12 10 -16q27 -27 93 -3q71 27 138 94q65 66 92 134t-1 97q-29 28 -97 1t-134 -92q-84 -84 -102 -165q-2 -10 -12 -8q-12 2 -8 13q17 84 107 175
q74 73 150 99.5t111 -8.5t8.5 -111t-99.5 -150q-71 -71 -146 -99q-33 -12 -60 -12zM175 125q-24 0 -36 14q-24 23 -6.5 73t67.5 100q32 32 73 56q10 3 15 -5q6 -10 -4 -14q-34 -18 -69 -52q-43 -44 -60 -86t-1 -57q14 -16 55 0q42 16 88 61q43 44 60 86t1 57q-8 9 -29 7
q-10 -2 -12 9q-2 10 9 12q31 5 47 -13q24 -23 6.5 -73t-67.5 -100q-48 -48 -96 -66q-22 -9 -41 -9zM254 216q-16 0 -27 11t-11 28t12 29t30 12q16 0 27 -11t11 -28t-12 -29t-30 -12zM258 275q-9 0 -15 -6q-13 -15 -1 -27t27 1q13 15 1 27q-5 5 -12 5zM70 103q-13 0 -23 10
q-9 9 -9 24q0 13 10 23t24.5 10.5t23.5 -9.5q10 -9 9.5 -23t-10.5 -24q-11 -11 -25 -11zM73 149q-6 0 -9 -4q-3 -2 -5 -9q0 -5 3 -8q8 -8 18 1q9 9 1 17q-3 3 -8 3zM469 271q-14 0 -23 9q-10 10 -9.5 23.5t10.5 24.5q10 10 24 10t24 -9q9 -10 8.5 -24t-10.5 -24t-24 -10z
M472 317q-4 0 -10 -4q-9 -10 -1 -18t17 1q10 10 1 18q-1 3 -7 3zM300 333q-13 0 -23 10q-6 8 -8 13q-5 19 10 34q10 10 24 10.5t23 -9.5q4 -3 6 -8q10 -22 -7 -39q-11 -11 -25 -11zM303 379q-6 0 -9 -4q-6 -4 -4 -13q0 -2 3 -4q8 -8 17 1q6 6 3 15l-2 2q-3 3 -8 3z"/>
</svg>