<svg xmlns="http://www.w3.org/2000/svg" viewBox="0 0 512 512">
    <defs><style>.color1{fill:#000000;}</style></defs>
    <title>education-95</title>
    <path class="color1" transform="scale(1, -1) translate(0, -512)" d="M370 80q-3 0 -4 1l-204 95q-21 10 -26 27q-7 18 1 33l111 237q0 1 1 2l1 1v3l3 6q9 16 22 20q14 5 30 -1l201 -94q10 -6 5 -14q-4 -11 -14 -5l-202 93q-7 3 -13 1q-6 -3 -9 -9l-3 -6q-3 -8 -1 -14q3 -6 9 -9l212 -99q10 -5 5 -14l-115 -248q-3 -6 -10 -6zM255 438
l-98 -211q0 -1 -0.5 -2.5t-1.5 -6.5t1 -8q2 -6 15 -15l194 -90l107 228l-203 94q-6 3 -14 11zM475 333q-7 0 -10 5q-13 25 -7 47q3 9 10 16.5t11.5 10.5t5.5 3q10 6 14 -5q5 -8 -5 -14q-12 -6 -15 -18q-4 -11 5 -30q5 -9 -4 -14q-2 -1 -5 -1zM254 5h-221q-14 0 -23.5 9.5
t-9.5 23.5v387q0 14 9.5 24t23.5 10h221q11 0 11 -11t-11 -11h-221q-12 0 -12 -12v-387q0 -12 12 -12h221q12 0 12 12v96q0 11 11 11t11 -11v-96q0 -14 -10 -23.5t-24 -9.5zM233 66h-179q-12 0 -20.5 8.5t-8.5 20.5v273q0 12 8.5 20.5t20.5 8.5h165q11 0 11 -11
q0 -10 -11 -10h-165q-7 0 -7 -8v-273q0 -8 7 -8h179q8 0 8 8v51q0 11 11 11q10 0 10 -11v-51q0 -12 -8.5 -20.5t-20.5 -8.5zM162 37h-36q-11 0 -11 11t11 11h36q11 0 11 -11t-11 -11z"/>
</svg>