<svg xmlns="http://www.w3.org/2000/svg" viewBox="0 0 512 512">
    <defs><style>.color1{fill:#000000;}</style></defs>
    <title>education-99</title>
    <path class="color1" transform="scale(1, -1) translate(0, -512)" d="M256 99q-4 0 -6 1q-46 29 -98 29q-53 0 -99 -29q-5 -3 -11 0q-5 3 -5 9v329q0 6 5 9q50 32 110 32q58 0 110 -32q5 -3 5 -9v-329q0 -6 -6 -9q-1 -1 -5 -1zM152 151q49 0 93 -23v304q-43 26 -93 26t-94 -26v-304q46 23 94 23zM465 99q-4 0 -6 1q-46 29 -99 29
q-52 0 -98 -29q-6 -3 -11 0q-6 3 -6 9v329q0 6 5 9q52 32 110 32q60 0 110 -32q5 -3 5 -9v-329q0 -6 -5 -9q-2 -1 -5 -1zM360 151q48 0 94 -23v304q-43 26 -93 26t-94 -26v-304q44 23 93 23zM256 33h-2l-245 44q-9 2 -9 10v319q0 6 7 10l37 13q10 4 13 -6q4 -11 -6 -14
l-30 -11v-302l237 -42q11 -2 8 -12q0 -9 -10 -9zM256 33q-10 0 -10 9q-3 10 8 12l237 42v302l-30 11q-10 3 -6 14q3 10 13 6l37 -13q7 -4 7 -10v-319q0 -8 -9 -10l-245 -44h-2z"/>
</svg>