<svg xmlns="http://www.w3.org/2000/svg" viewBox="0 0 512 512">
    <defs><style>.color1{fill:#000000;}</style></defs>
    <title>science-1</title>
    <path class="color1" transform="scale(1, -1) translate(0, -512)" d="M18 0q-5 0 -8 3t-3 8l-1 371q0 4 3 7q4 4 7 4l372 1q4 0 7 -3t3 -8l2 -371q0 -11 -11 -11zM27 371l1 -350l350 2l-1 349zM124 118q-10 0 -10 11l-2 371q0 4 4 8q3 3 7 3l371 1q5 0 8 -3t3 -8l1 -371q0 -4 -3 -7q-4 -4 -7 -4zM134 489l1 -349l350 1l-1 350zM16 371
q-4 0 -7 3q-7 7 -1 15l107 118q7 9 15 1q9 -7 1 -15l-107 -118q-3 -4 -8 -4zM388 372q-4 0 -8 3q-8 7 0 15l106 118q7 8 16 1q7 -7 0 -15l-106 -118q-6 -4 -8 -4zM389 1q-4 0 -7 3q-9 7 -1 15l107 118q6 8 15 1q8 -8 1 -15l-107 -118q-3 -4 -8 -4zM18 0q-5 0 -8 3q-7 7 0 15
l106 118q8 8 16 1t0 -15l-106 -118q-4 -4 -8 -4z"/>
</svg>