<svg xmlns="http://www.w3.org/2000/svg" viewBox="0 0 512 512">
    <defs><style>.color1{fill:#000000;}</style></defs>
    <title>science-104</title>
    <path class="color1" transform="scale(1, -1) translate(0, -512)" d="M190 56q-42 0 -72 30t-30 72q0 43 30 73t72 30q43 0 72.5 -30t29.5 -73q0 -42 -29.5 -72t-72.5 -30zM190 239q-33 0 -56.5 -23.5t-23.5 -57.5q0 -33 23.5 -56.5t56.5 -23.5q34 0 57.5 23.5t23.5 56.5q0 34 -23.5 57.5t-57.5 23.5zM473 66q-2 0 -6 2l-462 314q-8 6 -3 15
t15 3l462 -314q8 -6 3 -15q-5 -5 -9 -5zM88 328q-2 0 -6 2l-69 47q-4 2 -4 6q-1 4 1 8l41 60q5 9 15 3l68 -47q3 -2 5 -7q0 -5 -2 -8l-40 -59q-2 -3 -7 -5h-2zM34 388l51 -35l28 42l-51 35zM386 125q-2 0 -6 2l-69 47q-9 5 -3 15l41 59q1 3 7 5q5 0 8 -2l68 -47q3 -1 5 -7
q1 -3 -2 -8l-40 -59q-3 -5 -9 -5zM332 185l51 -34l29 42l-51 34zM455 78q-2 0 -6 2l-69 47q-4 4 -4 7q-1 4 1 8l41 59q6 11 14 3l69 -46q2 -2 5 -7q0 -6 -2 -8l-40 -60q-3 -5 -9 -5zM401 139l51 -35l28 42l-51 35zM461 161q-2 0 -6 2l-69 47q-4 4 -4 7q-1 2 1 8l41 59
q1 3 7 5q5 0 8 -2l68 -47q9 -6 3 -14l-40 -60q-3 -5 -9 -5zM407 222l51 -35l29 42l-52 34z"/>
</svg>