<svg xmlns="http://www.w3.org/2000/svg" viewBox="0 0 512 512">
    <defs><style>.color1{fill:#000000;}</style></defs>
    <title>science-105</title>
    <path class="color1" transform="scale(1, -1) translate(0, -512)" d="M384 115h-256q-53 0 -90.5 41.5t-37.5 99.5q0 49 27.5 87.5t71.5 49.5q3 50 36.5 84.5t79.5 34.5q47 0 81 -37t34 -89v-2q26 12 54 12q53 0 90.5 -41t37.5 -99t-37.5 -99.5t-90.5 -41.5zM215 491q-39 0 -66.5 -30.5t-27.5 -74.5v-2q0 -9 -9 -11q-40 -7 -65.5 -40
t-25.5 -77q0 -49 31.5 -84t75.5 -35h256q44 0 75.5 35t31.5 84t-31.5 84t-75.5 35q-32 0 -60 -20q-6 -4 -12 -1q-7 3 -5 11q2 14 2 21q0 44 -27.5 74.5t-66.5 30.5zM103 0q-3 0 -5 1q-9 5 -4 15l45 84q4 9 14 5q10 -6 4 -15l-44 -84q-3 -6 -10 -6zM175 0q-3 0 -5 1
q-9 5 -4 15l44 84q5 9 15 5q10 -6 4 -15l-44 -84q-3 -6 -10 -6zM247 0q-3 0 -5 1q-9 5 -4 15l44 84q5 8 15 5q10 -6 4 -15l-45 -84q-2 -6 -9 -6zM319 0q-3 0 -5 1q-8 5 -5 15l45 84q5 8 15 5q10 -6 4 -15l-45 -84q-3 -6 -9 -6z"/>
</svg>