<svg xmlns="http://www.w3.org/2000/svg" viewBox="0 0 512 512">
    <defs><style>.color1{fill:#000000;}</style></defs>
    <title>science-108</title>
    <path class="color1" transform="scale(1, -1) translate(0, -512)" d="M256 0q-106 0 -181 75t-75 181t75 181t181 75t181 -75t75 -181t-75 -181t-181 -75zM256 491q-97 0 -166 -69t-69 -166t69 -166t166 -69t166 69t69 166t-69 166t-166 69zM224 359q-11 0 -26 10q-2 1 -5.5 3t-5.5 3q-12 5 -40 1q-1 0 -4.5 -0.5t-5.5 -0.5q-10 -2 -12 9
q0 10 10 12q1 0 4 0.5t5 0.5q31 5 51 -2q3 -2 7.5 -4.5t6.5 -3.5q11 -7 18 -6q11 2 24 15q22 26 53 22q10 0 10 -12q-2 -11 -12 -9q-19 2 -36 -15q-14 -19 -35 -22q-3 -1 -7 -1zM394 140q-17 0 -32 9.5t-21 25.5q-3 8 -6 25q-1 10 -4 14t-17 9q-9 4 -6 14q4 9 14 6
q14 -5 21.5 -11.5t9.5 -12.5t3 -16q2 -14 5 -20q4 -11 15 -17t23 -5q10 2 12 -9q2 -10 -9 -12h-8zM176 115q-2 0 -6 2q-17 11 -23.5 23t-10.5 35l-1 6q-6 25 -12 33.5t-20 5.5q-10 -2 -12 9q-2 10 8 12q20 4 33 -7t16.5 -21.5t7.5 -27.5l1 -5q4 -20 8 -28.5t17 -16.5
q9 -5 3 -15q-3 -5 -9 -5zM409 338q0 -8 -5.5 -13t-12.5 -5t-12 5.5t-5 12.5t5 12t12 5t12.5 -5t5.5 -12zM291 92q0 -8 -5.5 -13t-12.5 -5t-12 5.5t-5 12.5t5 12t12 5t12.5 -5t5.5 -12zM193 293q0 -17 -17 -17t-17 17q0 7 5 12t12 5t12 -5t5 -12z"/>
</svg>