<svg xmlns="http://www.w3.org/2000/svg" viewBox="0 0 512 512">
    <defs><style>.color1{fill:#000000;}</style></defs>
    <title>science-11</title>
    <path class="color1" transform="scale(1, -1) translate(0, -512)" d="M282 0q-74 0 -126.5 53t-52.5 127q0 56 32 102l-83 117q-6 7 2 15l43 30q5 2 7 1q5 0 7 -4l77 -108q10 7 25 12v95q-18 1 -30 11t-12 25t13 25.5t31 10.5h135q18 0 31 -10.5t13 -25.5t-12 -25t-30 -11v-95q50 -20 80 -65.5t30 -99.5q0 -74 -52.5 -127t-127.5 -53zM75 402
l82 -114q4 -7 -1 -13q-32 -41 -32 -95q0 -66 46.5 -112.5t111.5 -46.5q66 0 112.5 46.5t46.5 112.5q0 49 -28.5 90t-75.5 58q-7 4 -7 10v112q0 11 11 11h9q9 0 15.5 4.5t6.5 10.5t-6.5 10.5t-15.5 4.5h-135q-9 0 -16 -4.5t-7 -10.5t7 -10.5t16 -4.5h9q10 0 10 -11v-112
q0 -7 -7 -10q-16 -5 -35 -19q-10 -6 -15 3l-77 108z"/>
</svg>