<svg xmlns="http://www.w3.org/2000/svg" viewBox="0 0 512 512">
    <defs><style>.color1{fill:#000000;}</style></defs>
    <title>science-121</title>
    <path class="color1" transform="scale(1, -1) translate(0, -512)" d="M256 239q-82 0 -138 28.5t-56 69.5t56 69.5t138 28.5t138 -28.5t56 -69.5t-56 -69.5t-138 -28.5zM256 414q-70 0 -121 -22.5t-51 -54.5q0 -31 51 -53.5t121 -22.5t121 22.5t51 53.5t-51 54t-121 23zM11 0q-3 0 -4 1q-10 2 -6 13l93 275q4 11 13 7q11 -4 7 -13l-93 -276
q-3 -7 -10 -7zM501 0q-7 0 -10 7l-93 276q-4 9 7 13q9 4 13 -7l93 -275q4 -11 -6 -13q-1 -1 -4 -1zM256 0q-11 0 -11 11v239q0 11 11 11t11 -11v-239q0 -11 -11 -11zM165 326h-15q-11 0 -11 11t11 11h15q10 0 10 -11t-10 -11zM263 326h-14q-11 0 -11 11t11 11h14
q11 0 11 -11t-11 -11zM362 326h-15q-10 0 -10 11t10 11h15q11 0 11 -11t-11 -11zM256 414q-11 0 -11 10v27q0 11 11 11t11 -11v-27q0 -10 -11 -10zM256 444q-14 0 -24 10t-10 24t10 24t24 10t24 -10t10 -24t-10 -24t-24 -10zM256 491q-13 0 -13 -13t13 -13t13 13t-13 13z
"/>
</svg>