<svg xmlns="http://www.w3.org/2000/svg" viewBox="0 0 512 512">
    <defs><style>.color1{fill:#000000;}</style></defs>
    <title>science-126</title>
    <path class="color1" transform="scale(1, -1) translate(0, -512)" d="M502 120h-1h-336q-6 0 -9 5q-3 4 -1 10l166 371q3 6 10 6t10 -6l169 -369q2 -4 2 -7q0 -10 -10 -10zM182 141h303l-154 334zM333 0q-10 0 -10 11v119q0 11 10 11q11 0 11 -11v-119q0 -11 -11 -11zM251 86h-240q-6 0 -9 4q-4 6 -1 11l118 265q4 6 10 6t10 -6l70 -154
q6 -10 -5 -14q-10 -6 -14 5l-61 132l-102 -228h207l-9 19q-4 11 6 14q8 5 14 -5l16 -34q2 -6 -1 -10q-2 -5 -9 -5zM131 0q-11 0 -11 11v85q0 11 11 11q10 0 10 -11v-85q0 -11 -10 -11z"/>
</svg>