<svg xmlns="http://www.w3.org/2000/svg" viewBox="0 0 512 512">
    <defs><style>.color1{fill:#000000;}</style></defs>
    <title>science-143</title>
    <path class="color1" transform="scale(1, -1) translate(0, -512)" d="M432 46h-252q-21 0 -29 14q-7 13 4 31l97 153v110q-12 1 -20 9.5t-8 19.5q0 12 9 20.5t21 8.5h103q13 0 22 -8.5t9 -20.5q0 -11 -8.5 -19.5t-19.5 -9.5v-110l97 -153q10 -16 4 -31q-8 -14 -29 -14zM254 391q-9 0 -9 -8q0 -7 9 -7h9q10 0 10 -11v-124q0 -4 -1 -6l-99 -155
q-5 -8 -3 -10q2 -3 10 -3h252q8 0 10 3q2 2 -3 9l-99 156q-1 2 -1 6v124q0 11 10 11h8q9 0 9 7q0 8 -9 8h-103zM501 14h-490q-11 0 -11 10q0 11 11 11h490q11 0 11 -11q0 -10 -11 -10zM75 14q-11 0 -11 10v464q0 10 11 10t11 -10v-464q0 -10 -11 -10zM444 436h-402
q-11 0 -11 11q0 10 11 10h402q11 0 11 -10q0 -11 -11 -11z"/>
</svg>