<svg xmlns="http://www.w3.org/2000/svg" viewBox="0 0 512 512">
    <defs><style>.color1{fill:#000000;}</style></defs>
    <title>science-148</title>
    <path class="color1" transform="scale(1, -1) translate(0, -512)" d="M256 130q-138 0 -138 35t138 35t138 -35t-138 -35zM143 165q33 -14 113 -14t113 14q-30 13 -113 13t-113 -13zM256 0q-58 0 -99.5 41t-41.5 100q0 47 29 84q1 1 14 16q13 13 15 17q36 40 36 78v125q-20 4 -20 24v2q0 10 7 17.5t17 7.5h86q10 0 17 -7.5t7 -17.5v-2
q0 -20 -20 -24v-125q0 -34 35 -78l2 -2q1 -2 3.5 -4.5l4.5 -4.5q24 -27 26 -30q23 -35 23 -76q0 -59 -41.5 -100t-99.5 -41zM213 491q-3 0 -3 -4v-2q0 -3 3 -3h7q10 0 10 -11v-135q0 -43 -40 -92l-3 -3t-5.5 -6.5t-7.5 -8.5q-12 -12 -13 -14q-24 -30 -24 -71q0 -50 35 -85
t84 -35t84 35t35 85q0 36 -19 64q-6 9 -24 27q-10 12 -11 13q-39 48 -39 91v135q0 11 10 11h7q3 0 3 3v2q0 4 -3 4h-86z"/>
</svg>