<svg xmlns="http://www.w3.org/2000/svg" viewBox="0 0 512 512">
    <defs><style>.color1{fill:#000000;}</style></defs>
    <title>science-155</title>
    <path class="color1" transform="scale(1, -1) translate(0, -512)" d="M210 29q-40 0 -66.5 65t-26.5 162t26.5 162t66.5 65t66 -64.5t26 -162.5q0 -97 -26 -162t-66 -65zM210 462q-27 0 -49.5 -59.5t-22.5 -146.5t22.5 -146.5t49.5 -59.5q26 0 48.5 59.5t22.5 146.5t-22.5 146.5t-48.5 59.5zM228 33q-5 0 -9 4q-6 9 2 15l263 204l-263 204
q-8 6 -2 15q8 8 15 2l274 -213q4 -4 4 -8t-4 -8l-274 -212q-3 -3 -6 -3zM196 462h-185q-11 0 -11 10q0 11 11 11h185q10 0 10 -11q0 -10 -10 -10zM196 33h-185q-11 0 -11 11t11 11h185q10 0 10 -11t-10 -11zM501 245h-490q-11 0 -11 11t11 11h490q11 0 11 -11t-11 -11z
M74 433q-6 0 -9 4q-6 10 3 15l28 20l-28 21q-9 6 -3 14q5 9 15 3l41 -29q5 -3 5 -9q0 -5 -5 -8l-41 -29q-2 -2 -6 -2zM74 0q-6 0 -9 5q-6 8 3 14l28 21l-28 20q-9 5 -3 15q6 9 15 2l41 -29q5 -3 5 -8q0 -6 -5 -9l-41 -29q-4 -2 -6 -2zM359 216q-4 0 -9 5q-5 9 3 15l29 20
l-29 20q-8 6 -3 15q7 9 15 3l42 -29q4 -4 4 -9t-4 -9l-42 -29q-4 -2 -6 -2z"/>
</svg>