<svg xmlns="http://www.w3.org/2000/svg" viewBox="0 0 512 512">
    <defs><style>.color1{fill:#000000;}</style></defs>
    <title>science-156</title>
    <path class="color1" transform="scale(1, -1) translate(0, -512)" d="M501 59h-285q-10 0 -10 11t10 11h285q11 0 11 -11t-11 -11zM221 0q-32 0 -46.5 22t-14.5 46q0 29 18 49l80 122q2 5 8 5h172q7 0 10 -5l62 -105q3 -4 1 -11q-3 -5 -10 -5h-279q-18 -5 -27 -14l-2 -2q-11 -13 -11 -34q0 -4 1 -9.5t4 -15.5t12 -16t22 -6h280v-21h-280z
M272 222l-55 -83h3h1h261l-50 83h-160zM127 75q-2 0 -4 1l-116 46q-5 3 -6 6q-2 5 0 8l150 369q3 10 14 6l117 -47q3 -2 5 -5q3 -5 0 -8l-150 -369q-3 -7 -10 -7zM25 138l96 -39l143 350l-97 38zM228 323h-4l-116 47q-4 2 -6 6q-2 5 0 8l22 55q3 10 14 6l117 -47q2 -1 6 -5
q1 -5 0 -9l-23 -55q-3 -6 -10 -6zM126 386l96 -39l15 36l-97 38zM104 152q-8 0 -16 3q-16 7 -24 24q-8 16 0 33q10 27 40 27q8 0 16 -3q18 -8 24 -24q8 -15 1 -33q-12 -27 -41 -27zM104 217q-14 0 -21 -13q-3 -10 1 -17q3 -9 12 -12q8 -4 16.5 0t12.5 12q3 8 0 17
q-6 9 -12 12q-3 1 -9 1z"/>
</svg>