<svg xmlns="http://www.w3.org/2000/svg" viewBox="0 0 512 512">
    <defs><style>.color1{fill:#000000;}</style></defs>
    <title>science-157</title>
    <path class="color1" transform="scale(1, -1) translate(0, -512)" d="M501 0h-490q-11 0 -11 11v490q0 11 11 11q10 0 10 -11v-480h480q11 0 11 -10q0 -11 -11 -11zM345 53q-110 0 -179 62q-31 28 -54 67t-34 74t-16.5 69.5t-6.5 52.5t0 23q0 10 10 10q11 0 11 -11q0 -8 0.5 -20t6 -48t15.5 -67.5t31.5 -69.5t50.5 -64q82 -73 219 -53
q10 2 12 -9q0 -12 -10 -12q-25 -4 -56 -4zM60 53q-9 0 -11 9q-2 10 9 12q67 7 120.5 28t86.5 47.5t57 61.5t35 62.5t17 59t6.5 42t0.5 20.5q0 9 10 11q11 0 11 -11q0 -8 -0.5 -18.5t-7 -44t-17.5 -63t-36.5 -68t-60 -67t-91.5 -51.5t-128 -30h-1z"/>
</svg>