<svg xmlns="http://www.w3.org/2000/svg" viewBox="0 0 512 512">
    <defs><style>.color1{fill:#000000;}</style></defs>
    <title>science-161</title>
    <path class="color1" transform="scale(1, -1) translate(0, -512)" d="M232 227h-184q-20 0 -34 14.5t-14 34.5v121q0 20 14 34.5t34 14.5h184q20 0 34 -14.5t14 -34.5v-121q0 -20 -14 -34.5t-34 -14.5zM48 424q-11 0 -19 -8t-8 -19v-121q0 -11 8 -19t19 -8h184q11 0 19 8t8 19v121q0 11 -8 19t-19 8h-184zM113 424q-5 0 -8 4l-59 66
q-6 8 1 15q9 7 15 -1l53 -59l72 53q9 6 15 -2q7 -9 -2 -15l-81 -59q-2 -2 -6 -2zM491 0h-128q-8 0 -14.5 6.5t-6.5 15.5v203q0 9 6.5 15.5t14.5 6.5h128q8 0 14.5 -6.5t6.5 -15.5v-203q0 -9 -6.5 -15.5t-14.5 -6.5zM363 226v-1v-203l1 -1h126l1 1v203l-1 1h-127zM468 131
h-83q-10 0 -10 11v64q0 10 10 10h83q11 0 11 -10v-64q0 -11 -11 -11zM396 152h62v43h-62v-43zM403 89h-10q-11 0 -11 11q0 10 11 10h10q11 0 11 -10q0 -11 -11 -11zM403 35h-10q-11 0 -11 11q0 10 11 10h10q11 0 11 -10q0 -11 -11 -11zM461 89h-10q-11 0 -11 11q0 10 11 10
h10q11 0 11 -10q0 -11 -11 -11zM461 35h-10q-11 0 -11 11q0 10 11 10h10q11 0 11 -10q0 -11 -11 -11zM277 398h11v-21h-11v21zM386 377h-24v21h24v-21zM337 377h-24v21h24v-21zM432 377h-21v21h11q10 0 10 -10v-11zM432 281h-21v24h21v-24zM432 329h-21v24h21v-24zM411 257
h21v-11h-21v11zM339 68h11v-21h-11v21zM317 47h-22v21h22v-21zM273 47h-21v21h21v-21zM230 47h-22v21h22v-21zM186 47h-22v21h22v-21zM142 47h-21v21h21v-21zM99 47h-11q-11 0 -11 10v11h22v-21zM99 90h-22v22h22v-22zM99 134h-22v23h22v-23zM99 179h-22v22h22v-22zM77 234
h22v-11h-22v11z"/>
</svg>