<svg xmlns="http://www.w3.org/2000/svg" viewBox="0 0 512 512">
    <defs><style>.color1{fill:#000000;}</style></defs>
    <title>science-21</title>
    <path class="color1" transform="scale(1, -1) translate(0, -512)" d="M213 69h-3q-11 4 -7 13l126 422q3 10 13 8q10 -4 7 -14l-125 -422q-4 -7 -11 -7zM262 0q-26 0 -44.5 18.5t-18.5 44.5t18.5 44.5t44.5 18.5q25 0 43.5 -18.5t18.5 -44.5t-18 -44.5t-44 -18.5zM262 104q-17 0 -29.5 -12t-12.5 -29t12.5 -29.5t29.5 -12.5t29 12.5t12 29.5
t-12 29t-29 12zM79 203q-8 0 -10 7q-4 11 7 13l422 126q10 3 14 -7q2 -10 -8 -13l-422 -126h-3zM63 199q-26 0 -44.5 18.5t-18.5 44.5t18.5 44t44.5 18t44.5 -18.5t18.5 -43.5q0 -26 -18.5 -44.5t-44.5 -18.5zM63 303q-17 0 -29.5 -12t-12.5 -29t12.5 -29.5t29.5 -12.5
t29 12.5t12 29.5t-12 29t-29 12z"/>
</svg>