<svg xmlns="http://www.w3.org/2000/svg" viewBox="0 0 512 512">
    <defs><style>.color1{fill:#000000;}</style></defs>
    <title>science-23</title>
    <path class="color1" transform="scale(1, -1) translate(0, -512)" d="M62 193q-25 0 -43.5 19t-18.5 45q0 27 18 46t44 19t44.5 -19t18.5 -46q0 -26 -18.5 -45t-44.5 -19zM62 301q-17 0 -29 -13t-12 -31t12 -30.5t29 -12.5t29 12.5t12 30.5t-12 31t-29 13zM450 193q-26 0 -44.5 19t-18.5 45q0 27 18.5 46t44.5 19t44 -19t18 -46
q0 -26 -18.5 -45t-43.5 -19zM450 301q-17 0 -29 -13t-12 -31t12 -30.5t29 -12.5t29 12.5t12 30.5t-12 31t-29 13zM445 300q-9 0 -11 9q-15 80 -66 131t-116 51q-66 0 -117 -51t-66 -131q-2 -12 -13 -8q-10 2 -8 12q17 88 73.5 143.5t130.5 55.5t130.5 -55.5t72.5 -143.5
q2 -9 -8 -13h-2zM252 0q-73 0 -130 55.5t-74 142.5l-1 4q-2 10 9 12q10 2 12 -9l1 -3q15 -80 66 -130.5t117 -50.5q65 0 117 52t66 132q2 11 12 9q11 -2 9 -12q-16 -88 -73.5 -145t-130.5 -57zM419 290q-4 0 -6 2q-56 37 -161 37q-101 0 -158 -35q-9 -5 -14 4q-6 10 3 15
q63 37 169 37q113 0 173 -41q8 -5 3 -14q-3 -5 -9 -5zM252 162q-110 0 -170 38q-9 7 -4 15q6 10 15 4q57 -36 159 -36q107 0 163 38q8 7 15 -2q6 -10 -3 -15q-61 -42 -175 -42zM450 309q-11 0 -11 11v181q0 11 11 11q10 0 10 -11v-181q0 -11 -10 -11zM58 309q-11 0 -11 11
v181q0 11 11 11t11 -11v-181q0 -11 -11 -11zM450 6q-11 0 -11 10v182q0 11 11 11q10 0 10 -11v-182q0 -10 -10 -10zM58 6q-11 0 -11 10v182q0 11 11 11t11 -11v-182q0 -10 -11 -10z"/>
</svg>