<svg xmlns="http://www.w3.org/2000/svg" viewBox="0 0 512 512">
    <defs><style>.color1{fill:#000000;}</style></defs>
    <title>science-36</title>
    <path class="color1" transform="scale(1, -1) translate(0, -512)" d="M471 19h-430q-17 0 -29 12t-12 29v324q0 17 12 29t29 12h430q17 0 29 -12t12 -29v-324q0 -17 -12 -29t-29 -12zM41 404q-8 0 -14 -6t-6 -14v-324q0 -8 6 -14t14 -6h430q8 0 14 6t6 14v324q0 8 -6 14t-14 6h-430zM367 414h-22v38q0 8 -5.5 14t-13.5 6h-140q-8 0 -13.5 -6
t-5.5 -14v-38h-22v38q0 17 12 29t29 12h140q17 0 29 -12t12 -29v-38zM256 74q-62 0 -105 43t-43 105t43 105t105 43t105 -43t43 -105t-43 -105t-105 -43zM256 349q-52 0 -89.5 -37.5t-37.5 -89.5t37.5 -89.5t89.5 -37.5t89.5 37.5t37.5 89.5t-37.5 89.5t-89.5 37.5zM348 211
h-181q-10 0 -10 11t10 11h181q11 0 11 -11t-11 -11zM258 121q-11 0 -11 10v181q0 11 11 11q10 0 10 -11v-181q0 -10 -10 -10z"/>
</svg>