<svg xmlns="http://www.w3.org/2000/svg" viewBox="0 0 512 512">
    <defs><style>.color1{fill:#000000;}</style></defs>
    <title>science-55</title>
    <path class="color1" transform="scale(1, -1) translate(0, -512)" d="M324 127h-136q-4 0 -8 4t-2 9q10 66 1 82q-9 14 -31 40q-48 52 -48 94q0 64 46 110t110 46t110 -46t46 -110q0 -42 -48 -94q-25 -30 -31 -40q-9 -16 1 -82q2 -5 -2 -9t-8 -4zM201 149h110q-8 65 4 84q7 12 33 43q43 47 43 80q0 56 -39.5 95.5t-95.5 39.5t-95.5 -39.5
t-39.5 -95.5q0 -33 43 -80q26 -31 33 -43q12 -19 4 -84zM328 79h-143q-11 0 -11 11q0 10 11 10h143q10 0 10 -10q0 -11 -10 -11zM328 40h-143q-11 0 -11 10q0 11 11 11h143q10 0 10 -11q0 -10 -10 -10zM288 0h-64q-10 0 -10 11q0 10 10 10h64q11 0 11 -10q0 -11 -11 -11z
M310 355h-108q-11 0 -11 11q0 10 11 10h108q11 0 11 -10q0 -11 -11 -11zM256 301q-11 0 -11 10v109q0 11 11 11t11 -11v-109q0 -10 -11 -10z"/>
</svg>