<svg xmlns="http://www.w3.org/2000/svg" viewBox="0 0 512 512">
    <defs><style>.color1{fill:#000000;}</style></defs>
    <title>science-6</title>
    <path class="color1" transform="scale(1, -1) translate(0, -512)" d="M436 0h-360q-27 0 -36 18q-9 17 5 40l139 219v162h-1q-16 0 -27.5 10.5t-11.5 25.5q0 16 11.5 26.5t27.5 10.5h146q16 0 27.5 -10.5t11.5 -26.5q0 -15 -11.5 -25.5t-27.5 -10.5h-1v-162l139 -219q14 -23 5 -40q-9 -18 -36 -18zM183 491q-17 0 -17 -16q0 -15 17 -15h12
q10 0 10 -11v-176q0 -4 -1 -5l-141 -222q-8 -11 -4 -18q3 -7 17 -7h360q14 0 17 7q4 7 -4 18l-141 222q-1 1 -1 5v176q0 11 10 11h12q17 0 17 15q0 16 -17 16h-146z"/>
</svg>