<svg xmlns="http://www.w3.org/2000/svg" viewBox="0 0 512 512">
    <defs><style>.color1{fill:#000000;}</style></defs>
    <title>science-61</title>
    <path class="color1" transform="scale(1, -1) translate(0, -512)" d="M255 69q-79 0 -135 55t-56 132t56 132t135 55t135 -55t56 -132t-56 -132t-135 -55zM255 422q-70 0 -119.5 -49t-49.5 -117t49.5 -117t119.5 -49t120 49t50 117t-50 117t-120 49zM484 344q-6 0 -10 7q-29 64 -89 102t-131 38q-68 0 -127 -36t-89 -97q-5 -9 -14 -5
q-10 5 -5 14q32 66 96.5 105.5t138.5 39.5q78 0 142.5 -41.5t96.5 -111.5q5 -8 -5 -14q-1 0 -2 -1h-2zM254 0q-76 0 -140 40t-96 107q-6 10 5 14q9 5 14 -5q29 -62 88 -98.5t129 -36.5q68 0 126 35t89 95q4 10 14 4q9 -5 5 -14q-34 -65 -97 -103t-137 -38zM255 69
q-47 0 -79 54t-32 133t32 133t79 54t79.5 -54t32.5 -133t-32.5 -133t-79.5 -54zM255 422q-37 0 -63.5 -49t-26.5 -117t26.5 -117t63.5 -49t63.5 49t26.5 117t-26.5 117t-63.5 49zM255 69q-10 0 -10 11v352q0 11 10 11q11 0 11 -11v-352q0 -11 -11 -11zM436 245h-361
q-11 0 -11 11t11 11h361q10 0 10 -11t-10 -11zM413 328h-315q-11 0 -11 11t11 11h315q11 0 11 -11t-11 -11zM413 162h-315q-11 0 -11 11t11 11h315q11 0 11 -11t-11 -11zM489 339q-2 0 -3 1l-57 18q-11 4 -7 14q4 9 13 7l46 -16l10 43q2 10 13 8q10 -4 8 -13l-13 -54
q0 -4 -5 -7q-1 -1 -5 -1zM11 99h-3q-10 2 -8 13l13 53q0 5 5 7q3 3 8 1l57 -19q11 -4 7 -13q-4 -11 -13 -7l-46 15l-10 -42q-2 -8 -10 -8z"/>
</svg>