<svg xmlns="http://www.w3.org/2000/svg" viewBox="0 0 512 512">
    <defs><style>.color1{fill:#000000;}</style></defs>
    <title>science-69</title>
    <path class="color1" transform="scale(1, -1) translate(0, -512)" d="M332 7q-44 0 -76 32q-32 -32 -76 -32q-63 0 -93 56h-2q-35 0 -60 25t-25 60q0 33 23 58q-18 21 -18 49q0 49 45 69q0 2 -0.5 6t-0.5 6q0 26 16.5 46.5t42.5 26.5q1 27 20.5 45.5t47.5 17.5q15 33 51 33q15 0 29 -8q14 8 29 8q35 0 52 -33q27 1 46.5 -17.5t20.5 -45.5
q26 -6 42.5 -26.5t16.5 -46.5q0 -2 -0.5 -6t-0.5 -6q45 -20 45 -69q0 -28 -18 -49q23 -25 23 -58q0 -35 -25 -60t-60 -25h-2q-30 -56 -93 -56zM256 66q5 0 8 -4q27 -33 68 -33q54 0 77 50q4 7 11 6h7q26 0 45 18.5t19 44.5q0 30 -24 49q-3 3 -3 9q0 5 3 8q19 16 19 41
q0 18 -11 32.5t-29 19.5q-5 3 -6 5q-2 4 -1 8q2 5 2 16q0 21 -14 36.5t-35 17.5q-4 0 -7 4t-2 8v5q0 18 -12.5 31t-31.5 13q-5 0 -8 -1q-9 -2 -12 8q-7 25 -34 25q-14 0 -22 -8q-7 -5 -14 0q-8 8 -22 8q-27 0 -34 -25q-3 -10 -12 -8q-3 1 -8 1q-19 0 -31.5 -13t-12.5 -31v-5
q1 -4 -2 -8t-7 -4q-21 -2 -35 -17.5t-14 -36.5q0 -11 2 -16t-1 -8q-1 -2 -6 -5q-18 -5 -29 -19.5t-11 -32.5q0 -25 19 -41q4 -4 3 -8q0 -6 -3 -9q-24 -19 -24 -49q0 -26 19 -44.5t45 -18.5h7q7 1 11 -6q23 -50 77 -50q41 0 68 33q3 4 8 4zM202 364q-9 0 -16 7q-8 7 0 15
t15 0q2 -1 4.5 1t6.5 7t7 12q15 28 6 37q-7 9 1 15q8 8 15 -1q12 -16 4.5 -42t-23.5 -41q-10 -10 -20 -10zM106 236q-4 0 -5 1q-13 6 -14 21q-1 12 6.5 25t16.5 19q10 7 31.5 8.5t32.5 -4.5q8 -5 5 -15q-6 -10 -15 -4q-6 3 -21.5 2t-20.5 -5q-5 -2 -9.5 -10.5t-3.5 -14.5
l1 -3q10 -5 5 -14q-3 -6 -9 -6zM159 61q-11 0 -11 11q0 1 0.5 3t0.5 4q0 24 -7 30q-14 13 -54 0q-11 -4 -13 7q-3 10 7 14q51 15 75 -5q13 -12 13 -47v-6q0 -11 -11 -11zM184 326h-1q-15 0 -26 13q-16 19 -12 63q0 10 12 10q11 -2 9 -12q-4 -33 8 -48q5 -5 11 -5
q11 -2 9 -12q0 -9 -10 -9zM150 109q-8 0 -11 8q-2 10 8 13q41 10 51 45q2 11 13 7q11 -2 7 -13q-12 -46 -66 -60h-2zM79 173q-5 0 -8 4q-7 7 2 15q24 19 69 17h2q12 -1 16 1.5t10 12.5q1 2 4 6.5l5 7.5q5 9 15 3q9 -7 2 -15q-1 -2 -3.5 -6t-3.5 -6q-6 -10 -10.5 -15
t-13.5 -8t-22 -3h-1q-39 2 -56 -12q-2 -2 -7 -2zM310 364q-10 0 -20 10q-16 15 -23.5 41t4.5 42q7 9 15 1q8 -6 1 -15q-9 -9 6 -38q10 -20 17 -20q7 8 16 1q8 -8 0 -15q-7 -7 -16 -7zM406 236q-6 0 -9 6q-5 9 5 14q1 1 1 3q1 6 -3.5 14.5t-9.5 10.5q-5 4 -20.5 5t-21.5 -2
q-9 -6 -15 4q-3 10 5 15q11 6 32.5 4.5t31.5 -8.5q9 -6 16.5 -19t6.5 -25q-1 -15 -14 -21q-1 -1 -5 -1zM353 61q-11 0 -11 11v6q0 35 13 47q24 20 75 5q10 -4 7 -14q-2 -11 -13 -7q-40 13 -54 0q-7 -6 -7 -30q0 -2 0.5 -4t0.5 -3q0 -11 -11 -11zM328 326q-10 0 -10 9
q-2 10 9 12q6 0 11 5q12 15 8 48q-2 10 9 12q12 0 12 -10q4 -44 -12 -63q-11 -13 -26 -13h-1zM362 109h-2q-54 14 -66 60q-4 11 7 13q11 4 13 -7q11 -35 51 -45q10 -3 8 -13q-3 -8 -11 -8zM433 173q-5 0 -7 2q-17 14 -56 12h-1q-19 -1 -28 5t-18 21q-1 2 -3.5 6t-3.5 6
q-7 8 2 15q10 6 15 -3l5 -7.5t4 -6.5q4 -7 6.5 -9.5t6.5 -4t13 -0.5h2q45 2 69 -17q9 -8 2 -15q-3 -4 -8 -4zM256 236q-11 0 -11 10v83q0 11 11 11t11 -11v-83q0 -10 -11 -10zM253 88q-10 0 -10 11v66q0 11 10 11q11 0 11 -11v-66q0 -11 -11 -11z"/>
</svg>