<svg xmlns="http://www.w3.org/2000/svg" viewBox="0 0 512 512">
    <defs><style>.color1{fill:#000000;}</style></defs>
    <title>science-75</title>
    <path class="color1" transform="scale(1, -1) translate(0, -512)" d="M272 277h-81q-11 0 -11 10q0 11 11 11h81q10 0 10 -11q0 -10 -10 -10zM376 277h-38q-11 0 -11 10q0 11 11 11h38q11 0 11 -11q0 -10 -11 -10zM446 73h-165q-11 0 -11 11t11 11h165q19 0 32 13t13 31v93q0 19 -13 32t-32 13q-10 0 -10 10q0 11 10 11q28 0 47 -19.5
t19 -46.5v-93q0 -27 -19 -46.5t-47 -19.5zM412 44q-10 0 -10 11v29q0 11 10 11q11 0 11 -11v-29q0 -11 -11 -11zM418 125h-11q-16 0 -27 11t-11 27v208q0 11 10 11q11 0 11 -11v-208q0 -16 17 -16h11q7 0 12 4.5t5 11.5v208q0 11 11 11q10 0 10 -11v-208q0 -16 -11 -27
t-27 -11zM311 125h-12q-16 0 -27 11t-11 27v208q0 11 11 11q10 0 10 -11v-208q0 -7 5 -11.5t12 -4.5h12q16 0 16 16v208q0 11 11 11t11 -11v-208q0 -16 -11 -27t-27 -11zM245 0h-199h-2q-2 0 -8 2.5t-16 10t-15 18.5q-14 29 9 70l77 150v161h-36q-10 0 -10 11v78q0 11 10 11
h181q11 0 11 -11v-78q0 -11 -11 -11h-36v-161l77 -150q23 -41 9 -70q-5 -11 -14.5 -18.5t-16 -10t-8.5 -2.5h-2zM47 21h197q17 6 23 19q9 20 -9 51l-78 153q-1 1 -1 4v175q0 11 10 11h36v57h-159v-57h36q10 0 10 -11v-175q0 -3 -1 -4l-78 -152q-18 -33 -9 -52q6 -13 23 -19z
M211 195h-131q-11 0 -11 11q0 10 11 10h131q11 0 11 -10q0 -11 -11 -11z"/>
</svg>