<svg xmlns="http://www.w3.org/2000/svg" viewBox="0 0 512 512">
    <defs><style>.color1{fill:#000000;}</style></defs>
    <title>science-8</title>
    <path class="color1" transform="scale(1, -1) translate(0, -512)" d="M150 0q-58 0 -98 40l-12 12q-40 40 -40 98q0 57 40 97l225 225q40 40 97 40q58 0 98 -40l12 -12q40 -40 40 -98q0 -57 -40 -97l-225 -225q-40 -40 -97 -40zM362 491q-48 0 -82 -34l-225 -225q-34 -34 -34 -82q0 -49 34 -83l12 -12q34 -34 83 -34q48 0 82 34l225 225
q34 34 34 82q0 49 -34 83l-12 12q-34 34 -83 34zM350 152q-5 0 -8 3l-187 187q-7 8 0 15t15 0l187 -187q7 -8 0 -15q-3 -3 -7 -3z"/>
</svg>