<svg xmlns="http://www.w3.org/2000/svg" viewBox="0 0 512 512">
    <defs><style>.color1{fill:#000000;}</style></defs>
    <title>science-87</title>
    <path class="color1" transform="scale(1, -1) translate(0, -512)" d="M114 31q-20 0 -34 15.5t-14 37.5v241q0 10 11 10h74q10 0 10 -10v-241q0 -22 -14 -37.5t-33 -15.5zM87 314v-230q0 -13 8 -22t19 -9t18.5 9t7.5 22v230h-53zM172 314h-117q-11 0 -11 11q0 10 11 10h117q11 0 11 -10q0 -11 -11 -11zM402 87q-20 0 -34 15.5t-14 37.5v241
q0 11 11 11h74q10 0 10 -11v-241q0 -22 -14 -37.5t-33 -15.5zM375 370v-230q0 -13 8 -22t19 -9t18.5 9t7.5 22v230h-53zM460 370h-117q-11 0 -11 11t11 11h117q11 0 11 -11t-11 -11zM256 0q-11 0 -11 11v485q0 11 11 11t11 -11v-485q0 -11 -11 -11zM501 0h-490q-11 0 -11 11
q0 10 11 10h490q11 0 11 -10q0 -11 -11 -11zM256 243h-105q-11 0 -11 10q0 11 11 11h105q11 0 11 -11q0 -10 -11 -10zM365 314h-109q-11 0 -11 11q0 10 11 10h109q10 0 10 -10q0 -11 -10 -11zM127 375q0 6 -4.5 10.5t-10.5 4.5q-14 0 -14 -15q0 -5 4 -9.5t10 -4.5t10.5 4.5
t4.5 9.5zM85 414q0 8 -8 8q-9 0 -9 -8q0 -9 9 -9q8 0 8 9zM127 442q0 7 -6 7q-7 0 -7 -7q0 -6 7 -6q6 0 6 6zM417 428q0 14 -14 14q-15 0 -15 -14t15 -14q14 0 14 14zM376 466q0 9 -9 9q-8 0 -8 -9q0 -8 8 -8q9 0 9 8zM418 495q0 6 -7 6q-6 0 -6 -6t6 -6q7 0 7 6z"/>
</svg>