<svg xmlns="http://www.w3.org/2000/svg" viewBox="0 0 512 512">
    <defs><style>.color1{fill:#000000;}</style></defs>
    <title>clothes-21</title>
    <path class="color1" transform="scale(1, -1) translate(0, -512)" d="M256 385q-5 0 -8 4q-42 54 -42 76q0 20 14.5 33.5t35.5 13.5t35.5 -13.5t14.5 -33.5q0 -22 -42 -76q-3 -4 -8 -4zM256 491q-12 0 -20.5 -7.5t-8.5 -18.5q0 -13 29 -52q29 39 29 52q0 11 -8.5 18.5t-20.5 7.5zM256 0q-51 0 -85.5 7t-43 12.5t-11.5 10.5q-2 4 -2 6
q-2 59 16.5 140t46.5 106q30 27 19 71l-21 54q-4 9 4 13l43 25q10 6 15 -3q5 -10 -4 -15l-35 -20l18 -46v-1q2 -6 3.5 -17.5t-4 -35.5t-23.5 -40q-23 -21 -40.5 -95.5t-15.5 -130.5q24 -20 120 -20q11 0 11 -10q0 -11 -11 -11zM256 0q-11 0 -11 11q0 10 11 10q89 0 121 20
q2 57 -16 131t-41 95q-18 16 -23.5 40t-4 35.5t3.5 17.5v1l18 46l-35 20q-9 5 -4 15q5 9 15 3l43 -25q8 -4 4 -13l-21 -54q-9 -46 19 -71t46.5 -106t16.5 -140q0 -2 -2 -6q-3 -5 -11.5 -10.5t-43 -12.5t-85.5 -7z"/>
</svg>