<svg xmlns="http://www.w3.org/2000/svg" viewBox="0 0 512 512">
    <defs><style>.color1{fill:#000000;}</style></defs>
    <title>clothes-22</title>
    <path class="color1" transform="scale(1, -1) translate(0, -512)" d="M176 406q-8 0 -10 9l-14 85q-2 10 9 12q10 2 12 -9l14 -85q2 -10 -9 -12h-2zM256 0q-5 0 -9 4q0 2 -11 12t-42.5 26t-73.5 24q-8 2 -8 10q1 5 -0.5 20t6.5 41t25 42q14 13 16 32t-3.5 34.5t-14.5 28.5q-27 44 -16 91q9 40 46 61q5 4 11 0l74 -49l74 49q6 4 11 0
q37 -21 46 -61q11 -47 -16 -91q-9 -13 -14.5 -28.5t-3.5 -34.5t16 -32q17 -16 25 -42t6.5 -41t-0.5 -20q0 -8 -8 -10q-42 -8 -73.5 -24t-42.5 -26t-11 -12q-4 -4 -9 -4zM133 85q83 -19 123 -59q40 40 123 59q3 53 -25 79q-24 27 -23 59.5t22 62.5q22 34 14 74q-6 27 -31 44
l-74 -49q-6 -3 -12 0l-74 49q-23 -16 -31 -44q-8 -40 14 -74q21 -30 22 -62.5t-23 -59.5q-28 -26 -25 -79zM336 406h-2q-11 2 -9 12l14 85q2 11 12 9q11 -2 9 -12l-14 -85q-2 -9 -10 -9zM256 125q-11 0 -11 11v147q0 11 11 11t11 -11v-147q0 -11 -11 -11z"/>
</svg>