<svg xmlns="http://www.w3.org/2000/svg" viewBox="0 0 512 512">
    <defs><style>.color1{fill:#000000;}</style></defs>
    <title>clothes-27</title>
    <path class="color1" transform="scale(1, -1) translate(0, -512)" d="M281 0h-50q-4 0 -7 3t-3 8q0 46 -26 73q-21 24 -63 24q-10 0 -10 10v29q0 11 10 11h248q10 0 10 -11v-29q0 -10 -10 -10q-42 0 -64 -24q-25 -27 -25 -73q0 -5 -3 -8t-7 -3zM242 21h28q3 47 31 78q25 27 68 30v8h-226v-8q43 -3 68 -30q28 -31 31 -78zM121 392
q-10 0 -10 10v99q0 11 10 11q11 0 11 -11v-99q0 -10 -11 -10zM354 243q-44 0 -98 29q-54 -29 -98 -29q-38 0 -56 24q-29 37 -5 131q2 7 8 7l3 1h5.5h7.5q79 0 135 -63q56 63 135 63h7.5h5.5l3 -1q6 0 8 -7q24 -94 -5 -131q-18 -24 -56 -24zM256 295q3 0 5 -2l6 -3
q6 -3 15.5 -7t21 -8t25.5 -7t25 -3q27 0 39 15q21 29 3 105h-5q-75 0 -127 -65q-8 -10 -16 0q-52 65 -127 65h-5q-18 -76 3 -105q12 -15 39 -15q11 0 25 3t25.5 7t21 8t15.5 7l6 3q2 2 5 2zM391 392q-11 0 -11 10v99q0 11 11 11q10 0 10 -11v-99q0 -10 -10 -10z"/>
</svg>