<svg xmlns="http://www.w3.org/2000/svg" viewBox="0 0 512 512">
    <defs><style>.color1{fill:#000000;}</style></defs>
    <title>clothes-35</title>
    <path class="color1" transform="scale(1, -1) translate(0, -512)" d="M58 126q-5 0 -6 2l-47 30q-8 5 -4 14l114 215q5 8 15 5q10 -6 4 -15l-109 -206l30 -20l61 80q7 7 15 2q9 -8 2 -15l-67 -88q-3 -4 -8 -4zM256 75h-128q-10 0 -10 11v143v4q4 11 7 23.5t3.5 23.5t0.5 22t-1 20.5t-2.5 18t-3.5 15.5t-3.5 11.5l-2.5 7.5l-1 3q-4 7 3 12
q3 3 13.5 11t31.5 18.5t38 12.5h4q4 1 10.5 1.5t13.5 1.5t14.5 1.5t12.5 0.5q11 0 11 -11q0 -10 -11 -10q-5 0 -12 -0.5l-14 -1t-13 -1.5t-10 -1l-4 -1q-27 -4 -66 -32q28 -78 2 -152v-131h117q11 0 11 -10q0 -11 -11 -11zM256 293q-4 0 -8.5 1.5t-13.5 8.5t-17.5 19
t-19 35.5t-19.5 55.5q-2 11 8 13q9 4 13 -7q8 -28 16.5 -49t15.5 -31t13 -16.5t10 -7.5l3 -1q10 0 10 -11q0 -10 -11 -10zM454 126q-5 0 -8 4l-67 88q-7 7 2 15q8 5 15 -2l61 -80l30 20l-109 206q-6 9 4 15q10 3 15 -5l114 -215q4 -9 -4 -14l-47 -30q-1 -2 -6 -2zM384 75
h-128q-11 0 -11 11q0 10 11 10h117v131q-26 74 2 152q-42 29 -66 32l-4 1q-4 0 -10 1t-13 1.5l-14 1t-12 0.5q-11 0 -11 10q0 11 11 11q8 0 21.5 -1.5t24.5 -2.5l10 -1q17 -2 37.5 -12.5t31 -18.5t13.5 -11q7 -5 3 -12l-1 -3l-2.5 -7.5t-3.5 -11.5t-3.5 -15.5t-2.5 -18
t-1 -20.5t0.5 -22t3.5 -23.5t7 -23.5v-4v-143q0 -11 -10 -11zM256 293q-9 0 -11 10q0 11 10 11q34 17 58 105q4 11 13 7q10 -2 8 -13q-9 -32 -19.5 -55.5t-19 -35.5t-17.5 -19t-13.5 -8.5t-8.5 -1.5z"/>
</svg>