<svg xmlns="http://www.w3.org/2000/svg" viewBox="0 0 512 512">
    <defs><style>.color1{fill:#000000;}</style></defs>
    <title>clothes-59</title>
    <path class="color1" transform="scale(1, -1) translate(0, -512)" d="M501 0h-490q-11 0 -11 11v490q0 11 11 11h490q11 0 11 -11v-490q0 -11 -11 -11zM21 21h470v470h-470v-470zM256 245q-11 0 -11 11v236q0 11 11 11t11 -11v-236q0 -11 -11 -11zM11 245q-8 0 -10 7q-4 11 6 14q45 18 75.5 48t42 56.5t15.5 57.5t3 42.5t-2 19.5q-2 10 8 12
q11 4 13 -8v-1q12 -88 -35 -159q-39 -58 -112 -88h-3zM501 245l-1 1h-3q-48 19 -80.5 51.5t-46 60.5t-18.5 63t-4.5 47.5t2.5 24.5v1q2 12 13 8q10 -2 8 -12q-1 -8 -2 -19.5t3 -42.5t15.5 -57.5t42 -56.5t75.5 -48q10 -3 6 -14q-2 -7 -10 -7z"/>
</svg>