<svg xmlns="http://www.w3.org/2000/svg" viewBox="0 0 512 512">
    <defs><style>.color1{fill:#000000;}</style></defs>
    <title>clothes-67</title>
    <path class="color1" transform="scale(1, -1) translate(0, -512)" d="M147 398q-11 0 -11 10v93q0 11 11 11t11 -11v-93q0 -10 -11 -10zM413 0h-314q-5 0 -8 4q-3 3 -3 8l1 8q1 9 3 21t5 28t7.5 33t9.5 33.5t12.5 31.5t15.5 25q14 17 11 35q-1 10 -7 20t-12 15l-5 5q-2 2 -3 4q-5 10 -11.5 30t-5.5 55.5t25 52.5q4 2 5 2q5 1 12 1
q67 0 105 -69q38 69 105 69l12 -1q1 0 5 -2q24 -17 25 -52.5t-5.5 -55.5t-11.5 -30q-1 -2 -3 -4q-22 -18 -24 -41q-3 -17 11 -34q8 -10 15.5 -25t12.5 -31.5t9.5 -33.5t7.5 -33t5 -28t3 -21l1 -8q0 -5 -3 -8q-3 -4 -8 -4zM111 21h290q-15 117 -48 158q-18 24 -15 50
q3 30 30 53q33 80 -1 108q-8 1 -17 -0.5t-25 -7t-32 -23.5t-27 -45q-3 -6 -10 -6t-10 6q-11 27 -27 45t-32 23.5t-25 7t-17 0.5q-14 -12 -14.5 -37.5t4.5 -42.5t10 -28q26 -26 29 -53q3 -26 -15 -50q-33 -41 -48 -158zM365 398q-11 0 -11 10v93q0 11 11 11t11 -11v-93
q0 -10 -11 -10zM351 242q-2 0 -4 1q-43 16 -87.5 16t-67.5 -8l-23 -8q-11 -4 -14 5q-5 9 5 15l4 1q4 2 10 3.5t15 4t19.5 4t23 3t27 1t30 -1.5t32.5 -5t34 -10q9 -4 6 -14q-3 -7 -10 -7z"/>
</svg>