<svg xmlns="http://www.w3.org/2000/svg" viewBox="0 0 512 512">
    <defs><style>.color1{fill:#000000;}</style></defs>
    <title>clothes-74</title>
    <path class="color1" transform="scale(1, -1) translate(0, -512)" d="M348 0h-184q-2 0 -6 2l-5 3q-8 4 -12 30t0 69t18 85q25 74 4 186l-38 -41q-8 -8 -15 -1l-47 37q-8 6 -2 14l70 103q3 3 6 4l55 20q4 3 10 -1q4 -3 4 -9q0 -25 5 -44t11 -28.5t14 -16t12 -7.5l8 -2l8 2t12 7.5t14 16t11 28.5t5 44q0 6 4 9q6 4 10 1l55 -20q3 -1 6 -4
l70 -103q6 -8 -2 -14l-47 -37q-7 -7 -15 1l-38 41q-21 -112 4 -186q14 -42 18 -85t0 -69t-12 -30l-5 -3q-4 -2 -6 -2zM167 21h178q3 10 5.5 28.5t-1 56.5t-16.5 76q-27 81 0 218q2 5 8 7q5 2 10 -3l45 -49l32 25l-63 92l-38 14q-2 -28 -9.5 -49t-17 -31t-20 -16t-16 -7
t-7.5 -1h-2q-2 0 -7.5 1t-16 7t-20 16t-17 31t-9.5 49l-38 -14l-63 -92l32 -25l45 49q5 5 10 3q6 -2 8 -7q27 -137 0 -218q-13 -38 -16.5 -76t-1 -56.5t5.5 -28.5zM314 491h-116q-10 0 -10 10q0 11 10 11h116q10 0 10 -11q0 -10 -10 -10z"/>
</svg>