<svg xmlns="http://www.w3.org/2000/svg" viewBox="0 0 512 512">
    <defs><style>.color1{fill:#000000;}</style></defs>
    <title>weather-14</title>
    <path class="color1" transform="scale(1, -1) translate(0, -512)" d="M109 254h-30q-2 0 -6 2q-32 7 -52.5 33.5t-20.5 60.5q0 39 26 67t63 28q8 0 11 -1q10 30 40.5 49t69.5 19q49 0 82 -28q9 -7 1 -15q-7 -7 -15 -1q-29 24 -69 24q-34 0 -60.5 -17.5t-30.5 -43.5q0 -5 -5 -8q-4 -3 -8 -1q-6 3 -18 3q-27 -2 -46.5 -23.5t-19.5 -51.5
q0 -28 17 -49t42 -25q2 0 3 -1h26q10 0 10 -10q0 -11 -10 -11zM433 225h-256q-38 0 -64.5 22t-26.5 54q0 31 27 53.5t64 22.5q9 0 14 -2q-2 12 -2 18q0 37 33 63.5t80 26.5q39 0 69.5 -19t40.5 -49q3 1 11 1q37 0 63 -28t26 -67q0 -34 -20.5 -60.5t-52.5 -33.5q-4 -2 -6 -2z
M177 355q-29 0 -49 -16t-20 -38q0 -23 20 -39t49 -16h252h1l2 1q25 4 42 25t17 49q0 31 -20 52.5t-48 21.5q-5 0 -17 -2q-5 -3 -8 1q-3 2 -5 7q-4 26 -30.5 43.5t-60.5 17.5q-38 0 -65 -20.5t-27 -48.5q0 -16 8 -27q4 -7 -1 -12q-6 -4 -12 -3q-20 4 -28 4zM254 0
q-25 0 -42.5 17t-17.5 42q0 8 4.5 22.5t12 32l13.5 31.5t13 28l7 14q2 5 9 5t10 -5q10 -16 30.5 -63t20.5 -65q0 -24 -17.5 -41.5t-42.5 -17.5zM254 158q-39 -78 -39 -99q0 -16 11.5 -27t27.5 -11t27 11t11 27q0 21 -38 99z"/>
</svg>