<svg xmlns="http://www.w3.org/2000/svg" viewBox="0 0 512 512">
    <defs><style>.color1{fill:#000000;}</style></defs>
    <title>weather-15</title>
    <path class="color1" transform="scale(1, -1) translate(0, -512)" d="M109 271h-41v3q-30 8 -49 32t-19 55q0 37 26 62.5t63 25.5q8 0 11 -1q9 28 39.5 46t70.5 18q48 0 82 -26l-13 -17q-30 22 -69 22q-34 0 -60.5 -16.5t-30.5 -39.5l-1 -10l-10 2q-4 0 -10 0.5t-9 0.5q-28 0 -48 -19.5t-20 -47.5q0 -26 17 -45t42 -23l7 -1h22v-21zM444 245
h-267q-38 0 -64.5 20.5t-26.5 50.5q0 29 27 50t64 21q10 0 14 -1q-2 10 -2 15q0 35 33 59.5t80 24.5q39 0 69.5 -17.5t39.5 -45.5q4 1 12 1q37 0 63 -25.5t26 -62.5q0 -31 -19 -55t-49 -31v-4zM177 366q-28 0 -48.5 -15t-20.5 -35t20 -34.5t49 -14.5h248l7 1q25 3 42 22.5
t17 44.5q0 28 -20 47.5t-48 19.5q-5 0 -17 -2l-11 -4l-2 13q-4 23 -30.5 39t-60.5 16q-38 0 -65 -18.5t-27 -44.5q0 -13 7 -23l13 -22l-24 6q-18 4 -29 4zM334 5l-19 11l50 92l-87 -29l67 129l19 -11l-43 -82l89 31zM132 5l-19 11l50 92l-87 -29l67 129l19 -11l-44 -82
l90 31z"/>
</svg>