<svg xmlns="http://www.w3.org/2000/svg" viewBox="0 0 512 512">
    <defs><style>.color1{fill:#000000;}</style></defs>
    <title>weather-22</title>
    <path class="color1" transform="scale(1, -1) translate(0, -512)" d="M109 270h-41v3q-30 7 -49 31t-19 55q0 38 26 64t63 26q8 0 12 -1q9 28 39.5 46t69.5 18q48 0 82 -26l-13 -17q-30 22 -69 22q-35 0 -61 -16.5t-30 -40.5l-2 -13l-11 5q-12 2 -17 2q-28 0 -48 -20t-20 -49q0 -26 17 -45.5t42 -21.5l9 -1h19v-21h1zM175 244q-37 0 -63 20.5
t-26 50.5q0 29 27 50t64 21q10 0 14 -1q-2 10 -2 16q0 36 33 60.5t80 24.5q39 0 69.5 -18t39.5 -46q4 1 12 1q37 0 63 -26t26 -63q0 -32 -19 -56t-49 -31v-2l-11 -1h-258zM177 365q-28 0 -48.5 -15t-20.5 -35q0 -21 19 -35t48 -14h253l4 1q25 2 42 21.5t17 45.5q0 28 -20 48
t-48 20q-5 0 -17 -2l-11 -4l-2 13q-4 24 -30 40t-61 16q-38 0 -65 -19t-27 -45q0 -14 7 -24l13 -22l-24 6q-18 4 -29 4zM77 202l21 -4l-9 -40l-21 5zM40 86l21 -5l-9 -40l-21 5zM211 129l21 -5l-10 -39l-20 5zM422 153q-34 0 -54 11l-12 9q-21 16 -51 16q-16 0 -52 -6
q-30 -8 -70 -4.5t-64 27.5l15 15q20 -20 52 -22t63 6q30 5 55 5q38 0 63 -20q1 -1 4.5 -3.5t6.5 -4.5q13 -9 55 -7h13v-21h-12q-3 -1 -12 -1zM422 77q-35 0 -53 12q-2 2 -6 4.5t-6 3.5q-21 16 -51 16v21q38 0 63 -20q10 -6 11 -7q14 -10 55 -8h13v-21h-12q-5 -1 -14 -1z
M422 1q-35 0 -54 12q-2 1 -6 3.5t-6 4.5q-21 16 -51 16q-7 0 -52 -5q-30 -8 -70 -5t-64 27l15 15q19 -20 51.5 -22t63.5 6q27 6 55 6q24 0 35.5 -4.5t27.5 -16.5q10 -6 11 -7q13 -10 55 -8h13v-21h-12q-3 -1 -12 -1z"/>
</svg>