<svg xmlns="http://www.w3.org/2000/svg" viewBox="0 0 512 512">
    <defs><style>.color1{fill:#000000;}</style></defs>
    <title>weather-24</title>
    <path class="color1" transform="scale(1, -1) translate(0, -512)" d="M259 0q-107 0 -183 75.5t-76 182.5q0 93 60 165.5t152 89.5q9 2 12 -5q3 -8 -2 -13q-72 -72 -72 -170q0 -97 70 -166.5t168 -69.5q23 0 43 3q9 2 11 -6q4 -7 -3 -12q-71 -74 -180 -74zM183 483q-72 -25 -117 -86.5t-45 -138.5q0 -98 70 -167.5t168 -69.5q81 0 142 46h-13
q-107 0 -183 75.5t-76 182.5q0 87 54 158zM374 342q-3 0 -6 3q-6 4 -4 10l8 48l-35 34q-5 6 -3 11q1 5 8 7l49 7l22 44q3 6 9 6q7 0 10 -6l22 -44l49 -7q6 -2 9 -7q2 -8 -3 -11l-35 -34l8 -48q2 -6 -4 -10q-5 -5 -12 -2l-44 24l-42 -24q-2 -1 -6 -1zM422 389q4 0 6 -1
l30 -16l-6 32q-2 7 3 10l23 23l-33 5q-6 0 -9 5l-15 30l-12 -29q-3 -4 -9 -6l-32 -5l23 -23q4 -3 4 -10l-6 -32l29 15q1 2 4 2zM299 178q-3 0 -7 2q-6 4 -4 11l6 35l-25 25q-5 5 -3 10q1 6 8 8l35 5l17 32q5 5 10 5q6 0 10 -6l16 -32l36 -5q7 -2 8 -8q2 -7 -3 -10l-25 -25
l5 -35q2 -7 -4 -11q-6 -3 -11 -1l-31 17l-32 -17h-6zM336 219q3 0 5 -1l17 -10l-3 19q-1 4 3 10l14 14l-20 3q-5 0 -7 6l-9 18l-10 -18q-2 -5 -7 -5l-20 -4l15 -14q3 -3 3 -10l-3 -19l18 10q1 1 4 1z"/>
</svg>