<svg xmlns="http://www.w3.org/2000/svg" viewBox="0 0 512 512">
    <defs><style>.color1{fill:#000000;}</style></defs>
    <title>weather-52</title>
    <path class="color1" transform="scale(1, -1) translate(0, -512)" d="M395 188h-279q-48 0 -82 34t-34 82t34 82t82 34h42q12 41 45.5 66.5t75.5 25.5q43 0 76.5 -25.5t45.5 -66.5q46 -2 78 -34q34 -35 32 -82q0 -48 -34 -82t-82 -34zM116 399q-39 0 -67 -28t-28 -67t28 -67t67 -28h279q39 0 67 28t28 67q0 40 -27 67q-28 28 -67 28h-12l-2 8
q-8 37 -36.5 60.5t-66.5 23.5q-37 0 -65.5 -23.5t-36.5 -60.5l-2 -8h-59zM165 158l15 -15l-28 -28l-15 15zM109 101l15 -15l-26 -27l-15 15zM54 45l15 -15l-28 -27l-15 16zM277 157l16 -14l-27 -28l-15 15zM221 101l15 -15l-26 -27l-15 16zM166 45l15 -15l-28 -27l-15 16z
M389 157l16 -14l-27 -28l-15 15zM333 101l15 -15l-26 -27l-15 16zM278 44l15 -15l-27 -26l-15 15z"/>
</svg>