<svg xmlns="http://www.w3.org/2000/svg" viewBox="0 0 512 512">
    <defs><style>.color1{fill:#000000;}</style></defs>
    <title>media-103</title>
    <path class="color1" transform="scale(1, -1) translate(0, -512)" d="M501 58h-490q-11 0 -11 11v153q0 2 1 3l36 111q2 8 10 8h370q6 0 10 -6l84 -161q1 -1 1 -5v-103q0 -11 -11 -11zM21 80h470v90l-80 152h-357l-33 -102v-140zM450 170h-119q-11 0 -11 10v114q0 11 11 11h55q7 0 10 -5l62 -113q3 -3 3 -7q0 -10 -11 -10zM341 191h91l-52 93
h-39v-93zM412 0q-25 0 -43 18.5t-18 44.5q0 11 10 11q11 0 11 -11q0 -17 12 -29.5t28 -12.5t28 12.5t12 29.5q0 11 11 11q10 0 10 -11q0 -26 -18 -44.5t-43 -18.5zM151 0q-26 0 -44 18.5t-18 44.5q0 11 11 11t11 -11q0 -17 12 -29.5t28 -12.5t28 12.5t12 29.5q0 11 10 11
q11 0 11 -11q0 -26 -18 -44.5t-43 -18.5zM51 101q-5 0 -8 3q-6 5 -1 13q4 7 11 17t29 34.5t46 44t62.5 38t78.5 24.5q5 0 8 -3q4 -4 4 -8v-105q0 -6 -5 -9q-6 -3 -11 0q-14 7 -42 7q-70 0 -167 -55q-1 -1 -5 -1zM259 251q-96 -19 -172 -109q76 36 136 36q20 0 36 -4v77z
M255 345q-41 0 -70.5 29t-29.5 69q0 39 25 65q5 7 14 2l145 -101q8 -6 3 -14q-29 -50 -87 -50zM190 487q-14 -20 -14 -44q0 -32 23 -54.5t56 -22.5q39 0 63 32zM258 442q-5 0 -7 2q-8 8 -1 15l41 49q7 8 15 2t2 -16l-42 -49q-3 -3 -8 -3zM202 324q-10 0 -10 11v38
q0 11 10 11q11 0 11 -11v-38q0 -11 -11 -11z"/>
</svg>