<svg xmlns="http://www.w3.org/2000/svg" viewBox="0 0 512 512">
    <defs><style>.color1{fill:#000000;}</style></defs>
    <title>media-109</title>
    <path class="color1" transform="scale(1, -1) translate(0, -512)" d="M447 34h-382q-27 0 -46 20.5t-19 49.5v22q0 29 19 49.5t46 20.5h382q27 0 46 -20.5t19 -49.5v-22q0 -29 -19 -49.5t-46 -20.5zM65 175q-18 0 -31 -14.5t-13 -34.5v-22q0 -20 13 -34.5t31 -14.5h382q18 0 31 14.5t13 34.5v22q0 20 -13 34.5t-31 14.5h-382zM28 159
q-4 0 -7 3q-8 7 0 15l340 332q8 6 16 0q8 -8 -1 -15l-340 -332q-3 -3 -8 -3zM84 0q-10 0 -10 11v34q0 10 10 10q11 0 11 -10v-34q0 -11 -11 -11zM428 0q-11 0 -11 11v34q0 10 11 10q10 0 10 -10v-34q0 -11 -10 -11zM364 196q-4 0 -8 4q-6 8 1 15l95 80q9 7 15 -1
q7 -8 -1 -16l-95 -79q-3 -3 -7 -3zM325 207q-10 0 -10 10v116q0 11 10 11q11 0 11 -11v-116q0 -10 -11 -10zM293 196q-3 0 -6 3l-93 74q-8 6 -1 15q6 8 15 1l92 -74q8 -5 2 -15q-6 -4 -9 -4z"/>
</svg>