<svg xmlns="http://www.w3.org/2000/svg" viewBox="0 0 512 512">
    <defs><style>.color1{fill:#000000;}</style></defs>
    <title>media-121</title>
    <path class="color1" transform="scale(1, -1) translate(0, -512)" d="M256 73q-91 0 -155 64.5t-64 155.5t64 155t155 64t155 -64t64 -155t-64 -155.5t-155 -64.5zM256 491q-82 0 -140 -58t-58 -140t58 -140.5t140 -58.5t140 58.5t58 140.5t-58 140t-140 58zM256 161q-55 0 -93.5 38.5t-38.5 93.5q0 54 38.5 92.5t93.5 38.5t93.5 -38.5
t38.5 -92.5q0 -55 -38.5 -93.5t-93.5 -38.5zM256 403q-46 0 -78 -32.5t-32 -77.5q0 -46 32 -78.5t78 -32.5t78 32.5t32 78.5q0 45 -32 77.5t-78 32.5zM179 282q-10 0 -10 11q0 36 25.5 61.5t61.5 25.5q11 0 11 -11t-11 -11q-27 0 -46.5 -19t-19.5 -46q0 -11 -11 -11zM256 0
h-224q-6 0 -9 5t0 11l72 138q4 11 14 5q9 -5 4 -14l-63 -124h206q11 0 11 -10q0 -11 -11 -11zM480 0h-224q-11 0 -11 11q0 10 11 10h206l-64 124q-4 9 5 14q10 6 14 -5l72 -138q3 -6 0 -11t-9 -5z"/>
</svg>