<svg xmlns="http://www.w3.org/2000/svg" viewBox="0 0 512 512">
    <defs><style>.color1{fill:#000000;}</style></defs>
    <title>media-129</title>
    <path class="color1" transform="scale(1, -1) translate(0, -512)" d="M462 0h-412q-20 0 -35 13t-15 32v222q0 19 15 32t35 13h412q20 0 35 -13t15 -32v-222q0 -19 -15 -32t-35 -13zM50 291q-11 0 -20 -7t-9 -17v-222q0 -10 9 -17t20 -7h412q11 0 20 7t9 17v222q0 10 -9 17t-20 7h-412zM355 388h-160q-11 0 -11 11v102q0 11 11 11h160
q11 0 11 -11v-102q0 -11 -11 -11zM205 410h140v81h-140v-81zM275 291q-11 0 -11 10v98q0 11 11 11t11 -11v-98q0 -10 -11 -10zM256 28q-53 0 -90.5 37.5t-37.5 90.5q0 52 38 90t90 38t90 -38t38 -90q0 -53 -37.5 -90.5t-90.5 -37.5zM256 262q-44 0 -75 -31t-31 -75t31 -75.5
t75 -31.5t75 31.5t31 75.5t-31 75t-75 31zM256 87q-28 0 -48.5 20.5t-20.5 48.5t20.5 48.5t48.5 20.5t48.5 -20.5t20.5 -48.5t-20.5 -48.5t-48.5 -20.5zM256 204q-20 0 -34 -14t-14 -34t14 -34t34 -14t34 14t14 34t-14 34t-34 14zM452 244h-27q-11 0 -11 11q0 10 11 10h27
q10 0 10 -10q0 -11 -10 -11zM139 326h-66q-11 0 -11 10q0 11 11 11h66q11 0 11 -11q0 -10 -11 -10z"/>
</svg>