<svg xmlns="http://www.w3.org/2000/svg" viewBox="0 0 512 512">
    <defs><style>.color1{fill:#000000;}</style></defs>
    <title>media-14</title>
    <path class="color1" transform="scale(1, -1) translate(0, -512)" d="M390 64q-34 0 -63.5 31.5t-45.5 76.5h-50q-16 -45 -45.5 -76.5t-63.5 -31.5q-47 0 -84.5 58.5t-37.5 114.5q0 50 36 86t86 36h7h2h250h2h7q50 0 86 -36t36 -86q0 -56 -37.5 -114.5t-84.5 -58.5zM223 193h66q8 0 10 -7q13 -40 38 -70t53 -30q38 0 69.5 52t31.5 99
q0 41 -29.5 71t-71.5 30q-2 0 -4 -0.5t-4 -0.5q-3 0 -4 1h-244q-1 -1 -4 -1q-2 0 -4 0.5t-4 0.5q-42 0 -71.5 -30t-29.5 -71q0 -47 31.5 -99t69.5 -52q28 0 53 30t38 70q2 7 10 7zM405 275q0 -6 -4.5 -10.5t-10.5 -4.5q-15 0 -15 15t15 15q6 0 10.5 -4.5t4.5 -10.5zM405 189
q0 -15 -15 -15t-15 15t15 15q6 0 10.5 -4.5t4.5 -10.5zM448 232q0 -6 -4.5 -10.5t-10.5 -4.5t-10.5 4.5t-4.5 10.5t4.5 10.5t10.5 4.5t10.5 -4.5t4.5 -10.5zM362 232q0 -6 -4.5 -10.5t-10.5 -4.5q-15 0 -15 15t15 15q6 0 10.5 -4.5t4.5 -10.5zM176 226h-91q-11 0 -11 11
t11 11h91q11 0 11 -11t-11 -11zM131 181q-11 0 -11 10v92q0 10 11 10q10 0 10 -10v-92q0 -10 -10 -10zM239 345q-5 0 -8 3.5t-2 7.5q0 6 2 17t12 32t27 32q33 21 85 0q10 -3 6 -14q-4 -9 -14 -6q-40 18 -66 2q-12 -8 -20 -24t-9 -28l-2 -12q-2 -10 -11 -10z"/>
</svg>