<svg xmlns="http://www.w3.org/2000/svg" viewBox="0 0 512 512">
    <defs><style>.color1{fill:#000000;}</style></defs>
    <title>media-27</title>
    <path class="color1" transform="scale(1, -1) translate(0, -512)" d="M454 37h-396q-24 0 -41 17t-17 41v276q0 25 17 42t41 17h396q24 0 41 -17t17 -42v-276q0 -24 -17 -41t-41 -17zM58 408q-15 0 -26 -10.5t-11 -26.5v-276q0 -15 11 -25.5t26 -10.5h396q15 0 26 10.5t11 25.5v276q0 16 -11 26.5t-26 10.5h-396zM365 98h-292q-11 0 -11 10
v245q0 11 11 11h292q10 0 10 -11v-245q0 -10 -10 -10zM83 119h271v224h-271v-224zM455 233h-44q-10 0 -10 11q0 10 10 10h44q10 0 10 -10q0 -11 -10 -11zM455 188h-44q-10 0 -10 11t10 11h44q10 0 10 -11t-10 -11zM455 143h-44q-10 0 -10 11t10 11h44q10 0 10 -11t-10 -11z
M429 294q-14 0 -24.5 10.5t-10.5 24.5t10.5 24.5t24.5 10.5t24.5 -10.5t10.5 -24.5t-10.5 -24.5t-24.5 -10.5zM429 343q-5 0 -9.5 -4t-4.5 -10q0 -5 4.5 -9.5t9.5 -4.5q6 0 10 4.5t4 9.5q0 14 -14 14zM207 408q-4 0 -7 3l-80 74q-7 7 -1 15q7 8 15 0l74 -67l76 67q8 8 15 0
t-1 -16l-84 -73q-3 -3 -7 -3zM111 9h-27q-11 0 -11 11q0 10 11 10h27q11 0 11 -10q0 -11 -11 -11zM418 9h-27q-10 0 -10 11q0 10 10 10h27q11 0 11 -10q0 -11 -11 -11z"/>
</svg>