<svg xmlns="http://www.w3.org/2000/svg" viewBox="0 0 512 512">
    <defs><style>.color1{fill:#000000;}</style></defs>
    <title>media-4</title>
    <path class="color1" transform="scale(1, -1) translate(0, -512)" d="M256 0q-106 0 -181 75t-75 181t75 181t181 75t181 -75t75 -181t-75 -181t-181 -75zM256 491q-97 0 -166 -69t-69 -166t69 -166t166 -69t166 69t69 166t-69 166t-166 69zM256 204q-22 0 -37 15t-15 37t15 37t37 15t37 -15t15 -37t-15 -37t-37 -15zM256 287q-13 0 -22 -9
t-9 -22t9 -22t22 -9t22 9t9 22t-9 22t-22 9zM296 326q-3 0 -5 1q-35 17 -70 0q-4 -3 -9 -1t-6 5l-54 106q-4 10 5 14q47 24 99 24t99 -24q9 -4 5 -14l-54 -106q-1 -3 -6 -5h-4zM176 437l45 -87q35 14 70 0l45 87q-80 35 -160 0zM256 37q-52 0 -99 24q-9 4 -5 14l54 106
q1 3 6 5q3 1 9 -1q35 -17 70 0q6 2 9 1q2 -1 6 -5l53 -106q6 -10 -4 -14q-47 -24 -99 -24zM176 75q40 -17 80 -17t80 17l-45 87q-35 -14 -70 0zM442 151q-1 0 -2.5 0.5t-2.5 0.5l-106 54q-3 1 -5 6t1 9q8 18 8 35q0 20 -8 35q-2 6 -1 9q2 5 5 6l106 54q10 4 14 -5
q24 -47 24 -99t-24 -99q-1 -6 -9 -6zM350 221l87 -45q17 40 17 80t-17 80l-87 -45q7 -15 7 -35q0 -16 -7 -35zM70 151q-8 0 -9 6q-24 47 -24 99t24 99q4 9 14 5l106 -54q3 -1 5 -6q1 -3 -1 -9q-8 -15 -8 -35t8 -35q2 -6 1 -9q-2 -5 -5 -6l-106 -54q-1 0 -2.5 -0.5t-2.5 -0.5
zM75 336q-17 -40 -17 -80t17 -80l87 45q-7 15 -7 35t7 35zM455 423q-24 0 -49 14q-9 4 -5 14q5 8 15 5q37 -19 56 -7t19 52q-1 4 2 7.5t8 3.5q11 0 11 -10q0 -52 -29 -71q-11 -8 -28 -8z"/>
</svg>