<svg xmlns="http://www.w3.org/2000/svg" viewBox="0 0 512 512">
    <defs><style>.color1{fill:#000000;}</style></defs>
    <title>media-45</title>
    <path class="color1" transform="scale(1, -1) translate(0, -512)" d="M256 0q-106 0 -181 75t-75 181t75 181t181 75t181 -75t75 -181t-75 -181t-181 -75zM256 491q-97 0 -166 -69t-69 -166t69 -166t166 -69t166 69t69 166t-69 166t-166 69zM256 48q-51 0 -96 23.5t-74 65.5q-7 8 2 15q10 6 15 -3q26 -37 66.5 -58t86.5 -21q11 0 11 -11
t-11 -11zM419 355q-4 0 -9 5q-25 39 -66 60.5t-88 21.5q-11 0 -11 11t11 11q51 0 97 -24.5t75 -67.5q5 -9 -3 -15q-4 -2 -6 -2zM256 172q-34 0 -59 25t-25 59t25 59t59 25t59 -25t25 -59t-25 -59t-59 -25zM256 319q-26 0 -44.5 -18.5t-18.5 -44.5t18.5 -44.5t44.5 -18.5
t44.5 18.5t18.5 44.5t-18.5 44.5t-44.5 18.5z"/>
</svg>