<svg xmlns="http://www.w3.org/2000/svg" viewBox="0 0 512 512">
    <defs><style>.color1{fill:#000000;}</style></defs>
    <title>media-49</title>
    <path class="color1" transform="scale(1, -1) translate(0, -512)" d="M380 109h-305q-31 0 -53 22t-22 53v144q0 31 22 53t53 22h305q31 0 53 -22t22 -53v-14h28q12 0 20.5 -8.5t8.5 -20.5v-58q0 -12 -8.5 -20.5t-20.5 -8.5h-28v-14q0 -31 -22 -53t-53 -22zM75 382q-22 0 -38 -16t-16 -38v-144q0 -22 15.5 -38t38.5 -16h305q22 0 38 16t16 38
v25q0 11 10 11h39q8 0 8 7v58q0 7 -8 7h-39q-10 0 -10 11v25q0 22 -16 38t-38 16h-305zM227 148h-86q-11 0 -11 10v196q0 10 11 10h86q11 0 11 -10v-196q0 -10 -11 -10zM152 169h64v174h-64v-174zM141 148h-57q-16 0 -27.5 11t-11.5 27v140q0 16 11.5 27t27.5 11h57
q11 0 11 -10v-196q0 -10 -11 -10zM84 343q-7 0 -12.5 -5t-5.5 -12v-140q0 -17 18 -17h46v174h-46z"/>
</svg>