<svg xmlns="http://www.w3.org/2000/svg" viewBox="0 0 512 512">
    <defs><style>.color1{fill:#000000;}</style></defs>
    <title>media-53</title>
    <path class="color1" transform="scale(1, -1) translate(0, -512)" d="M466 0h-218q-19 0 -32.5 13.5t-13.5 32.5v172q0 11 11 11q10 0 10 -11v-172q0 -10 7.5 -17.5t17.5 -7.5h218q10 0 17.5 7.5t7.5 17.5v311q0 10 -7.5 17t-17.5 7h-80q-11 0 -11 11t11 11h80q19 0 32.5 -13.5t13.5 -32.5v-311q0 -19 -13.5 -32.5t-32.5 -13.5zM465 74h-216
q-11 0 -11 10v128q0 11 11 11t11 -11v-117h194v246h-61q-10 0 -10 10q0 11 10 11h72q11 0 11 -11v-267q0 -10 -11 -10zM373 36h-32q-11 0 -11 11t11 11h32q11 0 11 -11t-11 -11zM390 162q-2 0 -3 1l-167 49q-7 -1 -20 -1q-83 0 -141.5 44t-58.5 106t59 106.5t141 44.5
q83 0 142 -44.5t59 -106.5q0 -6 -1 -10q-5 -67 -76 -108l73 -62q7 -5 3 -13q-3 -6 -10 -6zM221 233h3l121 -36l-46 40q-6 4 -4 9q0 5 6 9q73 36 78 98q0 2 0.5 4.5t0.5 3.5q0 54 -53 92t-127 38t-126.5 -38t-52.5 -92q0 -53 52.5 -91t126.5 -38q13 0 20 1h1zM142 358
q-1 12 -1 37h-1q-9 -30 -10 -33l-15 -41h-9l-14 41q-6 18 -9 33h-1q0 -5 -0.5 -18t-0.5 -20l-3 -36h-10l6 85h14l14 -41q7 -18 9 -29q4 11 9 29l16 41h14l5 -85h-11zM244 358q-2 25 -1 37h-1q-7 -24 -11 -33l-15 -41h-8l-14 41q-1 3 -10 33q0 -12 -2 -38l-2 -36h-10l6 85h14
l14 -41q7 -18 9 -29q3 14 9 29l15 41h14l6 -85h-11zM272 334q10 -6 20 -6q18 0 18 15q0 10 -16 17q-23 8 -23 24q0 10 7.5 16.5t20.5 6.5q11 0 19 -4l-3 -9q-6 4 -17 4q-16 0 -16 -13q0 -10 17 -16q22 -9 22 -25q0 -10 -8 -17.5t-22 -7.5q-12 0 -22 6z"/>
</svg>