<svg xmlns="http://www.w3.org/2000/svg" viewBox="0 0 512 512">
    <defs><style>.color1{fill:#000000;}</style></defs>
    <title>media-56</title>
    <path class="color1" transform="scale(1, -1) translate(0, -512)" d="M355 0h-198q-24 0 -41 17t-17 41v396q0 24 17 41t41 17h198q24 0 41 -17t17 -41v-396q0 -24 -17 -41t-41 -17zM157 491q-15 0 -26 -11q-10 -10 -10 -26v-396q0 -15 10.5 -26t25.5 -11h198q15 0 25.5 11t10.5 26v396q0 15 -10.5 26t-25.5 11h-198zM365 333h-218
q-10 0 -10 11v87q0 11 10 11h218q10 0 10 -11v-87q0 -11 -10 -11zM158 355h196v65h-196v-65zM354 140h-185q-11 0 -11 11t11 11h185q11 0 11 -11t-11 -11zM354 81h-185q-11 0 -11 10q0 11 11 11h185q11 0 11 -11q0 -10 -11 -10zM178 237q-11 0 -11 11v35q0 11 11 11
q10 0 10 -11v-35q0 -11 -10 -11zM229 237q-11 0 -11 11v35q0 11 11 11q10 0 10 -11v-35q0 -11 -10 -11z"/>
</svg>