<svg xmlns="http://www.w3.org/2000/svg" viewBox="0 0 512 512">
    <defs><style>.color1{fill:#000000;}</style></defs>
    <title>media-69</title>
    <path class="color1" transform="scale(1, -1) translate(0, -512)" d="M132 126h-43q-37 0 -63 26.5t-26 64.5v107q0 38 26 64.5t63 26.5h334q37 0 63 -26.5t26 -64.5v-107q0 -38 -26 -64.5t-63 -26.5h-43q-11 0 -11 10q0 11 11 11h43q28 0 48 20.5t20 49.5v107q0 29 -20 49.5t-48 20.5h-334q-28 0 -48 -20.5t-20 -49.5v-107q0 -29 20 -49.5
t48 -20.5h43q11 0 11 -11q0 -10 -11 -10zM387 394h-268q-10 0 -10 10v97q0 11 10 11h268q11 0 11 -11v-97q0 -10 -11 -10zM130 415h246v76h-246v-76zM420 0h-328q-5 0 -9 4q-3 4 -1 10l55 174q3 8 11 8h216q8 0 11 -8l55 -172q1 -2 1 -5q0 -11 -11 -11zM106 21h300l-49 153
h-202zM324 442h-141q-11 0 -11 11q0 10 11 10h141q10 0 10 -10q0 -11 -10 -11zM324 126h-141q-11 0 -11 10q0 11 11 11h141q10 0 10 -11q0 -10 -10 -10zM339 68h-171q-11 0 -11 11t11 11h171q10 0 10 -11t-10 -11zM408 188q-11 0 -11 11v48h-282v-48q0 -11 -11 -11
q-10 0 -10 11v58q0 11 10 11h304q10 0 10 -11v-58q0 -11 -10 -11zM139 326h-47q-11 0 -11 11t11 11h47q11 0 11 -11t-11 -11z"/>
</svg>