<svg xmlns="http://www.w3.org/2000/svg" viewBox="0 0 512 512">
    <defs><style>.color1{fill:#000000;}</style></defs>
    <title>media-90</title>
    <path class="color1" transform="scale(1, -1) translate(0, -512)" d="M398 24h-348q-21 0 -35.5 14.5t-14.5 35.5v115q0 20 14.5 34.5t35.5 14.5h348q20 0 35 -14.5t15 -34.5v-115q0 -22 -15 -35q-13 -15 -35 -15zM50 217q-12 0 -20.5 -8.5t-8.5 -19.5v-115q0 -12 8.5 -20.5t20.5 -8.5h348q12 0 20 8.5t8 20.5v115q0 11 -8 19.5t-20 8.5h-348
zM466 140h-29q-11 0 -11 11q0 10 11 10h19v246q0 11 10 11q11 0 11 -11v-256q0 -11 -11 -11zM466 397q-19 0 -32 13t-13 32t13 32.5t32 13.5q20 0 33 -13t13 -33q0 -19 -13.5 -32t-32.5 -13zM466 467q-10 0 -17 -7.5t-7 -17.5t7 -17t17 -7t17.5 7t7.5 17t-7.5 17.5
t-17.5 7.5zM99 97q-11 0 -11 10v44h-26q-11 0 -11 11q0 10 11 10h37q10 0 10 -10v-55q0 -10 -10 -10zM199 124h-36q-11 0 -11 11q0 10 11 10h36q10 0 10 -10q0 -11 -10 -11zM282 124h-36q-10 0 -10 11q0 10 10 10h36q11 0 11 -10q0 -11 -11 -11zM365 124h-35q-11 0 -11 11
q0 10 11 10h35q11 0 11 -10q0 -11 -11 -11z"/>
</svg>