<svg xmlns="http://www.w3.org/2000/svg" viewBox="0 0 512 512">
    <defs><style>.color1{fill:#000000;}</style></defs>
    <title>media-96</title>
    <path class="color1" transform="scale(1, -1) translate(0, -512)" d="M187 313q-11 0 -11 10v81q0 11 11 11q10 0 10 -11v-81q0 -10 -10 -10zM186 300h-1q-5 0 -8 4l-33 41q-6 9 2 15q9 7 15 -2l25 -31l27 32q6 8 15 1q8 -8 1 -15l-35 -42q-3 -3 -8 -3zM312 298q-11 0 -11 11v80q0 11 11 11q10 0 10 -11v-80q0 -11 -10 -11zM345 353
q-5 0 -8 5l-25 31l-26 -32q-8 -8 -15 -1q-9 8 -2 15l35 42q3 3 9 3q5 0 8 -4l33 -41q6 -10 -2 -15q-3 -3 -7 -3zM387 37h-276q-15 0 -26 10t-11 24v180q0 14 11 24.5t26 10.5h276q15 0 26 -10.5t11 -24.5v-180q0 -14 -11 -24t-26 -10zM111 264q-15 0 -15 -13v-180
q0 -13 15 -13h276q15 0 15 13v180q0 13 -15 13h-276zM334 0h-170q-11 0 -11 11q0 10 11 10h170q11 0 11 -10q0 -11 -11 -11zM410 343h-2q-10 0 -10 11q0 10 11 10h1h1h3q0 1 2 1q23 4 23 27q0 11 -8.5 19t-20.5 8q-6 0 -9 -1q-9 -3 -14 5q-12 28 -45 28q-7 0 -16 -3
q-8 -2 -13 5q-11 19 -33 19q-9 0 -17 -4q-9 -3 -13 4q-13 19 -36 19q-17 0 -29 -11.5t-12 -28.5v-2q0 -5 -3 -9q-3 -3 -8 -3q-3 0 -11 -2q-5 -2 -10 2q-11 8 -26 8q-17 0 -29.5 -12t-12.5 -28q0 -28 28 -38q9 -4 6 -14q-4 -10 -13 -6q-42 15 -42 58q0 26 18.5 44t44.5 18
q17 0 35 -10h2q2 23 20 39t42 16q29 0 48 -21q9 3 18 3q29 0 47 -23q22 5 43 -4t33 -27h7q21 0 35.5 -14t14.5 -34q0 -17 -11 -30.5t-28 -17.5q-2 -1 -7 -1h-3h-1z"/>
</svg>