<svg xmlns="http://www.w3.org/2000/svg" viewBox="0 0 512 512">
    <defs><style>.color1{fill:#000000;}</style></defs>
    <title>medical-16</title>
    <path class="color1" transform="scale(1, -1) translate(0, -512)" d="M256 89q-5 0 -8 4l-77 93q-2 4 -2 7v226q0 11 11 11h152q11 0 11 -11v-226q0 -3 -2 -7l-76 -93q-3 -4 -9 -4zM190 197l66 -81l66 81v211h-132v-211zM261 358h-77q-11 0 -11 11t11 11h77q10 0 10 -11t-10 -11zM261 311h-77q-11 0 -11 11t11 11h77q10 0 10 -11t-10 -11z
M261 264h-77q-11 0 -11 11t11 11h77q10 0 10 -11t-10 -11zM261 218h-77q-11 0 -11 10q0 11 11 11h77q10 0 10 -11q0 -10 -10 -10zM256 0q-16 0 -27 11t-11 27q0 30 27 37v24q0 11 11 11t11 -11v-33q0 -11 -11 -11q-7 0 -12 -5t-5 -12t5 -12t12 -5t12 5t5 12q0 11 11 11
q10 0 10 -11q0 -16 -11 -27t-27 -11zM256 408q-11 0 -11 11v55q0 16 11.5 27t27.5 11t27 -11t11 -27q0 -11 -11 -11q-10 0 -10 11q0 7 -5 12t-12 5t-12 -5t-5 -12v-55q0 -11 -11 -11z"/>
</svg>