<svg xmlns="http://www.w3.org/2000/svg" viewBox="0 0 512 512">
    <defs><style>.color1{fill:#000000;}</style></defs>
    <title>medical-17</title>
    <path class="color1" transform="scale(1, -1) translate(0, -512)" d="M463 0h-414q-17 0 -29.5 12.5t-12.5 29.5v428q0 17 12.5 29.5t29.5 12.5h414q17 0 29.5 -12.5t12.5 -29.5v-428q0 -17 -12.5 -29.5t-29.5 -12.5zM49 491q-8 0 -14.5 -6.5t-6.5 -14.5v-428q0 -8 6.5 -14.5t14.5 -6.5h414q8 0 14.5 6.5t6.5 14.5v428q0 8 -6.5 14.5
t-14.5 6.5h-414zM256 82q-11 0 -11 11v332q0 10 11 10t11 -10v-332q0 -11 -11 -11zM104 320q-5 0 -8 4q-2 2 -5 9t-5.5 20t4.5 26q24 46 158 39q10 0 10 -11q0 -10 -11 -10q-121 6 -138 -28q-3 -8 -2.5 -15t3.5 -12l3 -5q6 -9 -2 -15q-2 -2 -7 -2zM134 244q-3 0 -4 1
q-13 5 -27 13t-28 22.5t-11 28.5q9 41 192 40q11 0 11 -11t-11 -11q-45 1 -79 -1t-51 -5t-27 -7t-12 -6t-2 -4q-2 -5 14.5 -17.5t38.5 -22.5q10 -3 6 -14q-3 -6 -10 -6zM126 160q-3 0 -4 1q-14 5 -28.5 13t-29.5 22.5t-12 28.5q2 12 15.5 20t60.5 14t128 6q11 0 11 -11
q0 -10 -11 -10q-183 1 -183 -23q-1 -6 17 -18.5t40 -21.5q10 -3 6 -14q-4 -7 -10 -7zM139 77q-3 0 -4 1q-12 5 -26 13t-27.5 22.5t-10.5 28.5q11 41 185 39q11 0 11 -10q0 -11 -11 -11q-156 2 -164 -23q-1 -5 15 -18t36 -22q10 -3 6 -14q-3 -6 -10 -6zM408 320q-5 0 -7 2
q-8 6 -2 14l1 2q1 2 2.5 5.5t2.5 7.5t0.5 9t-2.5 9q-18 34 -138 28q-11 0 -11 10q0 11 10 11q134 7 158 -39q7 -13 4.5 -26t-5.5 -20t-5 -9q-3 -4 -8 -4zM378 244q-7 0 -10 6q-4 11 6 14q22 10 38.5 22.5t14.5 17.5q0 2 -2 4t-12 6t-27 7t-51 5t-79 1q-11 2 -11 11
q0 11 11 11q183 1 192 -40q3 -14 -11 -28.5t-28 -22.5t-27 -13q-1 -1 -4 -1zM386 160q-6 0 -10 7q-4 9 6 14q24 10 41 22.5t16 17.5q0 3 -6.5 7t-52.5 10t-124 6q-11 0 -11 10q0 11 11 11q81 0 128 -6t60.5 -14t15.5 -20q3 -14 -12 -28.5t-29.5 -22.5t-28.5 -13q-1 -1 -4 -1
zM373 77q-7 0 -10 6q-4 11 6 14q20 9 36 22t15 18q-8 24 -164 23q-11 0 -11 11q0 10 11 10q174 2 185 -39q4 -19 -19 -37t-45 -27q-1 -1 -4 -1z"/>
</svg>