<svg xmlns="http://www.w3.org/2000/svg" viewBox="0 0 512 512">
    <defs><style>.color1{fill:#000000;}</style></defs>
    <title>medical-2</title>
    <path class="color1" transform="scale(1, -1) translate(0, -512)" d="M402 0h-292q-20 0 -34 14t-14 33v418q0 19 14 33t34 14h292q20 0 34 -13.5t14 -33.5v-418q0 -20 -14 -33.5t-34 -13.5zM110 491q-11 0 -19 -8q-7 -7 -7 -18v-418q0 -11 7.5 -18.5t18.5 -7.5h292q11 0 18.5 7.5t7.5 18.5v418q0 11 -7.5 18.5t-18.5 7.5h-292zM380 414h-248
q-6 0 -9 5q-3 6 0 11l30 51q4 10 14 4t4 -15l-20 -35h212l-16 36q-4 11 5 14q9 5 15 -5l22 -51q3 -5 0 -10t-9 -5zM269 86q-9 0 -11 9l-36 186l-23 -79q-3 -8 -11 -8h-68q-11 0 -11 11q0 10 11 10h61l33 113q3 8 11 8t10 -9l32 -164l15 112q0 9 9 9q9 2 11 -7l20 -55h70
q11 0 11 -11t-11 -11h-78q-7 0 -10 8l-7 20l-18 -133q-2 -9 -10 -9z"/>
</svg>