<svg xmlns="http://www.w3.org/2000/svg" viewBox="0 0 512 512">
    <defs><style>.color1{fill:#000000;}</style></defs>
    <title>medical-24</title>
    <path class="color1" transform="scale(1, -1) translate(0, -512)" d="M332 0h-76q-5 0 -8 3q-3 5 -3 8q4 59 4 127q2 129 15 164q6 6 7 6q4 2 11.5 4t11.5 4q25 6 43 16q17 8 24 17t6 26l-10 22q-18 26 -56 31q-3 0 -10 0.5t-10 0.5q-61 0 -103 -37q-33 -29 -46 -60q-6 -15 -5 -40t8 -39q8 -16 27 -16q10 0 18 4q4 3 9 0q4 -3 6 -8
q19 -153 8 -224q-2 -9 -11 -9h-37q-11 0 -11 11v99q-46 29 -72.5 79t-26.5 108q0 89 57 152t137 63q17 0 37 -3q16 0 41.5 -10t39.5 -20q25 -17 39 -30q48 -46 31 -105q-6 -28 -2 -43t21 -37q1 -1 3 -3.5t3 -3.5q22 -22 11 -40q-6 -9 -24 -12h-6q2 -4 6 -8q7 -12 7 -17
q-1 -8 -20 -17q8 -5 11 -11q6 -11 -1 -29q0 -1 -0.5 -3.5t-1.5 -3.5q0 -2 0.5 -6t0.5 -7q5 -27 -12 -37q-10 -5 -24 -5q-23 0 -57 12v-62q0 -11 -10 -11zM267 21h54v68q0 6 5 9q4 3 10 1q36 -17 63 -17q11 0 13 2q4 3 2 15t-1 21q1 1 2 4.5t1 5.5q4 10 2 12q0 5 -22 10
q-5 2 -7 7q-3 6 2 11q3 3 19 9q5 4 11 5q-10 14 -9 21q0 19 25 22q7 0 8 1q1 4 -9 15q-5 5 -7 8q-19 25 -24.5 45t2.5 54q14 46 -26 84q-14 14 -35 27q-40 25 -68 27h-4q-16 3 -35 3q-71 0 -121.5 -57t-50.5 -137q0 -54 25 -100t68 -72q6 -3 6 -9v-95h17q8 66 -8 196
q-4 -1 -13 -1q-32 0 -46 27q-10 19 -11 48t7 49q17 38 52 68q48 42 117 42q15 0 22 -1q50 -7 72 -41q0 -1 1 -2l11 -24q0 -2 1 -3q5 -42 -41 -66q-13 -7 -46 -18l-18 -6q-12 -35 -12 -151q-3 -100 -4 -117z"/>
</svg>