<svg xmlns="http://www.w3.org/2000/svg" viewBox="0 0 512 512">
    <defs><style>.color1{fill:#000000;}</style></defs>
    <title>medical-35</title>
    <path class="color1" transform="scale(1, -1) translate(0, -512)" d="M92 295q-27 0 -46.5 19t-19.5 47q0 27 19.5 46.5t46.5 19.5t46.5 -19.5t19.5 -46.5q0 -28 -19.5 -47t-46.5 -19zM92 405q-19 0 -32 -13t-13 -31q0 -19 13 -32t32 -13t32 13t13 32q0 18 -13 31t-32 13zM408 331h-2q-11 4 -8 13q7 19 4.5 35t-6 26t-10.5 17.5t-10.5 10
t-5.5 3.5h-1q-30 21 -64.5 24t-60.5 -6t-50 -23.5t-35.5 -24.5t-14.5 -14q-8 -8 -15 0q-9 7 -1 15l2 2q87 79 174 72q41 -3 77 -27q6 -3 12 -8.5t17.5 -21t12.5 -35t-4 -50.5q-3 -8 -11 -8zM170 30h-1q-49 1 -75 45q-5 9 4 14q10 5 15 -4q18 -32 57 -34q31 0 76 50.5
t75 98.5q5 9 15 3q9 -5 3 -15q-9 -14 -22.5 -32.5t-39 -51t-55 -53.5t-52.5 -21zM90 61q-42 0 -68 50q-20 38 -9 69q6 21 22 28q10 5 19 5q41 0 68 -50q16 -30 12.5 -58.5t-24.5 -39.5q-8 -4 -20 -4zM54 192q-6 0 -9 -3q-7 -3 -12 -15q-7 -22 8 -53q20 -39 49 -39q4 0 10 2
q12 7 13 27.5t-10 41.5q-20 39 -49 39zM29 193q-12 0 -20.5 8.5t-8.5 20.5t8.5 20.5t20.5 8.5t20 -8.5t8 -20.5t-8 -20.5t-20 -8.5zM29 229q-8 0 -8 -7t8 -7q7 0 7 7t-7 7zM361 148q-18 0 -33 10q-9 5 -3 15q5 9 15 3q21 -15 38 -2l65 122q-20 44 -76 40l-73 -114
q0 -13 17 -29q8 -8 1 -15q-8 -8 -16 -1q-30 29 -22 53q1 1 1 2l77 120q2 3 7 5q28 4 59.5 -8t46.5 -49q2 -6 -1 -9l-68 -129q0 -1 -2 -3q-13 -11 -33 -11zM383 157q-8 0 -10 8q-4 15 -9.5 22.5t-25.5 22.5q-11 8 -22 10t-17 0l-6 -2q-10 -6 -14 5q-5 9 4 14q33 16 68 -10
q23 -18 30.5 -28t12.5 -29q2 -9 -8 -13h-3zM439 112h-1q-7 1 -9 8l-1 4q-2 4 -5 9.5t-7.5 11.5t-11 11t-13.5 6q-11 2 -9 12q2 11 12 9q27 -5 46 -36l50 96q-6 12 -15.5 19t-16.5 8l-6 1q-11 0 -11 11q0 10 11 10q2 0 5 -0.5t11 -3t15 -6.5t15 -13.5t13 -22.5q1 -4 0 -9
l-63 -119q-3 -6 -9 -6z"/>
</svg>