<svg xmlns="http://www.w3.org/2000/svg" viewBox="0 0 512 512">
    <defs><style>.color1{fill:#000000;}</style></defs>
    <title>medical-52</title>
    <path class="color1" transform="scale(1, -1) translate(0, -512)" d="M476 0q-25 0 -43 20l-53 52q-13 -4 -30 -4q-43 0 -73 30l-247 247q-29 29 -30 70.5t27 69.5q29 27 67 27q43 0 73 -30l247 -247q44 -46 26 -103l52 -53q16 -16 19 -34q5 -21 -9 -35q-10 -10 -26 -10zM385 97l63 -62q14 -14 28 -14q7 0 11 4q5 7 3 16q-1 11 -13 23l-62 63
l2 6q20 49 -18 86l-247 247q-25 25 -58 25q-29 0 -52 -21q-22 -22 -21 -54.5t24 -55.5l248 -247q24 -24 57 -24q16 0 29 6zM64 356q-4 0 -7 3q-9 7 0 15l50 50q7 8 15 0t0 -15l-50 -50q-3 -3 -8 -3zM100 320q-4 0 -8 3q-8 7 0 15l25 25q8 6 16 0q7 -7 0 -15l-25 -25
q-4 -3 -8 -3zM136 284q-4 0 -8 3q-8 7 0 15l51 50q7 7 15 0q8 -8 0 -15l-50 -50q-4 -3 -8 -3zM172 248q-5 0 -8 3q-8 7 0 15l25 25q7 7 15 0q9 -7 0 -15l-25 -25q-3 -3 -7 -3zM208 212q-5 0 -8 3q-8 7 0 15l50 50q8 6 16 0q8 -8 0 -15l-51 -50q-3 -3 -7 -3zM244 176
q-5 0 -8 3q-8 7 0 15l25 25q7 9 15 0q8 -7 0 -15l-25 -25q-3 -3 -7 -3zM280 140q-5 0 -8 3q-8 7 0 15l50 50q8 9 15 0q7 -8 0 -15l-50 -50q-3 -3 -7 -3zM315 104q-4 0 -7 3q-7 8 0 15l25 26q7 8 15 0q6 -8 0 -16l-25 -25q-3 -3 -8 -3z"/>
</svg>