<svg xmlns="http://www.w3.org/2000/svg" viewBox="0 0 512 512">
    <defs><style>.color1{fill:#000000;}</style></defs>
    <title>medical-6</title>
    <path class="color1" transform="scale(1, -1) translate(0, -512)" d="M195 -1q-80 0 -138 58q-57 57 -57 138t57 138t138 57q82 0 139 -57t57 -138t-57 -138q-58 -58 -139 -58zM195 369q-72 0 -123 -51t-51 -123t51 -123t123 -51q73 0 124 51t51 123t-51 123t-124 51zM326 315q-4 0 -7 3q-7 8 0 15l165 165q8 8 15 0t0 -15l-165 -165
q-3 -3 -8 -3zM501 311q-10 0 -10 10l-9 160l-161 10q-12 2 -10 12q0 10 11 10l170 -12q10 0 10 -10l10 -169q0 -9 -10 -11h-1z"/>
</svg>