<svg xmlns="http://www.w3.org/2000/svg" viewBox="0 0 512 512">
    <defs><style>.color1{fill:#000000;}</style></defs>
    <title>medical-71</title>
    <path class="color1" transform="scale(1, -1) translate(0, -512)" d="M85 4q-35 0 -60 32t-25 76v288q0 44 25 76t60 32h275q35 0 60 -32t25 -76q0 -11 -11 -11q-10 0 -10 11q0 36 -19 61.5t-45 25.5h-275q-26 0 -45 -25.5t-19 -61.5v-288q0 -36 19 -61.5t45 -25.5q10 0 10 -10q0 -11 -10 -11zM354 4h-276q-35 0 -54 25q-21 28 -12 64l53 211
q8 34 38.5 59t64.5 25h276q34 0 54 -25q20 -27 11 -64l-52 -211q-9 -35 -39 -59.5t-64 -24.5zM168 367q-26 0 -50.5 -20t-31.5 -48l-53 -211q-6 -29 8 -46q12 -17 37 -17h276q26 0 50.5 20t31.5 48l53 211q6 27 -8 46q-12 17 -37 17h-276zM335 185h-149q-10 0 -10 11t10 11
h149q11 0 11 -11t-11 -11zM261 111q-11 0 -11 11v148q0 11 11 11t11 -11v-148q0 -11 -11 -11z"/>
</svg>