<svg xmlns="http://www.w3.org/2000/svg" viewBox="0 0 512 512">
    <defs><style>.color1{fill:#000000;}</style></defs>
    <title>medical-78</title>
    <path class="color1" transform="scale(1, -1) translate(0, -512)" d="M188 0q-13 0 -21 4q-27 11 -36 39q-10 29 2 57q9 23 27.5 37t40.5 14q12 0 21 -4q27 -9 36 -39q9 -27 -2 -56q-9 -23 -27.5 -37.5t-40.5 -14.5zM201 130q-15 0 -28.5 -10.5t-19.5 -27.5q-10 -22 -2 -42q6 -20 23 -26q8 -3 14 -3q32 0 48 38q9 20 2 42q-6 19 -24 26
q-6 3 -13 3zM207 129q-2 0 -3 1q-11 2 -7 13l94 361q2 10 13 8q10 -3 8 -13l-95 -362q-2 -8 -10 -8zM68 127q-22 0 -39.5 11t-24.5 29q-10 26 4 52t43 37q17 6 32 6q22 0 39.5 -11t24.5 -29q10 -26 -4 -52t-43 -37q-16 -6 -32 -6zM83 241q-11 0 -24 -5q-21 -8 -31.5 -26.5
t-3.5 -35.5q10 -26 44 -26q13 0 24 4q21 9 31.5 27t3.5 36q-10 26 -44 26zM140 196q-8 0 -10 8q-4 11 7 13l362 95q10 2 13 -8q2 -11 -8 -13l-361 -94q-1 -1 -3 -1z"/>
</svg>