<svg xmlns="http://www.w3.org/2000/svg" viewBox="0 0 512 512">
    <defs><style>.color1{fill:#000000;}</style></defs>
    <title>medical-86</title>
    <path class="color1" transform="scale(1, -1) translate(0, -512)" d="M289 244q-77 0 -112 62q-27 46 -10.5 100.5t67.5 84.5q36 21 77 21q77 0 112 -61q27 -46 10.5 -100.5t-67.5 -84.5q-38 -22 -77 -22zM311 491q-33 0 -66 -19q-43 -25 -58 -71t8 -85q31 -50 94 -50q35 0 66 18q43 25 58 71t-8 85q-30 51 -94 51zM11 104q-6 0 -9 5
q-6 9 3 15q41 24 42 62q0 6 -2 20q-4 36 4 51q10 20 32.5 27.5t46.5 4.5q38 -5 49 8q2 2 1 7q-2 11 8 13q9 4 13 -7q4 -17 -6 -27q-3 -3 -6.5 -5.5t-7.5 -4t-8.5 -3t-9 -2l-9 -1t-8.5 -0.5h-7.5t-6 0.5t-4.5 0.5h-1q-43 6 -58 -21q-5 -10 -1 -38q2 -16 2 -23q-1 -51 -52 -80
q-4 -2 -5 -2zM420 81q-47 0 -68 38q-17 29 -7 62t41 51q22 13 47 13q47 0 69 -38q16 -29 6 -62t-41 -51q-23 -13 -47 -13zM433 224q-18 0 -36 -10q-23 -14 -31 -38.5t4 -45.5q16 -28 50 -28q18 0 36 10q24 14 32 39t-5 46q-14 27 -50 27zM259 0q-6 0 -9 5q-6 9 4 15
q21 12 22 32q0 1 -0.5 5t-0.5 6q-4 19 2 32q14 25 51 21q20 -2 24 3q-2 11 8 13q10 4 12 -8q3 -12 -4 -19q-9 -10 -43 -10q-22 2 -29 -10q-2 -4 0 -19q0 -3 0.5 -7.5t0.5 -6.5q-1 -33 -32 -50q-2 -2 -6 -2z"/>
</svg>