<svg xmlns="http://www.w3.org/2000/svg" viewBox="0 0 512 512">
    <defs><style>.color1{fill:#000000;}</style></defs>
    <title>medical-95</title>
    <path class="color1" transform="scale(1, -1) translate(0, -512)" d="M255 179q-45 0 -77 27.5t-32 66.5q-8 12 -12 20q-44 66 -44 95q0 51 48.5 87.5t116.5 36.5q67 0 115.5 -36.5t48.5 -87.5q0 -27 -43 -95q-3 -4 -7 -11.5t-5 -8.5q-1 -39 -32.5 -66.5t-76.5 -27.5zM255 491q-59 0 -101 -30t-42 -73q0 -23 40 -84q15 -25 15 -30
q0 -30 25.5 -51.5t62.5 -21.5q36 0 62 21.5t26 51.5q0 8 15 30q40 61 40 84q0 43 -42 73t-101 30zM191 346q-19 0 -32.5 12t-13.5 29t13.5 29t32.5 12t32.5 -12t13.5 -29t-13.5 -29t-32.5 -12zM191 407q-10 0 -17.5 -6t-7.5 -14t7.5 -14t17.5 -6t17.5 6t7.5 14t-7.5 14
t-17.5 6zM319 346q-20 0 -33.5 12t-13.5 29t13.5 29t33.5 12q19 0 32.5 -12t13.5 -29t-13.5 -29t-32.5 -12zM319 407q-10 0 -17.5 -6t-7.5 -14t7.5 -14t17.5 -6t17.5 6t7.5 14t-7.5 14t-17.5 6zM255 288q-15 0 -25.5 9.5t-10.5 22.5t10.5 22.5t25.5 9.5q14 0 24.5 -9.5
t10.5 -22.5t-10.5 -22.5t-24.5 -9.5zM255 330q-14 0 -14 -10q0 -11 14 -11t14 11q0 10 -14 10zM251 248q-25 0 -48.5 5t-34 9t-13.5 6q-10 4 -4 14q4 9 14 5q3 -3 23.5 -9.5t65 -7t89.5 16.5q9 4 13 -6q5 -10 -6 -14q-49 -19 -99 -19zM404 0q-3 0 -4 1q-10 3 -6 13
q4 11 -5 24q-24 9 -132.5 58.5t-129.5 62.5q-17 10 -26 21.5t-10 17t0 8.5q0 10 11 10q10 0 10 -11q0 -12 26 -28q14 -8 79 -38.5t122 -56t60 -26.5q1 0 2 -1q22 -22 13 -48q-4 -7 -10 -7zM70 153q-7 0 -10 6q-4 11 5 14q9 5 27 9.5t41 -2.5q9 -5 4 -14t-15 -4q-13 8 -48 -8
q-1 -1 -4 -1zM403 35l-10 1q-11 2 -9 12q2 11 12 9q25 0 42 7q10 5 14 -6q4 -10 -6 -13q-22 -10 -43 -10zM108 0q-6 0 -10 7q-9 26 13 48q1 1 2 1q3 1 60 26.5t122 56t79 38.5q11 7 17.5 14t7.5 11l1 3q0 11 10 11q4 1 7.5 -2t3.5 -8q1 -3 0 -8.5t-10 -17t-26 -21.5
q-20 -12 -127.5 -61t-134.5 -60q-8 -13 -5 -24q4 -10 -6 -13q-1 -1 -4 -1zM442 153q-3 0 -4 1q-36 15 -48 8q-10 -5 -15 4t4 14q23 7 41 2.5t27 -9.5q9 -3 5 -14q-3 -6 -10 -6zM109 35q-21 0 -43 10q-10 3 -6 13q4 11 14 6q11 -4 21.5 -6t15.5 -2l5 1q10 2 12 -9
q2 -10 -9 -12q-4 -1 -10 -1z"/>
</svg>