<svg xmlns="http://www.w3.org/2000/svg" viewBox="0 0 512 512">
    <defs><style>.color1{fill:#000000;}</style></defs>
    <title>medical-96</title>
    <path class="color1" transform="scale(1, -1) translate(0, -512)" d="M252 11l-8 9q-47 55 -108 114q-50 50 -72 74.5t-43 59.5t-21 64q0 68 41.5 116t99.5 48q67 0 111 -63q42 63 111 63q57 0 100 -49q41 -49 41 -115q0 -29 -23 -66.5t-47.5 -64t-75.5 -77.5q-80 -83 -98 -104zM141 474q-50 0 -85 -41.5t-35 -100.5q0 -35 31 -75t99 -107
q77 -80 101 -107q36 41 91 96q47 47 70.5 72t46 60.5t22.5 60.5q0 60 -35 101t-84 41q-67 0 -102 -67l-9 -18l-10 18q-35 67 -101 67zM252 127q-8 0 -11 8l-49 204l-35 -123q-2 -8 -10 -8h-136q-11 0 -11 11q0 10 11 10h128l44 155q2 7 11 7q8 0 10 -8l47 -199l43 191
q2 8 11 8q8 0 10 -8l32 -136h154q11 0 11 -10q0 -11 -11 -11h-162q-9 0 -11 8l-23 99l-43 -190q-2 -8 -10 -8z"/>
</svg>