<svg xmlns="http://www.w3.org/2000/svg" viewBox="0 0 512 512">
    <defs><style>.color1{fill:#000000;}</style></defs>
    <title>sports-113</title>
    <path class="color1" transform="scale(1, -1) translate(0, -512)" d="M441 118q-28 0 -63 14q-44 20 -215 138q-35 26 -53 37q-85 59 -87 106q0 25 26 45q17 12 33 12q18 0 33.5 -14t22.5 -26.5t10 -22.5q65 -57 147 -113.5t123 -56.5q26 0 45 -5.5t28 -13t14 -16.5t6 -13.5t1 -7.5v-2q-2 -29 -21 -45t-50 -16zM82 450q-9 0 -20 -8
q-17 -13 -17 -28q0 -35 77 -89q21 -14 53 -38q149 -107 210 -137q29 -11 54 -11q45 0 51 42q-7 34 -73 34q-29 0 -76.5 25t-97 63t-73.5 57.5t-39 33.5l-2 2l-1 2q-3 15 -16.5 33.5t-29.5 18.5zM60 194q-20 0 -39 14q-18 16 -21 38q-3 24 12 41q16 19 41 19q21 0 38 -14
q18 -15 20.5 -38t-11.5 -41q-14 -19 -40 -19zM53 285q-17 0 -24 -12q-10 -10 -8 -24q1 -14 14 -25q11 -10 26 -9t23 11q9 11 7 25t-13 24t-25 10zM298 41q-20 0 -38 13q-18 16 -21 39q-3 25 12 40q15 20 41 20q18 0 39 -14q18 -16 20.5 -39t-11.5 -40q-15 -19 -42 -19z
M292 130q-16 0 -24 -12q-9 -9 -7 -24q1 -12 14 -25q11 -9 26 -8t23 10q9 11 7 25.5t-13 24.5q-14 9 -26 9z"/>
</svg>