<svg xmlns="http://www.w3.org/2000/svg" viewBox="0 0 512 512">
    <defs><style>.color1{fill:#000000;}</style></defs>
    <title>sports-116</title>
    <path class="color1" transform="scale(1, -1) translate(0, -512)" d="M450 0h-388q-26 0 -44 18t-18 44v388q0 26 18 44t44 18h388q26 0 44 -18t18 -44v-388q0 -26 -18 -44t-44 -18zM62 491q-17 0 -29 -12t-12 -29v-388q0 -17 12 -29t29 -12h388q17 0 29 12t12 29v388q0 17 -12 29t-29 12h-388zM324 346h-136q-37 0 -48 35l-19 56
q-12 29 6 53q17 22 42 22h176q25 0 40 -21q19 -25 9 -55l-21 -54q-13 -36 -49 -36zM169 491q-14 0 -25 -13q-11 -19 -4 -33l19 -56q9 -21 29 -21h136q20 0 29 21l20 54q8 17 -5 35q-10 13 -23 13h-176zM249 436h-22v23h-26v-23h-22v44h70v-44zM249 377h-70v43h22v-22h26v22
h22v-43zM333 436h-22v23h-26v-23h-22v44h70v-44zM333 377h-70v43h22v-22h26v22h22v-43zM174 23q-4 0 -11.5 1.5t-8.5 1.5q-22 5 -31 13q-17 15 -23 52v2q-2 20 -8 51l-7 41q-6 36 -5 53q1 33 18 56q19 28 66 36h10q22 0 37 -12q17 -16 17 -53q-1 -39 -11 -74q-1 -1 -3 -8
q-5 -20 -5 -25q-1 -8 3 -26q2 -14 5 -19q1 -3 2.5 -9.5t1.5 -9.5q8 -40 -9 -58q-21 -13 -38 -13zM172 308h-8q-35 -5 -51 -26q-13 -17 -14 -45q-1 -10 4 -49l7 -41q6 -34 8 -52q9 -33 15 -38q9 -7 23 -10q24 -5 33 4q8 9 4 40l-3 18q0 3 -2 9.5t-2 9.5q-5 17 -4 32
q1 6 3.5 16.5t3.5 13.5q0 1 0.5 3.5t1.5 3.5q11 38 12 69q0 27 -10 36q-3 6 -21 6zM338 23q-19 0 -34 13q-17 18 -9 59q1 3 2.5 9.5t2.5 9.5l3 18q4 19 3 26q-1 5 -5 27q-2 6 -2 8q-10 31 -12 73q0 38 16 53q17 12 37 12h9q47 -8 66 -36q16 -19 18 -55q1 -17 -5 -53l-7 -41
q-6 -34 -8 -52v-1q-6 -38 -23 -51q-9 -9 -31 -14q-13 -5 -21 -5zM340 308q-16 0 -23 -6q-9 -9 -9 -36q1 -30 12 -68q2 -6 2 -8q4 -13 7 -30q1 -7 -4 -32q-2 -14 -4 -19q0 -3 -0.5 -6t-1.5 -6.5t-1 -5.5q-5 -29 4 -41q7 -9 34 -4q13 2 23 9q8 8 16 39q2 21 8 53l7 41
q5 28 5 49q-2 30 -14 44q-16 21 -51 26q-5 1 -10 1z"/>
</svg>