<svg xmlns="http://www.w3.org/2000/svg" viewBox="0 0 512 512">
    <defs><style>.color1{fill:#000000;}</style></defs>
    <title>sports-126</title>
    <path class="color1" transform="scale(1, -1) translate(0, -512)" d="M375 311q-22 0 -38 16.5t-16 38.5t16 38t38 16q23 0 39 -16t16 -38t-16 -38.5t-39 -16.5zM375 399q-13 0 -23 -9.5t-10 -23.5t10 -23.5t23 -9.5q14 0 24 9.5t10 23.5t-10 23.5t-24 9.5zM375 399q-10 0 -10 11v91q0 11 10 11q11 0 11 -11v-91q0 -11 -11 -11zM138 311
q-22 0 -38.5 16.5t-16.5 38.5t16 38t39 16q22 0 38 -16t16 -38t-16 -38.5t-38 -16.5zM138 399q-14 0 -23.5 -9.5t-9.5 -23.5t9.5 -23.5t23.5 -9.5t23.5 9.5t9.5 23.5t-9.5 23.5t-23.5 9.5zM138 399q-11 0 -11 11v91q0 11 11 11q10 0 10 -11v-91q0 -11 -10 -11zM230 206
q-48 3 -68 31q-12 16 -15.5 39.5t0.5 33.5v5q-6 8 1 15q9 7 14 0q9 -10 7 -24q0 -1 -2 -2q-6 -31 12 -54q15 -20 52 -23h53q36 3 51 23q8 10 10.5 24t1.5 23l-1 9q-4 12 5 24q6 8 15 2q8 -6 2 -15q-2 -3 -1 -7l1 -3v-7v-10t-0.5 -12.5t-2.5 -13t-5 -14t-8 -13.5
q-20 -28 -67 -31h-55zM481 0h-451q-12 0 -21 9t-9 21t9 21t21 9h165v112q-40 10 -65 41q-31 42 -22 103q0 2 1 3q1 5 4 8q4 11 14 5q10 -4 4 -14q-1 -1 -1 -2q-1 -2 -1 -3v-2q-8 -52 18 -86q22 -28 61 -35q9 -2 9 -11v-131q0 -11 -11 -11h-176q-9 0 -9 -8t9 -8h451q3 0 6 3
t3 6q0 8 -9 8h-175q-11 0 -11 11v131q0 9 9 11q39 6 62 35q26 35 18 87v1q-2 4 -3 5q-6 10 3 15q10 6 15 -3q3 -5 5 -11v-1q1 -1 1 -2q9 -61 -22 -103q-24 -32 -66 -41v-112h164q12 0 21 -9t9 -21t-9 -21.5t-21 -9.5zM256 230q-25 0 -43 18t-18 43t18 43t43 18t43 -18
t18 -43t-18 -43t-43 -18zM256 331q-16 0 -27.5 -12t-11.5 -28t11.5 -27.5t27.5 -11.5t27.5 11.5t11.5 27.5t-11.5 28t-27.5 12z"/>
</svg>