<svg xmlns="http://www.w3.org/2000/svg" viewBox="0 0 512 512">
    <defs><style>.color1{fill:#000000;}</style></defs>
    <title>sports-134</title>
    <path class="color1" transform="scale(1, -1) translate(0, -512)" d="M466 0h-420q-20 0 -33 13t-13 33v153q0 19 13 32.5t33 13.5h420q20 0 33 -13.5t13 -32.5v-153q0 -20 -13 -33t-33 -13zM46 224q-10 0 -17.5 -7.5t-7.5 -17.5v-153q0 -10 7.5 -17.5t17.5 -7.5h420q10 0 17.5 7.5t7.5 17.5v153q0 10 -7.5 17.5t-17.5 7.5h-420zM365 92h-208
q-30 0 -51 25t-21 60v54h22v-54q0 -26 14.5 -45t35.5 -19h208q21 0 35.5 18.5t14.5 45.5v54h21v-54q0 -36 -20.5 -60.5t-50.5 -24.5zM336 234h-21v22q0 8 -5 14t-10 6h-87q-5 0 -10 -6t-5 -14v-22h-21v22q0 17 10.5 29.5t25.5 12.5h87q15 0 25.5 -12.5t10.5 -29.5v-22z
M476 230l-22 3q6 40 -7 80q-13 38 -35 49q-7 3 -12 4q-11 3 -15 5q-28 13 -39 51q-5 12 -6 23q-5 22 -6 24q-5 13 -24 20q-3 1 -21 1h-31q-32 2 -47 -3q-36 -10 -46 -51q-2 -10 -2 -17q-2 -21 -5 -30q-14 -33 -55 -38l-5 -1q-28 -4 -36 -18q-11 -17 -11 -71v-22l-21 1v21
q0 60 14 82q14 23 50 27l5 1q29 3 38 26q2 4 4 23q0 3 0.5 9.5t1.5 9.5q9 52 61 69q18 5 53 3l15 -1q14 0 14 1q22 0 29 -2q26 -6 36 -30q4 -7 11 -30q1 -9 5 -20q8 -29 28 -39q6 -3 10 -3q10 -2 15 -5q34 -16 47 -62q14 -40 9 -90z"/>
</svg>