<svg xmlns="http://www.w3.org/2000/svg" viewBox="0 0 512 512">
    <defs><style>.color1{fill:#000000;}</style></defs>
    <title>sports-137</title>
    <path class="color1" transform="scale(1, -1) translate(0, -512)" d="M458 0h-399v319l6 2q23 9 38 41.5t15 74.5q0 31 -9 61l-6 14h92l-2 -13q-3 -15 -3 -33q0 -49 20 -84t47 -35t47 35t20 84q0 18 -3 33l-2 13h93l-7 -15q-9 -25 -9 -60q0 -42 15 -74.5t39 -41.5l8 -2v-319zM80 21h356v283q-28 14 -45 50t-17 83q0 26 7 54h-38q2 -9 2 -25
q0 -58 -26 -99.5t-63 -41.5t-63 41t-26 100q0 16 2 25h-38q8 -36 8 -54q0 -46 -16.5 -82t-43.5 -50v-284h1z"/>
</svg>