<svg xmlns="http://www.w3.org/2000/svg" viewBox="0 0 512 512">
    <defs><style>.color1{fill:#000000;}</style></defs>
    <title>sports-144</title>
    <path class="color1" transform="scale(1, -1) translate(0, -512)" d="M256 418q-20 0 -33.5 14t-13.5 33t13.5 33t33.5 14t33.5 -14t13.5 -33t-13.5 -33t-33.5 -14zM256 491q-10 0 -18 -7.5t-8 -18.5t8 -18.5t18 -7.5t18 7.5t8 18.5t-8 18.5t-18 7.5zM314 267h-117v52l-42 -42q-8 -7 -18 -7q-11 0 -19 7q-8 10 -7 20q0 9 8 17l83 80q7 7 18 7
h71q11 0 18 -7l84 -80q7 -8 8 -17q0 -12 -7 -20q-8 -7 -19 -7q-10 0 -18 7l-42 42v-52h-1zM219 288h73v82l79 -76q1 -1 3 -1q3 0 4 1q2 2 2 4q0 1 -1 2l-85 80q-1 1 -3 1h-71q-2 0 -3 -1l-84 -80l-1 -2q0 -2 2 -4q1 -1 4 -1q2 0 3 1l79 76v-82h-1zM256 130q-68 0 -94 48
l-8 16h204l-8 -16q-28 -48 -94 -48zM194 173q24 -22 62 -22q37 0 62 22h-124zM108 245h296v-21h-296v21zM93 204h-93v63h92l42 -29zM21 225h63l14 11l-13 9h-64v-20zM512 204h-92l-42 29l41 34h93v-63zM427 225h64v20h-63l-14 -10zM147 62q-13 0 -41 7q-3 1 -7 3t-6 2
q-24 8 -34 8q-27 0 -36 -15l-18 11q16 25 55 25q19 0 41 -9q3 -1 6.5 -2.5t5.5 -1.5q29 -10 45 -7q5 1 27 11l12 6q34 14 66 2l18 -6l18 -6q25 -7 44 5q2 1 5.5 3t5.5 3q7 7 16 10q30 16 63 3q14 -5 21 -11l14 -7q19 -8 28 -2l11 -19q-19 -12 -47 2q-6 2 -16 8q-15 9 -17 9
q-25 8 -47 -3q-3 -1 -7 -4t-6 -4t-6.5 -3.5t-6.5 -4.5q-26 -14 -60 -8q-12 3 -21 8q-9 4 -16 5q-27 8 -51 -2q-2 -1 -6 -2.5t-6 -2.5q-15 -10 -32 -13q-5 2 -15 2zM147 0q-13 0 -41 7q-5 3 -11 4q-26 8 -37 8q-26 0 -36 -15l-18 11q16 26 55 26q14 0 43 -9q4 -1 10 -3
q29 -10 45 -7q8 3 26 11q5 2 13 6q34 14 66 3q3 0 6 -1.5l6 -3l5 -2.5t8.5 -3t10.5 -3q25 -5 44 5q5 2 11 7q9 7 16 9q30 16 63 3q17 -7 21 -10q6 -4 14 -8q19 -8 28 -2l11 -19q-19 -12 -47 2q-8 3 -16 9q-3 1 -8.5 4t-8.5 4q-25 8 -47 -3q-5 -2 -13 -8q-2 -1 -6.5 -4
t-6.5 -4q-26 -14 -60 -8q-4 2 -11 4t-10 4q-8 3 -15 5q-27 10 -51 -2q-2 -1 -6 -2.5t-6 -2.5q-15 -10 -32 -13q-5 1 -15 1z"/>
</svg>