<svg xmlns="http://www.w3.org/2000/svg" viewBox="0 0 512 512">
    <defs><style>.color1{fill:#000000;}</style></defs>
    <title>sports-152</title>
    <path class="color1" transform="scale(1, -1) translate(0, -512)" d="M324 50q-11 0 -20.5 7t-12.5 18l-42 147l-43 -147q-8 -25 -33 -25q-7 0 -10 1q-14 5 -20.5 17.5t-2.5 25.5l54 190v5l-44 -54q-8 -11 -22 -12.5t-26 6.5q-10 9 -12 23q-2 15 7 25l110 139h84l124 -106q11 -9 12 -23t-9 -25q-9 -11 -25 -11q-12 0 -23 8l-62 54v-44
l50 -174q6 -13 -2 -27q-8 -13 -20 -16q-5 -2 -12 -2zM236 255h25l50 -174q5 -10 12 -10h2l2 2q7 2 8 6q2 4 1 11l-50 177v91l97 -83q3 -3 8 -3q7 0 10 4q7 11 -1 18l-117 101h-65l-104 -129q-3 -6 -3 -10q0 -5 4 -7q11 -8 18 1l82 101v-70l-54 -191q-3 -14 10 -17h3
q12 0 13 9zM250 0q-92 0 -134 54q-45 61 -21 181l20 -6v-1q-25 -104 18 -161q36 -46 117 -46q73 0 113 46q9 11 15.5 24.5t10.5 27t6.5 28t3 28.5t0 26.5t-1.5 23t-1.5 18t-1.5 12.5l-1 5l21 5q23 -141 -34 -211q-45 -54 -130 -54zM250 420q-19 0 -32.5 13.5t-13.5 32.5
q0 20 13 33t33 13q19 0 32 -13.5t13 -32.5t-13 -32.5t-32 -13.5zM250 491q-10 0 -17.5 -7.5t-7.5 -17.5t7 -17t18 -7q10 0 17 7t7 17t-7 17.5t-17 7.5z"/>
</svg>