<svg xmlns="http://www.w3.org/2000/svg" viewBox="0 0 512 512">
    <defs><style>.color1{fill:#000000;}</style></defs>
    <title>sports-155</title>
    <path class="color1" transform="scale(1, -1) translate(0, -512)" d="M169 420q-19 0 -32.5 13.5t-13.5 32.5q0 20 13.5 33t32.5 13t32 -13.5t13 -32.5t-13 -32.5t-32 -13.5zM169 491q-11 0 -18 -7.5t-7 -17.5t7 -17t18 -7q10 0 17 7t7 17t-7 17.5t-17 7.5zM144 76q-23 0 -29 21l-21 72q-3 9 0 18l37 116l-3 18q-16 -28 -16 -66
q0 -13 -9 -22.5t-22 -9.5h-1q-13 0 -22 9t-9 22q0 14 2.5 30t10 43t28 49.5t51.5 33.5q4 2 10 2h48q20 5 45 23.5t37 47.5q8 20 28 20q4 0 12 -2q12 -4 17.5 -15.5t1.5 -24.5q-26 -71 -107 -106v-90l27 -140q2 -13 -4.5 -24t-19.5 -14q-2 -1 -8 -1q-23 0 -30 26l-23 123
l-18 -58l18 -61q3 -11 -2 -23q-6 -12 -18 -15q-5 -2 -11 -2zM137 358q3 0 4 -1q6 -2 6 -8l4 -46v-4l-37 -118v-7l21 -71q5 -7 10 -7h1q1 0 1 1q4 2 6 5q2 6 1 8l-20 64q-2 3 0 6l27 85q2 7 11 7h8q10 0 11 -9l29 -147q2 -10 11 -7q11 2 9 13l-28 140v3v98q0 7 7 9
q77 30 101 95q2 11 -6 14q-9 3 -13 -5q-11 -29 -36 -50.5t-41 -28.5t-20 -7h-3h-50h-2q-26 -9 -44 -28.5t-24.5 -43t-8.5 -37.5t-2 -26q0 -4 3.5 -7.5t6.5 -3.5h1q10 0 10 11q0 67 39 101q2 2 7 2zM416 75l-19 8q24 58 31.5 120t-1 113t-18 84t-20.5 58q-131 -170 -72 -365
l-20 -7q-64 217 87 398q3 5 10 5q4 0 8 -6l1 -3q69 -149 43 -301q-9 -54 -30 -104zM501 0h-490q-11 0 -11 11v105q0 11 11 11q10 0 20 -2q8 -2 26 -15q1 -1 5 -4.5t6 -4.5q28 -11 81 2q47 12 94 7q36 -4 51 -9q4 -1 11.5 -3t10.5 -3q9 -4 22 -6q5 -2 18 -2q54 0 104 37
q10 7 33 30l2 2q5 5 12 2q6 -3 6 -10v-137q-2 -11 -12 -11zM21 21h470v101q-12 -10 -20 -16q-49 -41 -116 -41q-9 0 -21 2q-11 1 -26 8q-10 3 -20 5q-7 2 -15.5 3.5t-18 3t-15.5 2.5q-39 5 -86 -7q-63 -17 -95 0q-6 2 -17 13q-1 1 -7 5l-9 6q-4 0 -5 1v-86h1z"/>
</svg>