<svg xmlns="http://www.w3.org/2000/svg" viewBox="0 0 512 512">
    <defs><style>.color1{fill:#000000;}</style></defs>
    <title>sports-156</title>
    <path class="color1" transform="scale(1, -1) translate(0, -512)" d="M256 155q-103 0 -179.5 20t-76.5 55q0 44 116 64l5 -21q-36 -6 -60 -15t-32 -16t-8 -12q0 -12 27.5 -24t83.5 -21t124 -9t124 9t83.5 21t27.5 24q0 6 -9.5 13.5t-33.5 16t-59 14.5l4 21q119 -22 119 -65q0 -35 -76.5 -55t-179.5 -20zM106 10q-19 122 -97 200l13 16
q3 -2 10.5 -9.5t22 -27t27.5 -42.5t25.5 -59t18.5 -75zM402 9l-21 3q9 62 37 115.5t45 72t26 25.5l13 -16q-9 -8 -23 -23t-41 -67t-36 -110zM256 191q-46 0 -81 22q-57 34 -73.5 98t15.5 122q22 37 59 58t80 21q46 0 81 -22q57 -34 73.5 -98.5t-15.5 -122.5q-22 -36 -59 -57
t-80 -21zM256 491q-37 0 -69.5 -18.5t-51.5 -50.5q-29 -49 -14 -105.5t64 -85.5q33 -19 70 -19t69.5 19t50.5 50q29 50 14.5 105.5t-63.5 84.5q-32 20 -70 20zM320 479l18 -11l-145 -244l-18 11zM309 208q-26 28 -32 62.5t11 62.5t49.5 39t71.5 2l-6 -20q-31 8 -57.5 -0.5
t-39.5 -30.5t-7.5 -49t26.5 -50zM135 326q-18 0 -33 5l6 20q31 -8 57.5 0.5t39.5 30.5t7.5 49t-26.5 50l16 15q26 -28 32 -62.5t-11 -62.5q-28 -45 -88 -45zM222 384l79 -46l-10 -18l-80 46z"/>
</svg>