<svg xmlns="http://www.w3.org/2000/svg" viewBox="0 0 512 512">
    <defs><style>.color1{fill:#000000;}</style></defs>
    <title>sports-159</title>
    <path class="color1" transform="scale(1, -1) translate(0, -512)" d="M293 382q-27 0 -46 19t-19 46t19 46t46 19q28 0 46.5 -19t18.5 -46t-18.5 -46t-46.5 -19zM293 491q-18 0 -30.5 -13t-12.5 -31q0 -19 12.5 -31.5t30.5 -12.5q19 0 31.5 12.5t12.5 31.5q0 18 -12.5 31t-31.5 13zM366 0q-11 0 -16 3q-12 6 -16.5 19t1.5 26l40 80l-68 34
h-34l-179 -131q-8 -6 -19 -6q-18 0 -28 13q-9 12 -6 25q1 14 13 22l133 98l-1 -1h-3q-4 -2 -10 -2q-25 0 -32 24l-33 106l138 68l99 -10l114 -96q10 -7 12 -23q3 -14 -8 -25q-11 -13 -26 -13q-13 0 -22 9l-56 46v-53l107 -54l-69 -141q-10 -18 -31 -18zM266 185h47l91 -47
l-49 -100q-5 -10 6 -16l1 -1h4q8 0 12 7l60 121l-100 50v111l91 -75q4 -4 8 -4q6 0 10 6q3 5 3 9q0 6 -5 9l-110 93l-85 7l-118 -56l28 -90q3 -8 13 -8h1q14 5 9 16l-21 69l71 34v-128l-166 -124q-5 -3 -5 -8q0 -7 2 -9q3 -5 11 -5q4 0 6 2zM189 275l16 -51q6 -18 -8 -32
l15 12v83z"/>
</svg>