<svg xmlns="http://www.w3.org/2000/svg" viewBox="0 0 512 512">
    <defs><style>.color1{fill:#000000;}</style></defs>
    <title>sports-174</title>
    <path class="color1" transform="scale(1, -1) translate(0, -512)" d="M252 219q-53 0 -90.5 37.5t-37.5 90.5t37.5 90.5t90.5 37.5q52 0 90 -37.5t38 -90.5t-37.5 -90.5t-90.5 -37.5zM252 453q-44 0 -75.5 -31t-31.5 -75t31.5 -75.5t75.5 -31.5t75 31.5t31 75.5q0 43 -31 74.5t-75 31.5zM304 237q-153 111 -108 223l18 -11q-2 -3 -5 -11
t-2.5 -28t8.5 -41.5t33.5 -53t67.5 -61.5zM162 284l-21 4l1 2q0 3 1 6.5t3 8.5t4 10.5t5.5 12l7 13t9 13.5t11.5 13.5t13.5 13t15.5 12.5q60 38 145 19l-4 -22q-79 17 -129 -16q-22 -15 -37.5 -38t-20 -36t-4.5 -16zM366 315q-22 0 -66 23t-55 60q-7 27 7 39
q11 15 37.5 17.5t27.5 -0.5l-2 -21q-36 4 -47 -10q-6 -6 -1 -19q8 -29 44.5 -47.5t54.5 -20.5l2 -21h-2zM202 245l-21 6q18 66 -5 95q-3 4 -9 4q-9 0 -23 -17l-17 13l2 2q2 3 4.5 5.5t6.5 6t7.5 5.5t8.5 4t10 2q15 0 26 -13q28 -35 10 -113zM499 178h-486v328h486v-328z
M34 199h444v285h-444v-285zM85 68q-19 0 -34 15t-15 34q0 20 14.5 34.5t34.5 14.5t34.5 -14.5t14.5 -34.5t-14.5 -34.5t-34.5 -14.5zM85 145q-11 0 -19 -8.5t-8 -19.5t8 -19t19 -8t19.5 8t8.5 19t-8.5 19.5t-19.5 8.5zM178 6h-184l7 15q11 24 34 39t50 15q28 0 51 -14.5
t35 -39.5zM30 28h111q-22 25 -56 25q-33 0 -55 -25zM256 68q-20 0 -34.5 14.5t-14.5 34.5t14.5 34.5t34.5 14.5t34.5 -14.5t14.5 -34.5t-14.5 -34.5t-34.5 -14.5zM256 145q-11 0 -19.5 -8.5t-8.5 -19.5t8.5 -19t19.5 -8t19.5 8t8.5 19t-8.5 19.5t-19.5 8.5zM348 6h-184l8 15
q11 24 34 39t50 15t50 -15t34 -39zM201 28h110q-20 25 -55 25t-55 -25zM427 68q-20 0 -34.5 14.5t-14.5 34.5t14.5 34.5t34.5 14.5t34.5 -14.5t14.5 -34.5q0 -19 -15 -34t-34 -15zM427 145q-11 0 -19.5 -8.5t-8.5 -19.5t8.5 -19t19.5 -8t19 8t8 19t-8 19.5t-19 8.5zM518 6
h-183l7 15q11 24 34.5 39t50.5 15q26 0 49 -14.5t35 -39.5zM371 28h110q-22 25 -54 25q-34 0 -56 -25z"/>
</svg>