<svg xmlns="http://www.w3.org/2000/svg" viewBox="0 0 512 512">
    <defs><style>.color1{fill:#000000;}</style></defs>
    <title>sports-178</title>
    <path class="color1" transform="scale(1, -1) translate(0, -512)" d="M256 30l-4 2q-48 24 -80 61l16 14q30 -33 68 -54q44 24 70 57l16 -14q-33 -40 -83 -65zM389 176l-20 7q16 41 16 95v152q-35 -12 -66 -1q-39 12 -64 60q-25 -48 -64 -61q-34 -12 -66 1v-151q0 -54 16 -95l-20 -7q-19 49 -19 103v185l16 -9q4 -2 9.5 -4t24 -5.5t31.5 3.5
q32 11 54 53q5 11 16 9q1 0 2 1q12 2 16 -10q19 -40 53 -52q17 -5 31.5 -3.5t24.5 5.5l9 3l16 9v-185q3 -54 -16 -103zM245 496q0 -5 6 -5h4l-1 2l2 -2l2 2q0 -1 -0.5 -1t-0.5 -1h4q6 1 6 5h-22zM65 63l-2 12q-2 12 -6 40q-6 28 -8 41l-1 8l9 3q201 64 401 0l8 -3l-2 -9
q-12 -65 -14 -80l-1 -11l-12 2q-179 60 -360 0zM430 79l11 -2zM71 150q2 -6 4 -18t2 -13q1 -5 2.5 -14t2.5 -14q175 54 350 0q6 41 11 59q-186 58 -372 0zM23 -4l-2 13q-1 6 -2.5 13.5t-3.5 17t-3 14.5q-2 8 -6 23.5t-5 22.5l-2 9l8 3q40 16 54 20l7 -20q-20 -6 -45 -17
q3 -13 9 -37q1 -6 3.5 -17.5t3.5 -15.5q46 16 71 23l-5 39l21 4l7 -59l-9 -2q-52 -13 -88 -29zM489 -4l-12 5q-37 16 -88 29l-9 2l1 10l3 24q1 9 3 25l22 -4q-2 -6 -4 -24q0 -2 -0.5 -7.5t-1.5 -7.5q32 -8 71 -23q1 4 3.5 15.5t3.5 17.5q1 2 4 15.5t5 21.5q-8 3 -24.5 9
t-20.5 8l7 20q38 -14 54 -20l8 -3l-2 -9q-6 -30 -11 -46l-9 -45z"/>
</svg>