<svg xmlns="http://www.w3.org/2000/svg" viewBox="0 0 512 512">
    <defs><style>.color1{fill:#000000;}</style></defs>
    <title>sports-200</title>
    <path class="color1" transform="scale(1, -1) translate(0, -512)" d="M196 124q-77 0 -136 61q-52 52 -59.5 116.5t33.5 107.5q37 35 88 35q75 0 136 -61q52 -52 59.5 -117t-33.5 -107q-37 -35 -88 -35zM122 423q-46 0 -73 -28q-34 -35 -26.5 -92.5t52.5 -101.5q54 -56 121 -56q46 0 73 29q34 35 26.5 92t-52.5 102q-55 55 -121 55zM284 175
l46 -48l-15 -14l-46 47zM407 0q-16 0 -24 11l-68 69q-11 9 -11 25t11 24q9 10 24 10t25 -10l68 -69q11 -13 11 -26q0 -14 -11 -23q-9 -11 -25 -11zM339 118q-5 0 -9 -4q-5 -3 -5 -9t5 -10l68 -69q10 -11 19 0q4 3 4 8q0 7 -4 11l-68 69q-6 4 -10 4zM432 352q-32 0 -57 23
q-23 24 -23 57.5t23 56.5q25 23 57 23t57 -23q23 -24 23 -57.5t-23 -56.5q-25 -23 -57 -23zM432 491q-22 0 -42 -17q-16 -17 -16 -41.5t16 -42.5q19 -17 41 -17q23 0 42 17q17 17 17 41.5t-17 42.5q-19 17 -41 17zM405 364q-11 0 -16 1l4 21q16 -3 38 2q6 2 8 3q10 7 13 18
q1 8 -5 18q-2 2 -7 5.5t-7 4.5t-6.5 4.5t-6.5 4.5l-6 3q-13 10 -19 22q-8 16 2 30l18 -10q-2 -4 0 -11q5 -9 14 -15q2 -1 5 -4q1 -1 5 -3t6 -4q16 -11 19 -15q15 -16 10 -37q-7 -20 -22 -30q-4 -3 -15 -5q-17 -3 -32 -3z"/>
</svg>