<svg xmlns="http://www.w3.org/2000/svg" viewBox="0 0 512 512">
    <defs><style>.color1{fill:#000000;}</style></defs>
    <title>sports-4</title>
    <path class="color1" transform="scale(1, -1) translate(0, -512)" d="M144 54q-23 0 -38.5 16t-15.5 39v294q0 23 15.5 39t38.5 16t38.5 -16t15.5 -39v-293q0 -23 -16 -39.5t-38 -16.5zM144 436q-14 0 -23.5 -10t-9.5 -23v-294q0 -13 9.5 -23t23.5 -10q13 0 23 10t10 24v293q0 13 -9.5 23t-23.5 10zM11 267h89v-22h-89v22zM188 267h136v-22
h-136v22zM49 353h21v-194h-21v194zM368 55q-23 0 -38.5 16t-15.5 39v293q0 23 16 39t38 16q23 0 38.5 -16t15.5 -39v-293q0 -23 -15.5 -39t-38.5 -16zM368 436q-14 0 -23.5 -10t-9.5 -23v-293q0 -14 9.5 -23.5t23.5 -9.5t23.5 9.5t9.5 23.5v293q0 13 -9.5 23t-23.5 10z
M412 267h89v-22h-89v22zM442 353h21v-194h-21v194z"/>
</svg>