<svg xmlns="http://www.w3.org/2000/svg" viewBox="0 0 512 512">
    <defs><style>.color1{fill:#000000;}</style></defs>
    <title>sports-60</title>
    <path class="color1" transform="scale(1, -1) translate(0, -512)" d="M256 121q-61 0 -103 79.5t-42 195.5q0 66 11 107l2 9h264l2 -9q11 -51 11 -107q0 -116 -42 -195.5t-103 -79.5zM141 491q-9 -42 -9 -95q0 -105 36.5 -179.5t87.5 -74.5t87.5 74.5t36.5 179.5q0 46 -9 95h-230zM245 121h22v-110h-22v110zM176 21h160v-21h-160v21zM156 193
q-53 36 -88 78.5t-48.5 73t-17.5 63.5t-3 43t3 19l2 9h115v-21h-98q-2 -18 0.5 -38.5t14 -56t45.5 -76t88 -77.5zM356 193l-11 17q52 37 86 77.5t45 76t14 56t1 38.5h-98v21h115l2 -9q2 -9 3 -19t-3 -43t-17.5 -63.5t-48.5 -73t-88 -78.5zM256 290q-26 0 -45 19t-19 45
t19 45t45 19t45 -19t19 -45t-19 -45t-45 -19zM256 397q-17 0 -30 -12.5t-13 -30.5q0 -17 13 -30t30 -13t30 13t13 30q0 18 -13 30.5t-30 12.5z"/>
</svg>