<svg xmlns="http://www.w3.org/2000/svg" viewBox="0 0 512 512">
    <defs><style>.color1{fill:#000000;}</style></defs>
    <title>sports-66</title>
    <path class="color1" transform="scale(1, -1) translate(0, -512)" d="M94 43q-35 0 -52 20q-19 22 -12 65q2 8 2 13q5 26 4 44q-1 14 -14 40q-9 23 -11 29q-10 27 -10 69q0 89 47 125q25 20 81 22q44 0 65 -15q24 -16 29 -49q3 -22 -5 -41q12 8 24 -2q9 -7 11 -21q12 -52 -13 -103q-3 -6 -13 -21q-15 -25 -17 -30q-12 -29 -9 -58v-13v-26
q-6 -29 -24 -40q-12 -6 -29 -6h-18q-3 0 -9.5 -0.5t-9.5 -0.5q-6 -1 -17 -1zM129 449q-46 -2 -68 -18q-39 -29 -39 -108q0 -31 9 -63q6 -18 11 -26q13 -33 15 -48q2 -13 -5 -49q0 -2 -0.5 -6t-1.5 -6q-5 -35 8 -48q12 -13 36 -13q9 0 15 1q13 0 19 1q3 0 9.5 0.5t9.5 0.5
q14 0 19 4q10 6 13 24v23v13q-2 37 12 66q2 7 18 33q1 2 5.5 9t6.5 11q22 42 10 88q0 1 -0.5 3t-0.5 3l-1 2l-1 -2v-2q-1 -1 -1.5 -3t-0.5 -3q-2 -6 -3 -10q-9 -31 -30 -31q-4 0 -6 2q-9 1 -14 11q-6 14 0 29q4 9 13 17q3 3 6 9q13 15 10 40q-7 26 -21 35q-15 11 -52 11z
M207 348q-1 -1 -3 -4t-3 -4q-7 -6 -10 -13t0 -10q5 0 11 17q2 4 2 7q3 3 3 7zM418 43q-11 0 -17 1h-18h-18q-17 0 -30 6q-18 11 -24 39q-2 14 0 27v13q3 29 -9 58q-2 5 -17 30q-10 15 -13 21q-24 47 -13 103q2 13 11 21q13 9 24 2q-8 21 -5 41q5 32 28 49q21 15 65 15
q55 0 82 -21q47 -36 47 -125q0 -43 -11 -69q-2 -6 -11 -29q-13 -26 -14 -40q-1 -18 4 -44q1 -2 1 -6.5t1 -6.5q6 -44 -12 -65q-16 -20 -51 -20zM283 346q-2 -2 -2 -8q-12 -46 10 -88q2 -4 6.5 -11t5.5 -9q15 -26 18 -34q14 -29 12 -66v-13v-24q3 -17 13 -23q7 -4 20 -4
t19 -1h18q7 -1 16 -1q26 0 35 13q13 13 8 48q-1 2 -1.5 6t-0.5 6q-7 36 -5 49t15 47q8 13 11 25q10 30 10 63q0 79 -39 108q-22 16 -68 18q-36 0 -52 -11t-19 -35q-8 -21 7 -38q1 -2 2 -3.5l2 -3t2 -2.5q5 -5 13 -17q6 -15 0 -29q-5 -10 -15 -11l-2 -1q-2 -1 -3 -1
q-21 0 -30 31q-1 4 -3 10q0 1 -1 3.5t-1 3.5v2zM305 348l2 -6q1 -1 1 -3.5t1 -3.5q3 -7 5.5 -11.5t3.5 -5.5h2q4 2 1 11q-4 6 -10 11q-2 1 -3.5 4t-2.5 4z"/>
</svg>