<svg xmlns="http://www.w3.org/2000/svg" viewBox="0 0 512 512">
    <defs><style>.color1{fill:#000000;}</style></defs>
    <title>sports-8</title>
    <path class="color1" transform="scale(1, -1) translate(0, -512)" d="M256 269q-38 0 -64.5 26.5t-26.5 63.5q0 38 26.5 64.5t64.5 26.5t64.5 -26.5t26.5 -64.5q0 -37 -26.5 -63.5t-64.5 -26.5zM256 429q-29 0 -49 -20.5t-20 -49.5t20.5 -49t48.5 -20t48.5 20t20.5 49t-20 49.5t-49 20.5zM142 0q-8 0 -10 6l-26 69l-57 -18q-5 -2 -12 3
q-5 5 0 13l122 183q5 9 15 3q8 -5 3 -15l-106 -158l38 12q11 4 13 -6l19 -50l65 187q3 10 14 7q10 -4 6 -14l-75 -216q-2 -6 -9 -6zM370 0q-7 0 -9 7l-75 216q-4 10 6 14q10 3 14 -7l65 -187l19 50q5 9 13 6l38 -12l-105 158q-5 10 3 15q10 5 15 -3l122 -183q3 -7 0 -13
q-4 -9 -12 -3l-57 18l-26 -69q-3 -7 -11 -7zM293 208h-3l-34 11l-34 -10q-6 -2 -11 3l-25 27l-36 8q-5 3 -7 8l-9 35l-25 25q-4 4 -3 10l9 36l-10 34q-3 4 3 10l25 26l9 35q2 6 7 8l36 8l25 26q5 5 11 3l35 -10l34 11q6 2 11 -3l25 -26l36 -8q5 -1 7 -8l9 -35l25 -26
q4 -4 3 -10l-9 -34l9 -36q1 -6 -3 -10l-25 -25l-9 -35q-1 -5 -7 -7l-36 -9l-25 -27q-3 -5 -8 -5zM161 266l32 -9q2 0 5 -3l24 -25l31 9h5l31 -9l24 25q1 1 5 3l32 9l8 32q0 2 4 5l23 22l-8 32v6l8 31l-23 23q-3 3 -4 5l-8 32l-32 9q-2 0 -5 3l-24 24l-30 -10h-6l-31 9
l-24 -24q-1 -1 -5 -3l-32 -9l-8 -32q0 -1 -4 -5l-22 -21l8 -31q4 -4 0 -6l-8 -32l23 -22q3 -3 4 -5z"/>
</svg>