<svg xmlns="http://www.w3.org/2000/svg" viewBox="0 0 512 512">
    <defs><style>.color1{fill:#000000;}</style></defs>
    <title>sports-9</title>
    <path class="color1" transform="scale(1, -1) translate(0, -512)" d="M285 169h-173q-47 0 -79.5 32.5t-32.5 79.5q0 46 33 79t79 33h173q46 0 79 -33t33 -79q0 -47 -32.5 -79.5t-79.5 -32.5zM112 371q-38 0 -64.5 -26.5t-26.5 -63.5q0 -39 26.5 -65t64.5 -26h173q38 0 64 26.5t26 64.5q0 37 -26.5 63.5t-63.5 26.5h-173zM320 0
q-55 0 -94 37.5t-39 90.5v3h21v-3q0 -44 33 -75.5t79 -31.5t79 31.5t33 75.5v373h21v-373q0 -53 -39 -90.5t-94 -37.5zM140 146h117v-21h-117v21zM140 236h117v-22h-117v22zM384 291h117v-21h-117v21z"/>
</svg>