<svg xmlns="http://www.w3.org/2000/svg" viewBox="0 0 512 512">
    <defs><style>.color1{fill:#000000;}</style></defs>
    <title>sports-91</title>
    <path class="color1" transform="scale(1, -1) translate(0, -512)" d="M258 0q-62 0 -105.5 44t-43.5 105q0 32 12 55t35 50q8 9 24 31q10 13 18 74l1 9h115l1 -10q8 -61 18 -73q4 -6 26 -34q16 -19 23.5 -30t15.5 -31t8 -42q1 -61 -42.5 -104.5t-105.5 -43.5zM219 348q-13 -64 -21 -75q-5 -8 -14 -19t-11 -14q-15 -18 -22 -28t-13.5 -27.5
t-6.5 -36.5q0 -52 37.5 -90t90.5 -38t90.5 37.5t37.5 90.5q0 19 -7 35.5t-13.5 25.5t-21.5 28q-16 18 -28 35q-15 19 -20 75h-78v1zM256 380q-20 0 -34.5 14.5t-14.5 34.5t14.5 34.5t34.5 14.5t34.5 -14.5t14.5 -34.5t-14.5 -34.5t-34.5 -14.5zM256 457q-11 0 -19.5 -8.5
t-8.5 -19.5t8.5 -19.5t19.5 -8.5t19.5 8.5t8.5 19.5t-8.5 19.5t-19.5 8.5zM245 501h22v-34h-22v34zM245 389h22v-378h-22v378z"/>
</svg>